%!PS-Adobe-3.0 EPSF-3.0
%%Creator: MATLAB, The MathWorks, Inc. Version 7.14.0.739 (R2012a). Operating System: Linux 3.2.0-39-generic #62-Ubuntu SMP Thu Feb 28 00:28:53 UTC 2013 x86_64.
%%Title: /data/PhD/papers/IROS2013/figures/CF.eps
%%CreationDate: 03/21/2013  14:53:10
%%DocumentNeededFonts: Helvetica
%%DocumentProcessColors: Cyan Magenta Yellow Black
%%LanguageLevel: 2
%%Pages: 1
%%BoundingBox:    81   313   529   479
%%EndComments

%%BeginProlog
% MathWorks dictionary
/MathWorks 160 dict begin
% definition operators
/bdef {bind def} bind def
/ldef {load def} bind def
/xdef {exch def} bdef
/xstore {exch store} bdef
% operator abbreviations
/c  /clip ldef
/cc /concat ldef
/cp /closepath ldef
/gr /grestore ldef
/gs /gsave ldef
/mt /moveto ldef
/np /newpath ldef
/cm /currentmatrix ldef
/sm /setmatrix ldef
/rm /rmoveto ldef
/rl /rlineto ldef
/s {show newpath} bdef
/sc {setcmykcolor} bdef
/sr /setrgbcolor ldef
/sg /setgray ldef
/w /setlinewidth ldef
/j /setlinejoin ldef
/cap /setlinecap ldef
/rc {rectclip} bdef
/rf {rectfill} bdef
% page state control
/pgsv () def
/bpage {/pgsv save def} bdef
/epage {pgsv restore} bdef
/bplot /gsave ldef
/eplot {stroke grestore} bdef
% orientation switch
/portraitMode 0 def /landscapeMode 1 def /rotateMode 2 def
% coordinate system mappings
/dpi2point 0 def
% font control
/FontSize 0 def
/FMS {/FontSize xstore findfont [FontSize 0 0 FontSize neg 0 0]
  makefont setfont} bdef
/reencode {exch dup where {pop load} {pop StandardEncoding} ifelse
  exch dup 3 1 roll findfont dup length dict begin
  { 1 index /FID ne {def}{pop pop} ifelse } forall
  /Encoding exch def currentdict end definefont pop} bdef
/isroman {findfont /CharStrings get /Agrave known} bdef
/FMSR {3 1 roll 1 index dup isroman {reencode} {pop pop} ifelse
  exch FMS} bdef
/csm {1 dpi2point div -1 dpi2point div scale neg translate
 dup landscapeMode eq {pop -90 rotate}
  {rotateMode eq {90 rotate} if} ifelse} bdef
% line types: solid, dotted, dashed, dotdash
/SO { [] 0 setdash } bdef
/DO { [.5 dpi2point mul 4 dpi2point mul] 0 setdash } bdef
/DA { [6 dpi2point mul] 0 setdash } bdef
/DD { [.5 dpi2point mul 4 dpi2point mul 6 dpi2point mul 4
  dpi2point mul] 0 setdash } bdef
% macros for lines and objects
/L {lineto stroke} bdef
/MP {3 1 roll moveto 1 sub {rlineto} repeat} bdef
/AP {{rlineto} repeat} bdef
/PDlw -1 def
/W {/PDlw currentlinewidth def setlinewidth} def
/PP {closepath eofill} bdef
/DP {closepath stroke} bdef
/MR {4 -2 roll moveto dup  0 exch rlineto exch 0 rlineto
  neg 0 exch rlineto closepath} bdef
/FR {MR stroke} bdef
/PR {MR fill} bdef
/L1i {{currentfile picstr readhexstring pop} image} bdef
/tMatrix matrix def
/MakeOval {newpath tMatrix currentmatrix pop translate scale
0 0 1 0 360 arc tMatrix setmatrix} bdef
/FO {MakeOval stroke} bdef
/PO {MakeOval fill} bdef
/PD {currentlinewidth 2 div 0 360 arc fill
   PDlw -1 eq not {PDlw w /PDlw -1 def} if} def
/FA {newpath tMatrix currentmatrix pop translate scale
  0 0 1 5 -2 roll arc tMatrix setmatrix stroke} bdef
/PA {newpath tMatrix currentmatrix pop	translate 0 0 moveto scale
  0 0 1 5 -2 roll arc closepath tMatrix setmatrix fill} bdef
/FAn {newpath tMatrix currentmatrix pop translate scale
  0 0 1 5 -2 roll arcn tMatrix setmatrix stroke} bdef
/PAn {newpath tMatrix currentmatrix pop translate 0 0 moveto scale
  0 0 1 5 -2 roll arcn closepath tMatrix setmatrix fill} bdef
/vradius 0 def /hradius 0 def /lry 0 def
/lrx 0 def /uly 0 def /ulx 0 def /rad 0 def
/MRR {/vradius xdef /hradius xdef /lry xdef /lrx xdef /uly xdef
  /ulx xdef newpath tMatrix currentmatrix pop ulx hradius add uly
  vradius add translate hradius vradius scale 0 0 1 180 270 arc 
  tMatrix setmatrix lrx hradius sub uly vradius add translate
  hradius vradius scale 0 0 1 270 360 arc tMatrix setmatrix
  lrx hradius sub lry vradius sub translate hradius vradius scale
  0 0 1 0 90 arc tMatrix setmatrix ulx hradius add lry vradius sub
  translate hradius vradius scale 0 0 1 90 180 arc tMatrix setmatrix
  closepath} bdef
/FRR {MRR stroke } bdef
/PRR {MRR fill } bdef
/MlrRR {/lry xdef /lrx xdef /uly xdef /ulx xdef /rad lry uly sub 2 div def
  newpath tMatrix currentmatrix pop ulx rad add uly rad add translate
  rad rad scale 0 0 1 90 270 arc tMatrix setmatrix lrx rad sub lry rad
  sub translate rad rad scale 0 0 1 270 90 arc tMatrix setmatrix
  closepath} bdef
/FlrRR {MlrRR stroke } bdef
/PlrRR {MlrRR fill } bdef
/MtbRR {/lry xdef /lrx xdef /uly xdef /ulx xdef /rad lrx ulx sub 2 div def
  newpath tMatrix currentmatrix pop ulx rad add uly rad add translate
  rad rad scale 0 0 1 180 360 arc tMatrix setmatrix lrx rad sub lry rad
  sub translate rad rad scale 0 0 1 0 180 arc tMatrix setmatrix
  closepath} bdef
/FtbRR {MtbRR stroke } bdef
/PtbRR {MtbRR fill } bdef
/stri 6 array def /dtri 6 array def
/smat 6 array def /dmat 6 array def
/tmat1 6 array def /tmat2 6 array def /dif 3 array def
/asub {/ind2 exch def /ind1 exch def dup dup
  ind1 get exch ind2 get sub exch } bdef
/tri_to_matrix {
  2 0 asub 3 1 asub 4 0 asub 5 1 asub
  dup 0 get exch 1 get 7 -1 roll astore } bdef
/compute_transform {
  dmat dtri tri_to_matrix tmat1 invertmatrix 
  smat stri tri_to_matrix tmat2 concatmatrix } bdef
/ds {stri astore pop} bdef
/dt {dtri astore pop} bdef
/db {2 copy /cols xdef /rows xdef mul dup 3 mul string
  currentfile 
  3 index 0 eq {/ASCIIHexDecode filter}
  {/ASCII85Decode filter 3 index 2 eq {/RunLengthDecode filter} if }
  ifelse exch readstring pop
  dup 0 3 index getinterval /rbmap xdef
  dup 2 index dup getinterval /gbmap xdef
  1 index dup 2 mul exch getinterval /bbmap xdef pop pop}bdef
/it {gs np dtri aload pop moveto lineto lineto cp c
  cols rows 8 compute_transform 
  rbmap gbmap bbmap true 3 colorimage gr}bdef
/il {newpath moveto lineto stroke}bdef
currentdict end def
%%EndProlog

%%BeginSetup
MathWorks begin

0 cap

end
%%EndSetup

%%Page: 1 1
%%BeginPageSetup
%%PageBoundingBox:    81   313   529   479
MathWorks begin
bpage
%%EndPageSetup

%%BeginObject: obj1
bplot

/dpi2point 12 def
portraitMode 0972 5748 csm

    0     0  5376  1987 rc
87 dict begin %Colortable dictionary
/c0 { 0.000000 0.000000 0.000000 sr} bdef
/c1 { 1.000000 1.000000 1.000000 sr} bdef
/c2 { 0.900000 0.000000 0.000000 sr} bdef
/c3 { 0.000000 0.820000 0.000000 sr} bdef
/c4 { 0.000000 0.000000 0.800000 sr} bdef
/c5 { 0.910000 0.820000 0.320000 sr} bdef
/c6 { 1.000000 0.260000 0.820000 sr} bdef
/c7 { 0.000000 0.820000 0.820000 sr} bdef
c0
1 j
1 sg
   0    0 5377 1988 rf
6 w
0 1521 4166 0 0 -1521 698 1670 4 MP
PP
-4166 0 0 1521 4166 0 0 -1521 698 1670 5 MP stroke
4 w
DO
SO
6 w
0 sg
 698 1670 mt 4864 1670 L
 698  149 mt 4864  149 L
 698 1670 mt  698  149 L
4864 1670 mt 4864  149 L
 698 1670 mt 4864 1670 L
 698 1670 mt  698  149 L
1233 1670 mt 1233 1628 L
1233  149 mt 1233  190 L
%%IncludeResource: font Helvetica
/Helvetica /ISOLatin1Encoding 120 FMSR

1167 1815 mt 
(20) s
2301 1670 mt 2301 1628 L
2301  149 mt 2301  190 L
2185 1815 mt 
(20.5) s
3369 1670 mt 3369 1628 L
3369  149 mt 3369  190 L
3303 1815 mt 
(21) s
4437 1670 mt 4437 1628 L
4437  149 mt 4437  190 L
4321 1815 mt 
(21.5) s
 698 1574 mt  740 1574 L
4864 1574 mt 4823 1574 L
 598 1618 mt 
(0) s
 698  624 mt  740  624 L
4864  624 mt 4823  624 L
 598  668 mt 
(1) s
 698 1670 mt 4864 1670 L
 698  149 mt 4864  149 L
 698 1670 mt  698  149 L
4864 1670 mt 4864  149 L
gs 698 148 4167 1523 rc
0.6 sg
5 0 5 0 6 0 5 0 5 0 6 0 5 0 5 0 
6 0 5 0 5 0 6 0 5 0 5 0 6 0 5 0 
5 0 6 0 5 0 5 0 6 0 5 0 6 0 5 0 
5 0 6 0 5 0 5 0 6 0 5 0 5 0 6 0 
5 0 5 0 6 0 5 0 5 0 6 0 5 0 5 0 
6 0 5 0 5 0 6 0 5 0 5 0 6 0 5 0 
5 0 6 0 5 0 5 0 6 0 5 0 5 0 6 0 
5 0 5 0 6 0 5 0 5 0 6 0 5 0 5 0 
6 0 5 0 6 0 5 0 5 0 6 0 5 0 5 0 
6 0 5 0 5 0 6 0 5 0 5 0 6 0 5 0 
5 0 6 0 5 0 5 0 6 0 5 0 5 0 6 0 
5 0 5 0 6 0 5 0 5 0 6 0 5 0 5 0 
6 0 5 0 0 0 -4102 1574 100 MP
5 0 5 0 6 0 5 0 5 0 6 0 5 0 5 0 
6 0 5 0 5 0 6 0 5 0 5 0 6 0 5 0 
5 0 6 0 5 0 5 0 6 0 5 0 5 0 6 0 
5 0 5 0 6 0 5 0 5 0 6 0 5 0 5 0 
6 0 5 0 5 0 6 0 5 0 6 0 5 0 5 0 
6 0 5 0 5 0 6 0 5 0 5 0 6 0 5 0 
5 0 6 0 5 0 5 0 6 0 5 0 5 0 6 0 
5 0 5 0 6 0 5 0 5 0 6 0 5 0 5 0 
6 0 5 0 5 0 6 0 5 0 5 0 6 0 5 0 
5 0 6 0 5 0 5 0 6 0 5 0 6 0 5 0 
5 0 6 0 5 0 5 0 6 0 5 0 5 0 6 0 
5 0 5 0 6 0 5 0 5 0 6 0 5 -960 5 0 
6 0 5 0 5 0 6 0 100 AP
6 0 5 0 5 0 6 0 5 0 6 0 5 0 5 0 
6 0 5 0 5 0 6 0 5 0 5 0 6 0 5 0 
5 0 6 0 5 0 5 0 6 0 5 0 5 0 6 0 
5 0 5 0 6 0 5 0 5 0 6 0 5 0 5 0 
6 0 5 0 5 0 6 0 5 0 5 0 6 0 5 0 
5 0 6 0 5 0 5 0 6 0 5 960 5 0 6 0 
5 0 6 0 5 0 5 0 6 0 5 0 5 0 6 0 
5 0 5 0 6 0 5 0 5 0 6 0 5 0 5 0 
6 0 5 0 5 0 6 0 5 0 5 0 6 0 5 0 
5 0 6 0 5 0 5 0 6 0 5 0 5 0 6 0 
5 0 5 0 6 0 5 0 5 0 6 0 5 0 5 0 
6 0 5 0 5 0 6 0 5 0 6 0 5 0 5 0 
6 0 5 0 5 0 6 0 100 AP
6 0 5 0 5 0 6 0 5 0 5 0 6 0 5 0 
5 0 6 0 5 0 5 0 6 0 5 0 5 0 6 0 
5 0 5 0 6 960 5 0 6 0 5 0 5 0 6 0 
5 0 5 0 6 0 5 0 5 0 6 0 5 0 5 0 
6 0 5 0 5 0 6 0 5 0 5 0 6 0 5 0 
5 0 6 0 5 0 5 -960 6 0 5 0 5 0 6 0 
5 0 5 0 6 0 5 0 5 0 6 0 5 0 5 0 
6 0 5 0 5 0 6 0 5 0 5 0 6 0 5 0 
6 0 5 0 5 0 6 0 5 0 5 0 6 0 5 0 
5 0 6 0 5 0 5 0 6 0 5 0 5 0 6 0 
5 0 5 0 6 0 5 0 5 0 6 0 5 0 5 0 
6 0 5 0 5 0 6 0 5 0 5 0 6 0 5 0 
5 0 6 0 5 0 5 0 100 AP
6 0 5 0 5 -960 6 0 5 0 5 0 6 0 5 0 
5 0 6 0 5 0 5 0 6 0 5 0 5 0 6 0 
5 0 5 0 6 0 5 0 5 0 6 0 5 0 5 0 
6 0 5 0 5 0 6 0 5 0 5 0 6 0 5 0 
6 0 5 0 5 0 6 0 5 0 5 0 6 0 5 0 
5 0 6 0 5 0 5 0 6 0 5 0 5 0 6 0 
5 0 5 0 6 0 5 0 5 0 6 0 5 0 5 0 
6 0 5 0 5 0 6 0 5 0 5 0 6 0 5 0 
5 0 6 0 5 0 5 0 6 0 5 0 5 0 6 0 
5 0 5 0 6 0 5 0 6 0 5 0 5 0 6 0 
5 0 5 0 6 0 5 0 5 0 6 0 5 0 5 0 
6 0 5 0 5 0 6 0 5 0 5 0 6 0 5 0 
5 0 6 0 5 0 5 0 100 AP
5 0 6 0 5 0 6 0 5 0 5 0 6 0 5 0 
5 0 6 0 5 0 5 0 6 0 5 0 5 0 6 0 
5 0 5 0 6 0 5 0 5 0 6 0 5 0 5 0 
6 0 5 0 5 0 6 0 5 0 5 0 6 0 5 0 
5 0 6 0 5 0 5 0 6 0 5 0 5 0 6 0 
5 0 5 0 6 0 5 0 5 0 6 0 5 0 6 0 
5 0 5 0 6 0 5 0 5 0 6 0 5 0 5 0 
6 960 5 0 5 0 6 0 5 0 5 0 6 0 5 0 
5 0 6 0 5 0 5 0 6 0 5 0 5 0 6 0 
5 0 5 0 6 0 5 0 5 0 6 0 5 0 5 0 
6 0 5 0 5 0 6 0 5 0 5 0 6 0 5 0 
5 0 6 0 5 0 6 0 5 0 5 0 6 0 5 0 
5 0 6 0 5 0 5 0 100 AP
5 0 6 0 5 0 5 0 6 0 5 0 5 0 6 -960 
5 0 5 0 6 0 5 0 5 0 6 0 5 0 6 0 
5 0 5 0 6 0 5 0 5 0 6 0 5 0 5 0 
6 0 5 0 5 0 6 0 5 0 5 0 6 0 5 0 
5 0 6 0 5 0 5 0 6 0 5 0 5 0 6 0 
5 0 5 0 6 0 5 0 5 0 6 0 5 0 5 0 
6 960 5 0 5 0 6 0 5 0 5 -960 6 0 5 0 
5 0 6 960 5 0 6 0 5 0 5 0 6 0 5 0 
5 -960 6 0 5 0 5 0 6 0 5 0 5 0 6 0 
5 0 5 0 6 0 5 0 5 0 6 0 5 0 5 0 
6 0 5 0 5 0 6 0 5 0 5 0 6 0 5 0 
5 0 6 0 5 0 5 0 6 0 5 0 5 0 6 0 
5 0 5 0 6 0 5 0 100 AP
5 0 6 0 5 0 5 0 6 0 5 0 5 0 6 0 
5 0 5 0 6 0 5 0 5 0 6 0 5 0 5 0 
6 0 5 0 5 0 6 0 5 0 5 0 6 0 5 0 
5 0 6 0 5 0 5 0 6 0 4 0 6 0 5 0 
5 0 6 0 5 0 5 0 6 0 5 0 5 0 6 0 
5 0 5 0 6 0 5 0 5 0 6 0 5 0 5 0 
6 0 5 0 5 0 6 0 5 0 5 0 6 0 5 0 
5 0 6 0 5 0 5 0 6 0 5 0 5 0 6 0 
5 0 5 0 6 0 5 0 5 0 6 0 5 0 5 0 
6 0 5 0 6 0 5 0 5 0 6 0 5 0 5 0 
6 0 5 0 5 0 6 0 5 0 5 0 6 0 5 0 
5 0 6 0 5 0 5 0 6 0 5 0 5 0 6 0 
5 0 5 0 6 0 5 0 100 AP
5 0 6 0 5 0 5 0 6 0 5 0 5 0 6 0 
5 0 5 0 6 0 5 0 5 0 6 0 5 0 5 0 
6 0 5 0 5 0 6 0 5 0 5 0 6 0 5 0 
5 0 6 0 5 0 5 0 6 0 5 0 5 0 6 0 
5 0 5 0 6 0 5 0 5 0 6 0 5 0 5 0 
6 0 5 0 6 0 5 0 5 0 6 0 5 0 5 0 
6 0 5 0 5 0 6 0 5 0 5 0 6 0 5 0 
5 0 6 0 5 0 5 0 6 0 5 0 5 0 6 0 
5 0 5 0 6 0 5 0 5 0 6 0 5 0 5 0 
6 0 5 0 5 0 6 0 5 0 5 0 6 0 5 960 
5 0 6 0 5 0 5 0 6 0 5 0 6 0 5 0 
5 0 6 0 5 0 5 0 6 0 5 0 5 0 6 0 
5 0 5 0 6 0 5 0 100 AP
5 0 5 0 6 0 5 0 5 0 6 0 5 0 5 0 
6 0 5 0 5 0 6 0 5 0 6 0 5 0 5 0 
6 0 5 0 5 0 6 0 5 0 5 0 6 0 5 0 
5 0 6 0 5 0 5 0 6 0 5 0 5 0 6 0 
5 0 5 0 6 0 5 0 5 0 6 -960 5 0 5 0 
6 960 5 0 5 0 6 0 5 0 5 0 6 0 5 0 
5 0 6 0 5 0 5 0 6 0 5 0 5 0 6 0 
5 0 6 0 5 0 5 0 6 0 5 0 5 0 6 0 
5 0 5 0 6 0 5 0 5 0 6 0 5 0 5 0 
6 0 5 0 5 0 6 0 5 0 5 0 6 0 5 0 
5 0 6 0 5 0 5 0 6 0 5 -960 5 0 6 0 
5 0 5 0 6 0 5 0 5 0 6 0 5 0 5 0 
6 0 5 0 5 0 6 0 100 AP
5 0 5 0 6 0 5 0 5 0 6 0 5 0 5 0 
6 0 5 0 5 0 6 0 5 0 5 0 6 0 5 0 
5 0 6 0 5 0 5 0 6 0 5 0 5 0 6 0 
5 0 6 0 5 0 5 0 6 0 5 0 5 0 6 0 
5 0 5 0 6 0 5 0 5 0 6 0 5 0 5 0 
6 0 5 0 5 0 6 0 5 0 5 0 6 0 5 0 
5 0 6 0 5 0 5 0 6 0 5 0 5 0 6 0 
5 0 5 0 6 0 5 0 5 0 6 0 5 0 5 0 
6 0 5 0 5 0 6 0 5 0 6 0 5 0 5 0 
6 0 5 0 5 0 6 0 5 0 5 0 6 0 5 0 
5 0 6 0 5 0 5 0 6 0 5 0 5 0 6 0 
5 0 5 0 6 0 5 0 5 0 6 0 5 0 5 0 
6 0 5 0 5 0 6 0 100 AP
5 0 5 0 6 0 5 0 5 0 6 0 5 0 5 0 
6 0 5 0 5 0 6 0 5 0 5 0 6 0 5 0 
5 0 6 0 5 0 5 0 6 0 5 0 5 0 6 0 
5 0 5 0 6 0 5 0 5 0 6 0 5 0 5 0 
6 0 5 0 5 0 6 0 5 0 5 0 6 0 5 0 
6 0 5 0 5 0 6 0 5 0 5 0 6 0 5 0 
5 0 6 0 5 0 5 0 6 0 5 0 5 0 6 0 
5 0 5 0 6 0 5 0 5 0 6 0 5 0 5 0 
6 0 5 0 5 0 6 0 5 0 5 0 6 0 5 0 
5 0 6 0 5 0 5 0 6 0 5 0 5 0 6 0 
5 0 5 0 6 0 5 0 6 0 5 0 5 0 6 0 
5 0 5 0 6 0 5 0 5 0 6 0 5 0 5 0 
6 960 5 0 5 0 6 0 100 AP
6 0 5 0 5 0 6 0 5 0 5 0 6 0 5 0 
5 0 6 0 5 0 6 0 5 0 5 0 6 0 5 0 
5 0 6 0 5 0 5 0 6 0 5 0 5 0 6 0 
5 0 5 0 6 0 5 0 5 0 6 0 5 0 5 0 
6 0 5 0 5 0 6 0 5 0 5 0 6 0 5 0 
5 0 6 0 5 0 5 0 6 0 5 0 5 0 6 0 
5 0 5 0 6 0 5 0 6 0 5 0 5 0 6 0 
5 0 5 0 6 0 5 0 5 0 6 0 5 0 5 0 
6 0 5 0 5 0 6 0 5 0 5 0 6 0 5 0 
5 0 6 0 5 0 5 0 6 0 5 0 5 0 6 -960 
5 0 5 0 6 0 5 0 5 0 6 0 5 0 5 0 
6 0 5 0 5 0 6 0 5 0 5 0 6 0 5 0 
6 0 5 0 5 0 6 0 100 AP
6 0 5 0 5 0 6 0 5 0 5 0 6 0 5 0 
5 0 6 0 5 0 5 0 6 0 5 0 5 0 6 0 
5 0 5 0 6 0 5 960 5 0 6 0 5 0 6 0 
5 0 5 0 6 0 5 0 5 0 6 0 5 0 5 0 
6 0 5 0 5 0 6 0 5 0 5 0 6 0 5 0 
5 0 6 0 5 0 5 0 6 0 5 0 5 0 6 0 
5 0 5 0 6 0 5 0 5 0 6 0 5 0 5 0 
6 0 5 0 5 0 6 0 5 0 5 0 6 0 5 0 
5 0 6 0 5 0 6 0 5 0 5 0 6 0 5 0 
5 0 6 0 5 0 5 0 6 0 5 0 5 0 6 0 
5 0 5 0 6 0 5 0 5 0 6 0 5 0 5 0 
6 0 5 0 5 0 6 0 5 0 5 0 6 0 5 0 
5 0 6 0 5 0 5 0 100 AP
6 0 5 0 5 0 6 0 5 0 5 0 6 0 5 0 
5 0 6 0 5 0 5 0 6 0 5 0 5 0 6 0 
5 0 5 0 6 0 5 0 5 0 6 0 5 0 5 0 
6 0 5 0 5 0 6 0 5 0 5 0 6 0 5 0 
5 0 6 0 5 0 6 0 5 0 5 0 6 0 5 0 
5 0 6 0 5 0 5 0 6 0 5 0 5 0 6 0 
5 0 5 0 6 0 5 0 5 0 6 0 5 0 5 0 
6 0 5 0 5 0 6 0 5 0 5 0 6 0 5 0 
5 0 6 0 5 0 5 0 6 0 5 0 5 0 6 0 
5 0 5 0 6 0 5 0 5 0 6 0 5 0 6 0 
5 0 5 0 6 0 5 0 5 0 6 0 5 0 5 0 
6 0 5 0 5 0 6 0 5 0 5 0 6 0 5 0 
5 0 6 0 5 0 5 0 100 AP
5 0 6 0 5 0 5 0 6 0 5 0 6 0 5 0 
5 0 6 0 5 0 5 0 6 0 5 0 5 0 6 0 
5 0 5 0 6 0 5 0 5 0 6 0 5 0 5 0 
6 0 5 0 5 0 6 0 5 0 5 0 6 0 5 0 
5 0 6 0 5 0 5 0 6 0 5 0 5 0 6 0 
5 0 5 0 6 0 5 0 5 0 6 0 5 0 5 0 
6 0 5 0 6 0 5 0 5 0 6 0 5 0 5 0 
6 0 5 0 5 0 6 0 5 0 5 0 6 0 5 0 
5 0 6 0 5 0 5 0 6 0 5 0 5 0 6 0 
5 0 5 0 6 0 5 0 5 0 6 0 5 0 5 0 
6 0 5 0 5 0 6 0 5 0 5 0 6 0 5 0 
5 0 6 0 5 0 5 0 6 0 5 0 6 0 5 0 
5 -960 6 0 5 0 5 0 100 AP
5 0 6 0 5 0 5 0 6 0 5 0 5 0 6 0 
5 0 5 0 6 0 5 0 5 0 6 0 5 0 5 0 
6 0 5 0 6 0 5 0 5 0 6 0 5 0 5 0 
6 0 5 0 5 0 6 0 5 0 5 0 6 0 5 0 
5 0 6 0 5 0 5 0 6 0 5 960 5 0 6 0 
5 0 5 0 6 0 5 0 5 0 6 0 5 0 5 0 
6 0 5 0 5 0 6 0 5 0 5 0 6 0 5 0 
5 0 6 0 5 0 5 0 6 0 5 0 6 0 5 0 
5 0 6 0 5 0 5 0 6 0 5 0 5 0 6 0 
5 0 5 0 6 0 5 0 5 0 6 0 5 0 5 0 
6 0 5 0 5 0 6 0 5 0 5 0 6 0 5 0 
5 0 6 0 5 0 5 0 6 0 5 0 5 0 6 0 
5 0 5 0 6 0 5 0 100 AP
5 960 6 0 5 0 5 0 6 0 5 0 5 0 6 0 
5 0 5 0 6 0 5 -960 5 0 6 0 5 0 5 0 
6 0 5 0 5 0 6 0 5 0 5 0 6 0 5 0 
5 0 6 0 5 0 5 0 6 0 5 0 5 0 6 0 
5 0 6 0 5 0 5 0 6 0 5 0 5 0 6 0 
5 0 5 0 6 0 5 0 5 0 6 0 5 0 5 0 
6 0 5 0 5 0 6 0 5 0 5 0 6 0 5 0 
5 0 6 0 5 0 5 0 6 0 5 0 5 0 6 0 
5 0 5 0 6 0 5 0 5 0 6 0 5 0 5 0 
6 0 5 0 5 0 6 0 5 0 6 0 5 0 5 0 
6 0 5 0 5 0 6 0 5 0 5 0 6 0 5 0 
5 0 6 0 5 0 5 0 6 0 5 0 5 0 6 0 
5 0 5 0 6 0 5 0 100 AP
5 0 5 0 6 0 5 0 6 0 5 0 5 0 6 0 
5 0 5 0 6 0 5 0 5 0 6 0 5 0 5 0 
6 0 5 0 5 0 6 0 5 0 5 0 6 0 5 0 
5 0 6 0 5 0 5 0 6 0 5 0 5 0 6 0 
5 0 5 0 6 0 5 0 5 0 6 0 5 0 5 0 
6 0 5 0 5 0 6 0 5 0 6 0 5 0 5 0 
6 0 5 0 5 0 6 0 5 0 5 0 6 0 5 0 
5 0 6 0 5 0 5 0 6 0 5 0 5 0 6 0 
5 0 5 0 6 0 5 0 5 0 6 0 5 0 5 0 
6 0 5 0 5 0 6 0 5 0 5 -960 6 0 5 960 
5 0 6 0 5 0 5 0 6 0 5 0 5 0 6 0 
5 0 6 0 5 0 5 0 6 0 5 -960 5 0 6 0 
5 0 5 0 6 0 5 0 100 AP
5 0 5 0 6 0 5 0 5 0 6 0 5 0 5 0 
6 0 5 0 5 0 6 0 5 0 5 0 6 0 5 0 
6 0 5 0 5 0 6 0 5 0 5 0 6 0 5 0 
5 0 6 0 5 0 5 0 6 0 5 0 5 0 6 0 
5 0 5 0 6 0 5 0 5 0 6 0 5 0 5 0 
6 0 5 0 5 0 6 0 5 0 5 0 6 0 5 0 
5 0 6 0 5 0 5 0 6 0 5 0 5 0 6 0 
5 0 5 0 6 0 5 0 6 0 5 0 5 0 6 0 
5 0 5 0 6 0 5 0 5 0 6 0 5 0 5 0 
6 0 5 0 5 0 6 0 5 0 5 0 6 0 5 0 
5 0 6 0 5 0 5 0 6 0 5 0 5 0 6 0 
5 0 5 0 6 0 5 0 5 0 6 0 5 0 5 0 
6 0 5 0 5 0 6 0 100 AP
-5 0 -5 0 -6 0 -5 0 -5 0 -6 0 -5 0 -5 0 
-6 0 -5 0 -5 0 -6 0 -5 0 -5 0 -6 0 -5 0 
-5 0 -6 0 -5 0 -5 0 -6 0 -5 0 -5 0 -6 0 
-5 0 -5 0 -6 0 -5 0 -5 0 -6 0 -5 0 -5 0 
-6 0 -5 0 -5 0 -6 0 -5 0 -5 0 -6 0 -5 0 
-6 0 -5 0 -5 0 -6 0 -5 0 -5 0 -6 0 -5 0 
-5 0 -6 0 -5 0 -5 0 -6 0 -5 0 -5 0 -6 0 
-5 0 -5 0 -6 0 -5 0 -5 0 -6 0 -5 0 -5 0 
-6 0 -5 0 -5 0 -6 0 -5 0 -5 0 -6 0 -5 0 
-5 0 -6 0 -5 0 -5 0 -6 0 -5 0 -5 0 -6 0 
-5 0 -5 0 -6 0 -5 0 -6 0 -5 0 -5 0 -6 0 
-5 0 -5 0 -6 0 -5 0 -5 0 -6 0 -5 0 -5 0 
-6 0 -5 0 -5 0 0 960 100 AP
-6 0 -5 0 -5 0 -6 0 -5 0 -5 0 -6 0 -5 0 
-5 0 -6 0 -5 0 -6 0 -5 0 -5 0 -6 0 -5 0 
-5 0 -6 0 -5 0 -5 0 -6 0 -5 0 -5 0 -6 0 
-5 0 -5 0 -6 0 -5 0 -5 0 -6 0 -5 0 -5 0 
-6 0 -5 0 -5 0 -6 0 -5 0 -5 0 -6 0 -5 0 
-5 0 -6 0 -5 0 -5 0 -6 0 -5 0 -5 0 -6 0 
-5 0 -5 0 -6 0 -5 0 -5 0 -6 0 -5 0 -6 0 
-5 0 -5 0 -6 0 -5 0 -5 0 -6 0 -5 0 -5 0 
-6 0 -5 0 -5 0 -6 0 -5 0 -5 0 -6 0 -5 0 
-5 0 -6 0 -5 0 -5 0 -6 0 -5 0 -5 0 -6 0 
-5 0 -5 0 -6 0 -5 0 -5 0 -6 0 -5 0 -5 0 
-6 0 -5 0 -5 0 -6 0 -5 0 -5 0 -6 0 -5 0 
-6 0 -5 0 -5 0 -6 0 100 AP
-6 0 -5 0 -5 0 -6 0 -5 0 -5 0 -6 0 -5 0 
-5 0 -6 0 -5 0 -5 0 -6 0 -5 0 -5 0 -6 0 
-5 0 -5 0 -6 0 -5 0 -5 0 -6 0 -5 0 -6 0 
-5 0 -5 0 -6 0 -5 0 -5 0 -6 0 -5 0 -5 0 
-6 0 -5 0 -5 0 -6 0 -5 0 -5 0 -6 0 -5 0 
-5 0 -6 0 -5 0 -5 0 -6 0 -5 0 -5 0 -6 0 
-5 0 -5 0 -6 0 -5 0 -5 0 -6 0 -5 0 -5 0 
-6 0 -5 0 -5 0 -6 0 -5 0 -5 0 -6 0 -5 0 
-5 0 -6 0 -5 0 -6 0 -5 0 -5 0 -6 0 -5 0 
-5 0 -6 0 -5 0 -5 0 -6 0 -5 0 -5 0 -6 0 
-5 0 -5 0 -6 0 -5 0 -5 0 -6 0 -5 0 -5 0 
-6 0 -5 0 -5 0 -6 0 -5 0 -5 0 -6 0 -5 0 
-5 0 -6 0 -5 0 -5 0 100 AP
-6 0 -5 0 -5 0 -6 0 -5 0 -5 0 -6 0 -5 0 
-5 0 -6 0 -5 0 -5 0 -6 0 -5 0 -5 0 -6 0 
-5 0 -5 0 -6 0 -5 0 -5 0 -6 0 -5 0 -5 0 
-6 0 -5 0 -5 0 -6 0 -5 0 -5 0 -6 0 -5 0 
-5 0 -6 0 -5 0 -5 0 -6 0 -5 0 -6 0 -5 0 
-5 0 -6 0 -5 0 -5 0 -6 0 -5 0 -5 0 -6 0 
-5 0 -5 0 -6 0 -5 0 -5 0 -6 0 -5 0 -5 0 
-6 0 -5 0 -5 0 -6 0 -5 0 -5 0 -6 0 -5 0 
-5 0 -6 0 -5 0 -5 0 -6 0 -5 0 -5 0 -6 0 
-5 0 -5 0 -6 0 -5 0 -5 0 -6 0 -5 0 -5 0 
-6 0 -5 0 -6 0 -5 0 -5 0 -6 0 -5 0 -5 0 
-6 0 -5 0 -5 0 -6 0 -5 0 -5 0 -6 0 -5 0 
-5 0 -6 0 -5 0 -5 0 100 AP
-5 0 -6 0 -5 0 -5 0 -6 0 -5 0 -6 0 -5 0 
-5 0 -6 0 -5 0 -5 0 -6 0 -5 0 -5 0 -6 0 
-5 0 -5 0 -6 0 -5 0 -5 0 -6 0 -5 0 -5 0 
-6 0 -5 0 -5 0 -6 0 -5 0 -5 0 -6 0 -5 0 
-5 0 -6 0 -5 0 -5 0 -6 0 -5 0 -5 0 -6 0 
-5 0 -5 0 -6 0 -5 0 -5 0 -6 0 -5 0 -5 0 
-6 0 -5 0 -6 0 -5 0 -5 0 -6 0 -5 0 -5 0 
-6 0 -5 0 -5 0 -6 0 -5 0 -5 0 -6 0 -5 0 
-5 0 -6 0 -5 0 -5 0 -6 0 -5 0 -5 0 -6 0 
-5 0 -5 0 -6 0 -5 0 -5 0 -6 0 -5 0 -5 0 
-6 0 -5 0 -5 0 -6 0 -5 0 -5 0 -6 0 -5 0 
-5 0 -6 0 -5 0 -5 0 -6 0 -5 0 -6 0 -5 0 
-5 0 -6 0 -5 0 -5 0 100 AP
-5 0 -6 0 -5 0 -5 0 -6 0 -5 0 -5 0 -6 0 
-5 0 -5 0 -6 0 -5 0 -5 0 -6 0 -5 0 -5 0 
-6 0 -5 0 -5 0 -6 0 -5 0 -6 0 -5 0 -5 0 
-6 0 -5 0 -5 0 -6 0 -5 0 -5 0 -6 0 -5 0 
-5 0 -6 0 -5 0 -5 0 -6 0 -5 0 -5 0 -6 0 
-5 0 -5 0 -6 0 -5 0 -5 0 -6 0 -5 0 -5 0 
-6 0 -5 0 -5 0 -6 0 -5 0 -5 0 -6 0 -5 0 
-5 0 -6 0 -5 0 -5 0 -6 0 -5 0 -5 0 -6 0 
-5 0 -6 0 -5 0 -5 0 -6 0 -5 0 -5 0 -6 0 
-5 0 -5 0 -6 0 -5 0 -5 0 -6 0 -5 0 -5 0 
-6 0 -5 0 -5 0 -6 0 -5 0 -5 0 -6 0 -5 0 
-5 0 -6 0 -5 0 -5 0 -6 0 -5 0 -5 0 -6 0 
-5 0 -5 0 -6 0 -5 0 100 AP
-5 0 -6 0 -5 0 -5 0 -6 0 -5 0 -5 0 -6 0 
-5 0 -5 0 -6 0 -5 0 -5 0 -6 0 -5 0 -5 0 
-6 0 -5 0 -5 0 -6 0 -5 0 -5 0 -6 0 -5 0 
-5 0 -6 0 -5 0 -5 0 -6 0 -5 0 -5 0 -6 0 
-5 0 -6 0 -5 0 -5 0 -6 0 -5 0 -5 0 -6 0 
-5 0 -5 0 -6 0 -5 0 -5 0 -6 0 -5 0 -5 0 
-6 0 -5 0 -5 0 -6 0 -5 0 -5 0 -6 0 -5 0 
-5 0 -6 0 -5 0 -5 0 -6 0 -5 0 -5 0 -6 0 
-5 0 -5 0 -6 0 -5 0 -5 0 -6 0 -5 0 -5 0 
-6 0 -5 0 -5 0 -6 0 -5 0 -6 0 -5 0 -5 0 
-6 0 -5 0 -5 0 -6 0 -5 0 -5 0 -6 0 -5 0 
-5 0 -6 0 -5 0 -5 0 -6 0 -5 0 -5 0 -6 0 
-5 0 -5 0 -6 0 -5 0 100 AP
-5 0 -5 0 -6 0 -5 0 -6 0 -5 0 -5 0 -6 0 
-5 0 -5 0 -6 0 -5 0 -5 0 -6 0 -5 0 -5 0 
-6 0 -5 0 -5 0 -6 0 -5 0 -5 0 -6 0 -5 0 
-5 0 -6 0 -5 0 -5 0 -6 0 -5 0 -5 0 -6 0 
-5 0 -5 0 -6 0 -5 0 -5 0 -6 0 -5 0 -5 0 
-6 0 -5 0 -5 0 -6 0 -5 0 -5 0 -6 0 -5 0 
-6 0 -5 0 -5 0 -6 0 -5 0 -5 0 -6 0 -5 0 
-5 0 -6 0 -5 0 -5 0 -6 0 -5 0 -5 0 -6 0 
-5 0 -5 0 -6 0 -5 0 -5 0 -6 0 -5 0 -5 0 
-6 0 -5 0 -5 0 -6 0 -5 0 -5 0 -6 0 -5 0 
-5 0 -6 0 -5 0 -5 0 -6 0 -5 0 -5 0 -6 0 
-5 0 -6 0 -5 0 -5 0 -6 0 -5 0 -5 0 -6 0 
-5 0 -5 0 -6 0 -5 0 100 AP
-5 0 -5 0 -6 0 -5 0 -5 0 -6 0 -5 0 -5 0 
-6 0 -5 0 -5 0 -6 0 -5 0 -5 0 -6 0 -5 0 
-6 0 -5 0 -5 0 -6 0 -5 0 -5 0 -6 0 -5 0 
-5 0 -6 0 -5 0 -5 0 -6 0 -5 0 -5 0 -6 0 
-5 0 -5 0 -6 0 -5 0 -5 0 -6 0 -5 0 -5 0 
-6 0 -5 0 -5 0 -6 0 -5 0 -5 0 -6 0 -5 0 
-5 0 -6 0 -5 0 -5 0 -6 0 -5 0 -5 0 -6 0 
-5 0 -5 0 -6 0 -5 0 -6 0 -5 0 -5 0 -6 0 
-5 0 -5 0 -6 0 -5 0 -5 0 -6 0 -5 0 -5 0 
-6 0 -5 0 -5 0 -6 0 -5 0 -5 0 -6 0 -5 0 
-5 0 -6 0 -5 0 -5 0 -6 0 -5 0 -5 0 -6 0 
-5 0 -5 0 -6 0 -5 0 -5 0 -6 0 -5 0 -5 0 
-6 0 -5 0 -5 0 -6 0 100 AP
-5 0 -5 0 -6 0 -5 0 -5 0 -6 0 -5 0 -5 0 
-6 0 -5 0 -5 0 -6 0 -5 0 -5 0 -6 0 -5 0 
-5 0 -6 0 -5 0 -5 0 -6 0 -5 0 -5 0 -6 0 
-5 0 -5 0 -6 0 -5 0 -5 0 -6 0 -5 0 -6 0 
-5 0 -5 0 -6 0 -5 0 -5 0 -6 0 -5 0 -5 0 
-6 0 -5 0 -5 0 -6 0 -5 0 -5 0 -6 0 -5 0 
-5 0 -6 0 -5 0 -5 0 -6 0 -5 0 -5 0 -6 0 
-5 0 -5 0 -6 0 -5 0 -5 0 -6 0 -5 0 -5 0 
-6 0 -5 0 -5 0 -6 0 -5 0 -5 0 -6 0 -5 0 
-5 0 -6 0 -5 0 -6 0 -5 0 -5 0 -6 0 -5 0 
-5 0 -6 0 -5 0 -5 0 -6 0 -5 0 -5 0 -6 0 
-5 0 -5 0 -6 0 -5 0 -5 0 -6 0 -5 0 -5 0 
-6 0 -5 0 -5 0 -6 0 100 AP
-5 0 -5 0 -6 0 -5 0 -5 0 -6 0 -5 0 -5 0 
-6 0 -5 0 -5 0 -6 0 -5 0 -5 0 -6 0 -5 0 
-5 0 -6 0 -5 0 -5 0 -6 0 -5 0 -5 0 -6 0 
-5 0 -5 0 -6 0 -5 0 -5 0 -6 0 -5 0 -5 0 
-6 0 -5 0 -5 0 -6 0 -5 0 -5 0 -6 0 -5 0 
-5 0 -6 0 -5 0 -6 0 -5 0 -5 0 -6 0 -5 0 
-5 0 -6 0 -5 0 -5 0 -6 0 -5 0 -5 0 -6 0 
-5 0 -5 0 -6 0 -5 0 -5 0 -6 0 -5 0 -5 0 
-6 0 -5 0 -5 0 -6 0 -5 0 -5 0 -6 0 -5 0 
-5 0 -6 0 -5 0 -5 0 -6 0 -5 0 -5 0 -6 0 
-5 0 -5 0 -6 0 -5 0 -5 0 -6 0 -5 0 -6 0 
-5 0 -5 0 -6 0 -5 0 -5 0 -6 0 -5 0 -5 0 
-6 0 -5 0 -5 0 -6 0 100 AP
-6 0 -5 0 -5 0 -6 0 -5 0 -5 0 -6 0 -5 0 
-5 0 -6 0 -5 0 -5 0 -6 0 -5 0 -6 0 -5 0 
-5 0 -6 0 -5 0 -5 0 -6 0 -5 0 -5 0 -6 0 
-5 0 -5 0 -6 0 -5 0 -5 0 -6 0 -5 0 -5 0 
-6 0 -5 0 -5 0 -6 0 -5 0 -5 0 -6 0 -5 0 
-5 0 -6 0 -5 0 -5 0 -6 0 -5 0 -5 0 -6 0 
-5 0 -5 0 -6 0 -5 0 -5 0 -6 0 -5 0 -5 0 
-6 0 -5 0 -6 0 -5 0 -5 0 -6 0 -5 0 -5 0 
-6 0 -5 0 -5 0 -6 0 -5 0 -5 0 -6 0 -5 0 
-5 0 -6 0 -5 0 -5 0 -6 0 -5 0 -5 0 -6 0 
-5 0 -5 0 -6 0 -5 0 -5 0 -6 0 -5 0 -5 0 
-6 0 -5 0 -5 0 -6 0 -5 0 -5 0 -6 0 -5 0 
-5 0 -6 0 -5 0 -6 0 100 AP
-6 0 -5 0 -5 0 -6 0 -5 0 -5 0 -6 0 -5 0 
-5 0 -6 0 -5 0 -5 0 -6 0 -5 0 -5 0 -6 0 
-5 0 -5 0 -6 0 -5 0 -5 0 -6 0 -5 0 -5 0 
-6 0 -5 0 -6 0 -5 0 -5 0 -6 0 -5 0 -5 0 
-6 0 -5 0 -5 0 -6 0 -5 0 -5 0 -6 0 -5 0 
-5 0 -6 0 -5 0 -5 0 -6 0 -5 0 -5 0 -6 0 
-5 0 -5 0 -6 0 -5 0 -5 0 -6 0 -5 0 -5 0 
-6 0 -5 0 -5 0 -6 0 -5 0 -5 0 -6 0 -5 0 
-5 0 -6 0 -5 0 -5 0 -6 0 -4 0 -6 0 -5 0 
-5 0 -6 0 -5 0 -5 0 -6 0 -5 0 -5 0 -6 0 
-5 0 -5 0 -6 0 -5 0 -5 0 -6 0 -5 0 -5 0 
-6 0 -5 0 -5 0 -6 0 -5 0 -5 0 -6 0 -5 0 
-5 0 -6 0 -5 0 -5 0 100 AP
-6 0 -5 0 -5 0 -6 0 -5 0 -5 0 -6 0 -5 0 
-5 0 -6 0 -5 0 -5 0 -6 0 -5 0 -5 0 -6 0 
-5 0 -5 0 -6 0 -5 0 -5 0 -6 0 -5 0 -5 0 
-6 0 -5 0 -5 0 -6 0 -5 0 -5 0 -6 0 -5 0 
-5 0 -6 0 -5 0 -5 0 -6 0 -5 0 -5 0 -6 0 
-5 0 -6 0 -5 0 -5 0 -6 0 -5 0 -5 0 -6 0 
-5 0 -5 0 -6 0 -5 0 -5 0 -6 0 -5 0 -5 0 
-6 0 -5 0 -5 0 -6 0 -5 0 -5 0 -6 0 -5 0 
-5 0 -6 0 -5 0 -5 0 -6 0 -5 0 -5 0 -6 0 
-5 0 -5 0 -6 0 -5 0 -5 0 -6 0 -5 0 -5 0 
-6 0 -5 0 -5 0 -6 0 -5 0 -6 0 -5 0 -5 0 
-6 0 -5 0 -5 0 -6 0 -5 0 -5 0 -6 0 -5 0 
-5 0 -6 0 -5 0 -5 0 100 AP
-5 0 -6 0 -5 0 -5 0 -6 0 -5 0 -5 0 -6 0 
-5 0 -6 0 -5 0 -5 0 -6 0 -5 0 -5 0 -6 0 
-5 0 -5 0 -6 0 -5 0 -5 0 -6 0 -5 0 -5 0 
-6 0 -5 0 -5 0 -6 0 -5 0 -5 0 -6 0 -5 0 
-5 0 -6 0 -5 0 -5 0 -6 0 -5 0 -5 0 -6 0 
-5 0 -5 0 -6 0 -5 0 -5 0 -6 0 -5 0 -5 0 
-6 0 -5 0 -5 0 -6 0 -5 0 -6 0 -5 0 -5 0 
-6 0 -5 0 -5 0 -6 0 -5 0 -5 0 -6 0 -5 0 
-5 0 -6 0 -5 0 -5 0 -6 0 -5 0 -5 0 -6 0 
-5 0 -5 0 -6 0 -5 0 -5 0 -6 0 -5 0 -5 0 
-6 0 -5 0 -5 0 -6 0 -5 0 -5 0 -6 0 -5 0 
-5 0 -6 0 -5 0 -5 0 -6 0 -5 0 -5 0 -6 0 
-5 0 -6 0 -5 0 -5 0 100 AP
-5 0 -6 0 -5 0 -5 0 -6 0 -5 0 -5 0 -6 0 
-5 0 -5 0 -6 0 -5 0 -5 0 -6 0 -5 0 -5 0 
-6 0 -5 0 -5 0 -6 0 -5 0 -5 0 -6 0 -5 0 
-6 0 -5 0 -5 0 -6 0 -5 0 -5 0 -6 0 -5 0 
-5 0 -6 0 -5 0 -5 0 -6 0 -5 0 -5 0 -6 0 
-5 0 -5 0 -6 0 -5 0 -5 0 -6 0 -5 0 -5 0 
-6 0 -5 0 -5 0 -6 0 -5 0 -5 0 -6 0 -5 0 
-5 0 -6 0 -5 0 -5 0 -6 0 -5 0 -5 0 -6 0 
-5 0 -5 0 -6 0 -5 0 -6 0 -5 0 -5 0 -6 0 
-5 0 -5 0 -6 0 -5 0 -5 0 -6 0 -5 0 -5 0 
-6 0 -5 0 -5 0 -6 0 -5 0 -5 0 -6 0 -5 0 
-5 0 -6 0 -5 0 -5 0 -6 0 -5 0 -5 0 -6 0 
-5 0 -5 0 -6 0 -5 0 100 AP
-5 0 -6 0 -5 0 -5 0 -6 0 -5 0 -5 0 -6 0 
-5 0 -5 0 -6 0 -5 0 -5 0 -6 0 -5 0 -5 0 
-6 0 -5 0 -5 0 -6 0 -5 0 -5 0 -6 0 -5 0 
-5 0 -6 0 -5 0 -5 0 -6 0 -5 0 -5 0 -6 0 
-5 0 -5 0 -6 0 -5 0 -6 0 -5 0 -5 0 -6 0 
-5 0 -5 0 -6 0 -5 0 -5 0 -6 0 -5 0 -5 0 
-6 0 -5 0 -5 0 -6 0 -5 0 -5 0 -6 0 -5 0 
-5 0 -6 0 -5 0 -5 0 -6 0 -5 0 -5 0 -6 0 
-5 0 -5 0 -6 0 -5 0 -5 0 -6 0 -5 0 -5 0 
-6 0 -5 0 -5 0 -6 0 -5 0 -5 0 -6 0 -5 0 
-6 0 -5 0 -5 0 -6 0 -5 0 -5 0 -6 0 -5 0 
-5 0 -6 0 -5 0 -5 0 -6 0 -5 0 -5 0 -6 0 
-5 0 -5 0 -6 0 -5 0 100 AP
-5 0 -5 0 -6 0 -5 0 -5 0 -6 0 -5 0 -6 0 
-5 0 -5 0 -6 0 -5 0 -5 0 -6 0 -5 0 -5 0 
-6 0 -5 0 -5 0 -6 0 -5 0 -5 0 -6 0 -5 0 
-5 0 -6 0 -5 0 -5 0 -6 0 -5 0 -5 0 -6 0 
-5 0 -5 0 -6 0 -5 0 -5 0 -6 0 -5 0 -5 0 
-6 0 -5 0 -5 0 -6 0 -5 0 -5 0 -6 0 -5 0 
-5 0 -6 0 -5 0 -6 0 -5 0 -5 0 -6 0 -5 0 
-5 0 -6 0 -5 0 -5 0 -6 0 -5 0 -5 0 -6 0 
-5 0 -5 0 -6 0 -5 0 -5 0 -6 0 -5 0 -5 0 
-6 0 -5 0 -5 0 -6 0 -5 0 -5 0 -6 0 -5 0 
-5 0 -6 0 -5 0 -5 0 -6 0 -5 0 -5 0 -6 0 
-5 0 -5 0 -6 0 -5 0 -5 0 -6 0 -5 0 -6 0 
-5 0 -5 0 -6 0 -5 0 100 AP
-5 0 -5 0 -6 0 -5 0 -5 0 -6 0 -5 0 -5 0 
-6 0 -5 0 -5 0 -6 0 -5 0 -5 0 -6 0 -5 0 
-5 0 -6 0 -5 0 -5 0 -6 0 -5 0 -6 0 -5 0 
-5 0 -6 0 -5 0 -5 0 -6 0 -5 0 -5 0 -6 0 
-5 0 -5 0 -6 0 -5 0 -5 0 -6 0 -5 0 -5 0 
-6 0 -5 0 -5 0 -6 0 -5 0 -5 0 -6 0 -5 0 
-5 0 -6 0 -5 0 -5 0 -6 0 -5 0 -5 0 -6 0 
-5 0 -5 0 -6 0 -5 0 -5 0 -6 0 -5 0 -6 0 
-5 0 -5 0 -6 0 -5 0 -5 0 -6 0 -5 0 -5 0 
-6 0 -5 0 -5 0 -6 0 -5 0 -5 0 -6 0 -5 0 
-5 0 -6 0 -5 0 -5 0 -6 0 -5 0 -5 0 -6 0 
-5 0 -5 0 -6 0 -5 0 -5 0 -6 0 -5 0 -5 0 
-6 0 -5 0 -5 0 -6 0 100 AP
-5 0 -6 0 -5 0 -5 0 -6 0 -5 0 -5 0 -6 0 
-5 0 -5 0 -6 0 -5 0 -5 0 -6 0 -5 0 -5 0 
-6 0 -5 0 -5 0 -6 0 -5 0 -5 0 -6 0 -5 0 
-5 0 -6 0 -5 0 -5 0 -6 0 -5 0 -5 0 -6 0 
-5 0 -6 0 -5 0 -5 0 -6 0 -5 0 -5 0 -6 0 
-5 0 -5 0 -6 0 -5 0 -5 0 -6 0 -5 0 -5 0 
-6 0 -5 0 -5 0 -6 0 -5 0 -5 0 -6 0 -5 0 
-5 0 -6 0 -5 0 -5 0 -6 0 -5 0 -5 0 -6 0 
-5 0 -5 0 -6 0 -5 0 -5 0 -6 0 -5 0 -5 0 
-6 0 -5 0 -5 0 -6 0 -5 0 -6 0 -5 0 -5 0 
-6 0 -5 0 -5 0 -6 0 -5 0 -5 0 -6 0 -5 0 
-5 0 -6 0 -5 0 -5 0 -6 0 -5 0 -5 0 -6 0 
-5 0 -5 0 -6 0 99 AP
PP
0 sg
0 0 -5 0 -6 0 -5 0 -5 0 -6 0 -5 0 -5 0 
-6 0 -5 0 -5 0 -6 0 -5 0 -5 0 -6 0 -5 0 
-5 0 -6 0 -5 0 -5 0 -6 0 -5 0 -5 0 -6 0 
-5 0 -5 0 -6 0 -5 0 -5 0 -6 0 -5 0 -5 0 
-6 0 -5 0 -6 0 -5 0 -5 0 -6 0 -5 0 -5 0 
-6 0 -5 0 -5 0 -6 0 -5 0 -5 0 -6 0 -5 0 
-5 0 -6 0 -5 0 -5 0 -6 0 -5 0 -5 0 -6 0 
-5 0 -5 0 -6 0 -5 0 -5 0 -6 0 -5 0 -5 0 
-6 0 -5 0 -5 0 -6 0 -5 0 -5 0 -6 0 -5 0 
-5 0 -6 0 -5 0 -5 0 -6 0 -5 0 -6 0 -5 0 
-5 0 -6 0 -5 0 -5 0 -6 0 -5 0 -5 0 -6 0 
-5 0 -5 0 -6 0 -5 0 -5 0 -6 0 -5 0 -5 0 
-6 0 -5 0 -5 0 -6 0 -5 0 -5 0 -6 0 -5 0 
-5 0 -6 0 -5 0 -5 0 -6 0 -5 0 -5 0 -6 0 
-5 0 -5 0 -6 0 -5 0 -5 0 -6 0 -5 0 -5 0 
-6 0 -5 0 -6 0 -5 0 -5 0 -6 0 -5 0 -5 0 
-6 0 -5 0 -5 0 -6 0 -5 0 -5 0 -6 0 -5 0 
-5 0 -6 0 -5 0 -5 0 -6 0 -5 0 -5 0 -6 0 
-5 0 -5 0 -6 0 -5 0 -5 0 -6 0 -5 0 -5 0 
-6 0 -5 0 -5 0 -6 0 -5 0 -5 0 -6 0 -5 0 
-5 0 -6 0 -5 0 -6 0 -5 0 -5 0 -6 0 -5 0 
-5 0 -6 0 -5 0 -5 0 -6 0 -5 0 -5 0 -6 0 
-5 0 -5 0 -6 0 -5 0 -5 0 -6 0 -5 0 -5 0 
-6 0 -5 0 -5 0 -6 0 -5 0 -5 0 -6 0 -5 0 
-5 0 -6 0 -5 0 -5 0 -6 0 -5 0 -5 0 -6 0 
-5 0 -5 0 -6 0 -5 0 -5 0 -6 0 -5 0 -6 0 
-5 0 -5 0 -6 0 -5 0 -5 0 -6 0 -5 0 -5 0 
-6 0 -5 0 -5 0 -6 0 -5 0 -5 0 -6 0 -5 0 
-5 0 -6 0 -5 0 -5 0 -6 0 -5 0 -5 0 -6 0 
-5 0 -5 0 -6 0 -5 0 -5 0 -6 0 -5 0 -5 0 
-6 0 -5 0 -5 0 -6 0 -5 0 -5 0 -6 0 -5 0 
-5 0 -6 0 -5 0 -6 0 -5 0 -5 0 -6 0 -5 0 
-5 0 -6 0 -5 0 -5 0 -6 0 -5 0 -5 0 -6 0 
-5 0 -5 0 -6 0 -5 0 -5 0 -6 0 -5 0 -5 0 
-6 0 -5 0 -5 0 -6 0 -5 0 -5 0 -6 0 -5 0 
-5 0 -6 0 -5 0 -5 0 -6 0 -5 0 -5 0 -6 0 
-5 0 -5 0 -6 0 -5 0 -5 0 -6 0 -5 0 -6 0 
-5 0 -5 0 -6 0 -2510 1574 300 MP stroke
-5 0 -5 0 -6 0 -5 0 -5 0 -6 0 -5 0 -5 0 
-6 0 -5 0 -5 0 -6 0 -5 0 -5 0 -6 0 -5 0 
-5 0 -6 0 -5 0 -5 0 -6 0 -5 0 -5 0 -6 0 
-5 0 -5 0 -6 0 -5 0 -5 0 -6 0 -5 0 -5 0 
-6 0 -5 0 -5 0 -6 0 -5 0 -6 0 -5 0 -5 0 
-6 0 -5 0 -5 0 -6 0 -5 0 -5 0 -6 0 -5 0 
-5 0 -6 0 -5 0 -5 0 -6 0 -5 0 -5 0 -6 0 
-5 0 -5 0 -6 0 -5 0 -5 0 -6 0 -5 0 -5 0 
-6 0 -5 0 -5 0 -6 0 -5 0 -5 0 -6 0 -5 0 
-5 0 -6 0 -5 0 -5 0 -6 0 -5 0 -5 0 -6 0 
-5 0 -6 0 -5 0 -5 0 -6 0 -5 0 -5 0 -6 0 
-5 0 -5 0 -6 0 -5 0 -5 0 -6 0 -5 0 -5 0 
-6 0 -5 0 -5 0 -6 0 -5 0 -5 0 -6 0 -5 0 
-5 0 -6 0 -5 0 -5 0 -6 0 -5 0 -5 0 -6 0 
-5 0 -5 0 -6 0 -5 0 -5 0 -6 0 -5 0 -5 0 
-6 0 -5 0 -5 0 -6 0 -5 0 -6 0 -5 0 -5 0 
-6 0 -5 0 -5 0 -6 0 -5 0 -5 0 -6 0 -5 0 
-5 0 -6 0 -5 0 -5 0 -6 0 -5 0 -5 0 -6 0 
-5 0 -5 0 -6 0 -5 0 -5 0 -6 0 -5 0 -5 0 
-6 0 -5 0 -5 0 -6 0 -5 0 -5 0 -6 0 -5 0 
-5 0 -6 0 -5 0 -5 0 -6 0 -5 0 -5 0 -6 0 
-5 0 -6 0 -5 0 -5 0 -6 0 -5 0 -5 0 -6 0 
-5 0 -5 0 -6 0 -5 0 -5 0 -6 0 -5 0 -5 0 
-6 0 -5 0 -5 0 -6 0 -5 0 -5 0 -6 0 -5 0 
-5 0 -6 0 -5 0 -5 0 -6 0 -5 0 -5 0 -6 0 
-5 0 -5 0 -6 0 -5 0 -5 0 -6 0 -5 0 -5 0 
-6 0 -5 0 -6 0 -5 0 -5 0 -6 0 -5 0 -5 0 
-6 0 -5 0 -5 0 -6 0 -5 0 -5 0 -6 0 -5 0 
-5 0 -6 0 -5 0 -5 0 -6 0 -5 0 -5 0 -6 0 
-5 0 -5 0 -6 0 -5 0 -5 0 -6 0 -5 0 -5 0 
-6 0 -5 0 -5 0 -6 0 -5 0 -5 0 -6 0 -5 0 
-5 0 -6 0 -5 0 -5 0 -6 0 -5 0 -6 0 -5 0 
-5 0 -6 0 -5 0 -5 0 -6 0 -5 0 -5 0 -6 0 
-5 0 -5 0 -6 0 -5 0 -5 0 -6 0 -5 0 -5 0 
-6 0 -5 0 -5 0 -6 0 -5 0 -5 0 -6 0 -5 0 
-5 0 -6 0 -5 0 -5 0 -6 0 -5 0 -5 0 -6 0 
-5 0 -5 0 -6 0 -5 0 -5 0 -6 0 -5 0 -5 0 
-6 0 -5 0 -6 0 -913 1574 300 MP stroke
-5 0 -5 0 -6 0 -5 0 -5 0 -6 0 -5 0 -5 0 
-6 0 -5 0 -5 0 -6 0 -5 0 -5 0 -6 0 -5 0 
-5 0 -6 0 -5 0 -5 0 -6 0 -5 0 -5 0 -6 0 
-5 0 -5 0 -6 0 -5 0 -5 0 -6 0 -5 0 -5 0 
-6 0 -5 0 -5 0 -6 0 -5 0 -5 0 -6 0 -5 0 
-5 0 -6 0 -5 0 -6 0 -5 0 -5 0 -6 0 -5 0 
-5 0 -6 0 -5 0 -5 0 -6 0 -5 0 -5 0 -6 0 
-5 0 -5 0 -6 0 -5 0 -5 0 -6 0 -5 0 -5 0 
-6 0 -5 0 -5 0 -6 0 -5 0 -5 0 -6 0 -5 0 
-5 0 -6 0 -5 0 -5 0 -6 0 -5 0 -5 0 -6 0 
-5 0 -5 0 -6 0 -5 0 -5 0 -6 0 -5 0 -6 0 
-5 0 -5 0 -6 0 -5 0 -5 0 -6 0 -5 0 -5 0 
-6 0 -5 0 -5 0 -6 0 -5 0 -5 0 -6 0 -5 0 
-5 0 -6 0 -5 0 -5 0 -6 0 -5 0 -5 0 -6 0 
-5 0 -5 0 -6 0 -5 0 -5 0 -6 0 -5 0 -5 0 
-6 0 -5 0 -5 0 -6 0 -5 0 -5 0 -6 0 -5 0 
-6 0 -5 0 -5 0 -6 0 -5 0 -5 0 -6 0 -5 0 
-5 0 -6 0 -5 0 -5 0 -6 0 -5 0 -5 0 -6 0 
-5 0 -5 0 -6 0 -5 0 -5 0 -6 0 -5 0 -5 0 
-6 0 -5 0 -5 0 -6 0 -5 0 -5 0 -6 0 -5 0 
-5 0 -6 0 -5 0 -5 0 -6 0 -5 0 -5 0 -6 0 
-5 0 -5 0 -6 0 -4 0 -6 0 -5 0 -5 0 -6 0 
-5 0 -5 0 -6 0 -5 0 -5 0 -6 0 -5 0 -5 0 
-6 0 -5 0 -5 0 -6 0 -5 0 -5 0 -6 0 -5 0 
-5 0 -6 0 -5 0 -5 0 -6 0 -5 0 -5 0 -6 0 
-5 0 -5 0 -6 0 -5 0 -5 0 -6 0 -5 0 -5 0 
-6 0 -5 0 -5 0 -6 0 -5 0 -5 0 -6 0 -5 0 
-6 0 -5 0 -5 0 -6 0 -5 0 -5 0 -6 0 -5 0 
-5 0 -6 0 -5 0 -5 0 -6 0 -5 0 -5 0 -6 0 
-5 0 -5 0 -6 0 -5 0 -5 0 -6 0 -5 0 -5 0 
-6 0 -5 0 -5 0 -6 0 -5 0 -5 0 -6 0 -5 0 
-5 0 -6 0 -5 0 -5 0 -6 0 -5 0 -5 0 -6 0 
-5 0 -5 0 -6 0 -5 0 -6 0 -5 0 -5 0 -6 0 
-5 0 -5 0 -6 0 -5 0 -5 0 -6 0 -5 0 -5 0 
-6 0 -5 0 -5 0 -6 0 -5 0 -5 0 -6 0 -5 0 
-5 0 -6 0 -5 0 -5 0 -6 0 -5 0 -5 0 -6 0 
-5 0 -5 0 -6 0 -5 0 -5 0 -6 0 -5 0 -5 0 
-6 0 -5 0 -5 0 682 1574 300 MP stroke
-6 0 -5 0 -6 0 -5 0 -5 0 -6 0 -5 0 -5 0 
-6 0 -5 0 -5 0 -6 0 -5 0 -5 0 -6 0 -5 0 
-5 0 -6 0 -5 0 -5 0 -6 0 -5 0 -5 0 -6 0 
-5 0 -5 0 -6 0 -5 0 -5 0 -6 0 -5 0 -5 0 
-6 0 -5 0 -5 0 -6 0 -5 0 -5 0 -6 0 -5 0 
-5 0 -6 0 -5 0 -5 0 -6 0 -5 0 -6 0 -5 0 
-5 0 -6 0 -5 0 -5 0 -6 0 -5 0 -5 0 -6 0 
-5 0 -5 0 -6 0 -5 0 -5 0 -6 0 -5 0 -5 0 
-6 0 -5 0 -5 0 -6 0 -5 0 -5 0 -6 0 -5 0 
-5 0 -6 0 -5 0 -5 0 -6 0 -5 0 -5 0 -6 0 
-5 0 -5 0 -6 0 -5 0 -5 0 -6 0 -5 0 -5 0 
-6 0 -5 0 -6 0 -5 0 -5 0 -6 0 -5 0 -5 0 
-6 0 -5 0 -5 0 -6 0 -5 0 -5 0 -6 0 -5 0 
-5 0 -6 0 -5 0 -5 0 -6 0 -5 0 -5 0 -6 0 
-5 0 -5 0 -6 0 -5 0 -5 0 -6 0 -5 0 -5 0 
-6 0 -5 0 -5 0 -6 0 -5 0 -5 0 -6 0 -5 0 
-5 0 -6 0 -5 0 -5 0 -6 0 -5 0 -6 0 -5 0 
-5 0 -6 0 -5 0 -5 0 -6 0 -5 0 -5 0 -6 0 
-5 0 -5 0 -6 0 -5 0 -5 0 -6 0 -5 0 -5 0 
-6 0 -5 0 -5 0 -6 0 -5 0 -5 0 -6 0 -5 0 
-5 0 -6 0 -5 0 -5 0 -6 0 -5 0 -5 0 -6 0 
-5 0 -5 0 -6 0 -5 0 -5 0 -6 0 -5 0 -5 0 
-6 0 -5 0 -6 0 -5 0 -5 0 -6 0 -5 0 -5 0 
-6 0 -5 0 -5 0 -6 0 -5 0 -5 0 -6 0 -5 0 
-5 0 -6 0 -5 0 -5 0 -6 0 -5 0 -5 0 -6 0 
-5 0 -5 0 -6 0 -5 0 -5 0 -6 0 -5 0 -5 0 
-6 0 -5 0 -5 0 -6 0 -5 0 -5 0 -6 0 -5 0 
-5 0 -6 0 -5 0 -6 0 -5 0 -5 0 -6 0 -5 0 
-5 0 -6 0 -5 0 -5 0 -6 0 -5 0 -5 0 -6 0 
-5 0 -5 0 -6 0 -5 0 -5 0 -6 0 -5 0 -5 0 
-6 0 -5 0 -5 0 -6 0 -5 0 -5 0 -6 0 -5 0 
-5 0 -6 0 -5 0 -5 0 -6 0 -5 0 -5 0 -6 0 
-5 0 -5 0 -6 0 -5 0 -5 0 -6 0 -5 0 -6 0 
-5 0 -5 0 -6 0 -5 0 -5 0 -6 0 -5 0 -5 0 
-6 0 -5 0 -5 0 -6 0 -5 0 -5 0 -6 0 -5 0 
-5 0 -6 0 -5 0 -5 0 -6 0 -5 0 -5 0 -6 0 
-5 0 -5 0 -6 0 -5 0 -5 0 -6 0 -5 0 -5 0 
-6 0 -5 0 -5 0 2279 1574 300 MP stroke
-6 0 -5 0 -5 0 -6 0 -5 0 -5 0 -6 0 -5 0 
-6 0 -5 0 -5 0 -6 0 -5 0 -5 0 -6 0 -5 0 
-5 0 -6 0 -5 0 -5 0 -6 0 -5 0 -5 0 -6 0 
-5 0 -5 0 -6 0 -5 0 -5 0 -6 0 -5 0 -5 0 
-6 0 -5 0 -5 0 -6 0 -5 0 -5 0 -6 0 -5 0 
-5 0 -6 0 -5 0 -5 0 -6 0 -5 0 -5 0 -6 0 
-5 0 -5 0 -6 0 -5 0 -6 0 -5 0 -5 0 -6 0 
-5 0 -5 0 -6 0 -5 0 -5 0 -6 0 -5 0 -5 0 
-6 0 -5 0 -5 0 -6 0 -5 0 -5 0 -6 0 -5 0 
-5 0 -6 0 -5 0 -5 0 -6 0 -5 0 -5 0 -6 0 
-5 0 -5 0 -6 0 -5 0 -5 0 -6 0 -5 0 -5 0 
-6 0 -5 0 -5 0 -6 0 -5 0 -6 0 -5 0 -5 0 
-6 0 -5 0 -5 0 -6 0 -5 0 -5 0 -6 0 -5 0 
-5 0 -6 0 -5 0 -5 0 -6 0 -5 0 -5 0 -6 0 
-5 0 -5 0 -6 0 -5 0 -5 0 -6 0 -5 0 -5 0 
-6 0 -5 0 -5 0 -6 0 -5 0 -5 0 -6 0 -5 0 
-5 0 -6 0 -5 0 -5 0 -6 0 -5 0 -5 0 -6 0 
-5 0 -6 0 -5 0 -5 0 -6 0 -5 0 -5 0 -6 0 
-5 0 -5 0 -6 0 -5 0 -5 0 -6 0 -5 0 -5 0 
-6 0 -5 0 -5 0 -6 0 -5 0 -5 0 -6 0 -5 0 
-5 0 -6 0 -5 0 -5 0 -6 0 -5 0 -5 0 -6 0 
-5 0 -5 0 -6 0 -5 0 -5 0 -6 0 -5 0 -5 0 
-6 0 -5 0 -5 0 -6 0 -5 0 -6 0 -5 0 -5 0 
-6 0 -5 0 -5 0 -6 0 -5 0 -5 0 -6 0 -5 0 
-5 0 -6 0 -5 0 -5 0 -6 0 -5 0 -5 0 -6 0 
-5 0 -5 0 -6 0 -5 0 -5 0 -6 0 -5 0 -5 0 
-6 0 -5 0 -5 0 -6 0 -5 0 -5 0 -6 0 -5 0 
-5 0 -6 0 -5 0 -5 0 -6 0 -5 0 -5 0 -6 0 
-5 0 -6 0 -5 0 -5 0 -6 0 -5 0 -5 0 -6 0 
-5 0 -5 0 -6 0 -5 0 -5 0 -6 0 -5 0 -5 0 
-6 0 -5 0 -5 0 -6 0 -5 0 -5 0 -6 0 -5 0 
-5 0 -6 0 -5 0 -5 0 -6 0 -5 0 -5 0 -6 0 
-5 0 -5 0 -6 0 -5 0 -5 0 -6 0 -5 0 -5 0 
-6 0 -5 0 -5 0 -6 0 -5 0 -6 0 -5 0 -5 0 
-6 0 -5 0 -5 0 -6 0 -5 0 -5 0 -6 0 -5 0 
-5 0 -6 0 -5 0 -5 0 -6 0 -5 0 -5 0 -6 0 
-5 0 -5 0 -6 0 -5 0 -5 0 -6 0 -5 0 -5 0 
-6 0 -5 0 -5 0 3876 1574 300 MP stroke
-6 0 -5 0 -5 0 -6 0 -5 0 -5 0 -6 0 -5 0 
-5 0 -6 0 -5 0 -6 0 -5 0 -5 0 -6 0 -5 0 
-5 0 -6 0 -5 0 -5 0 -6 0 -5 0 -5 0 -6 0 
-5 0 -5 0 -6 0 -5 0 -5 0 -6 0 -5 0 -5 0 
-6 0 -5 0 -5 0 -6 0 -5 0 -5 0 -6 0 -5 0 
-5 0 -6 0 -5 0 -5 0 -6 0 -5 0 -5 0 -6 0 
-5 0 -5 0 -6 0 -5 0 -5 0 -6 0 -5 0 -6 0 
-5 0 -5 0 -6 0 -5 0 -5 0 -6 0 -5 0 -5 0 
-6 0 -5 0 -5 0 -6 0 -5 0 -5 0 -6 0 -5 0 
-5 0 -6 0 -5 0 -5 0 -6 0 -5 0 -5 0 -6 0 
-5 0 -5 0 -6 0 -5 0 -5 0 -6 0 -5 0 -5 0 
-6 0 -5 0 -5 0 -6 0 -5 0 -5 0 -6 0 -5 0 
-5 0 -6 0 -5 0 -6 0 -5 0 -5 0 -6 0 -5 0 
-5 0 -6 0 -5 0 -5 0 -6 0 -5 0 -5 0 -6 0 
-5 0 -5 0 -6 0 -5 0 -5 0 -6 0 -5 0 -5 0 
-6 0 -5 0 -5 0 -6 0 -5 0 -5 0 -6 0 -5 0 
-5 0 -6 0 -5 0 -5 0 -6 0 -5 0 -5 0 -6 0 
-5 0 -5 0 -6 0 -5 0 -5 0 -6 0 -5 0 -6 0 
-5 0 -5 0 -6 0 -5 0 -5 0 -6 0 -5 0 -5 0 
-6 0 -5 0 -5 0 -6 0 -5 0 -5 0 -6 0 -5 0 
-5 0 -6 0 -5 0 -5 0 -6 0 -5 0 -5 0 -6 0 
-5 0 -5 0 -6 0 -5 0 -5 0 -6 0 -5 0 -5 0 
-6 0 -5 0 -5 0 -6 0 -5 0 -5 0 -6 0 -5 0 
-5 0 -6 0 -5 0 -6 0 -5 0 -5 0 -6 0 -5 0 
-5 0 -6 0 -5 0 -5 0 -6 0 -5 0 -5 0 -6 0 
-5 0 -5 0 -6 0 -5 0 -5 0 -6 0 -5 0 -5 0 
-6 0 -5 0 -5 0 -6 0 -5 0 -5 0 -6 0 -5 0 
-5 0 -6 0 -5 0 -5 0 -6 0 -5 0 -5 0 -6 0 
-5 0 -5 0 -6 0 -5 0 -6 0 -5 0 -5 0 -6 0 
-5 0 -5 0 -6 0 -5 0 -5 0 -6 0 -5 0 -5 0 
-6 0 -5 0 -5 0 -6 0 -5 0 -5 0 -6 0 -5 0 
-5 0 -6 0 -5 0 -5 0 -6 0 -5 0 -5 0 -6 0 
-5 0 -5 0 -6 0 -5 0 -5 0 -6 0 -5 0 -5 0 
-6 0 -5 0 -5 0 -6 0 -5 0 -5 0 -6 0 -5 0 
-6 0 -5 0 -5 0 -6 0 -5 0 -5 0 -6 0 -5 0 
-5 0 -6 0 -5 0 -5 0 -6 0 -5 0 -5 0 -6 0 
-5 0 -5 0 -6 0 -5 0 -5 0 -6 0 -5 0 -5 0 
-6 0 -5 0 -5 0 5473 1574 300 MP stroke
-6 0 -5 0 -5 0 -6 0 -5 0 -5 0 -6 0 -5 0 
-5 0 -6 0 -5 0 -5 0 -6 0 -5 0 -5 0 -6 0 
-5 0 -6 0 -5 0 -5 0 -6 0 -5 0 -5 0 -6 0 
-5 0 -5 0 -6 0 -5 0 -5 0 -6 0 -5 0 -5 0 
-6 0 -5 0 -5 0 -6 0 -5 0 -5 0 -6 0 -5 0 
-5 0 -6 0 -5 0 -5 0 -6 0 -5 0 -5 0 -6 0 
-5 0 -5 0 -6 0 -5 0 -5 0 -6 0 -5 0 -5 0 
-6 0 -5 0 -5 0 -6 0 -5 0 -6 0 -5 0 -5 0 
-6 0 -5 0 -5 0 -6 0 -5 0 -5 0 -6 0 -5 0 
-5 0 -6 0 -5 0 -5 0 -6 0 -5 0 -5 0 -6 0 
-5 0 -5 0 -6 0 -5 0 -5 0 -6 0 -5 0 -5 0 
-6 0 -5 0 -5 0 -6 0 -5 0 -5 0 -6 0 -5 0 
-5 0 -6 0 -5 0 -5 0 -6 0 -5 0 -6 0 -5 0 
-5 0 -6 0 -5 0 -5 0 -6 0 -5 0 -5 0 -6 0 
-5 0 -5 0 -6 0 -5 0 -5 0 -6 0 -5 0 -5 0 
-6 0 -5 0 -5 0 -6 0 -5 0 -5 0 -6 0 -5 0 
-5 0 -6 0 -5 0 -5 0 -6 0 -5 0 -5 0 -6 0 
-5 0 -5 0 -6 0 -5 0 -5 0 -6 0 -5 0 -5 0 
-6 0 -5 0 -6 0 -5 0 -5 0 -6 0 -5 0 -5 0 
-6 0 -5 0 -5 0 -6 0 -5 0 -5 0 -6 0 -5 0 
-5 0 -6 0 -5 0 -5 0 -6 0 -5 0 -5 0 -6 0 
-5 0 -5 0 -6 0 -5 0 -5 0 -6 0 -5 0 -5 0 
-6 0 -5 0 -5 0 -6 0 -5 0 -5 0 -6 0 -5 0 
-5 0 -6 0 -5 0 -5 0 -6 0 -5 0 -6 0 -5 0 
-5 0 -6 0 -5 0 -5 0 -6 0 -5 0 -5 0 -6 0 
-5 0 -5 0 -6 0 -5 0 -5 0 0 960 5 0 5 0 
6 0 5 0 5 0 6 0 5 0 5 0 6 0 5 0 
5 0 6 0 5 0 5 0 6 0 5 0 6 0 5 0 
5 0 6 0 5 0 5 0 6 0 5 0 5 0 6 0 
5 0 5 0 6 0 5 0 5 0 6 0 5 0 5 0 
6 0 5 0 5 0 6 0 5 0 5 0 6 0 5 0 
5 0 6 0 5 0 5 0 6 0 5 0 5 0 6 0 
5 0 5 0 6 0 5 0 5 0 6 0 5 0 5 0 
6 0 5 0 6 0 5 0 5 0 6 0 5 0 5 0 
6 0 5 0 5 0 6 0 5 0 5 0 6 0 5 0 
5 0 6 0 5 0 5 0 6 0 5 0 5 0 6 0 
5 0 5 0 6 0 5 0 5 0 6 0 5 0 5 0 
6 0 5 0 5 0 6072 614 300 MP stroke
6 0 5 0 5 0 6 0 5 0 5 0 6 0 5 0 
5 0 6 0 5 0 6 0 5 0 5 0 6 0 5 0 
5 0 6 0 5 0 5 0 6 0 5 0 5 0 6 0 
5 0 5 0 6 0 5 0 5 0 6 0 5 0 5 0 
6 0 5 0 5 0 6 0 5 0 5 0 6 0 5 0 
5 0 6 0 5 0 5 0 6 0 5 0 5 0 6 0 
5 0 5 0 6 0 5 0 6 0 5 0 5 0 6 0 
5 0 5 0 6 0 5 0 5 0 6 0 5 0 5 0 
6 0 5 0 5 0 6 0 5 0 5 0 6 0 5 0 
5 0 6 0 5 0 5 0 6 0 5 0 5 0 6 0 
5 0 5 0 6 0 5 0 5 -960 6 0 5 960 5 0 
6 0 5 0 5 0 6 0 5 0 5 0 6 0 5 0 
6 0 5 0 5 0 6 0 5 -960 5 0 6 0 5 0 
5 0 6 0 5 0 5 960 6 0 5 0 5 0 6 0 
5 0 5 0 6 0 5 0 5 0 6 0 5 -960 5 0 
6 0 5 0 5 0 6 0 5 0 5 0 6 0 5 0 
5 0 6 0 5 0 5 0 6 0 5 0 5 0 6 0 
5 0 5 0 6 0 5 0 6 0 5 0 5 0 6 0 
5 0 5 0 6 0 5 0 5 0 6 0 5 0 5 0 
6 0 5 0 5 0 6 0 5 0 5 0 6 0 5 0 
5 0 6 0 5 0 5 0 6 0 5 0 5 0 6 0 
5 0 5 0 6 0 5 0 5 0 6 0 5 0 5 0 
6 0 5 0 5 0 6 0 5 0 5 0 6 0 5 0 
6 0 5 0 5 0 6 0 5 0 5 0 6 0 5 0 
5 0 6 0 5 0 5 0 6 0 5 0 5 0 6 0 
5 0 5 0 6 0 5 0 5 0 6 0 5 0 5 0 
6 0 5 0 5 0 6 0 5 0 5 0 6 0 5 0 
5 0 6 0 5 0 5 0 6 0 5 0 5 0 6 0 
5 0 6 0 5 0 5 0 6 0 5 0 5 0 6 0 
5 0 5 0 6 0 5 0 5 0 6 0 5 0 5 0 
6 0 5 0 5 0 6 0 5 960 5 0 6 0 5 0 
5 0 6 0 5 0 5 0 6 0 5 0 5 0 6 0 
5 0 5 0 6 0 5 0 5 0 6 0 5 0 5 0 
6 0 5 0 5 0 6 0 5 0 6 0 5 0 5 0 
6 0 5 0 5 0 6 0 5 0 5 0 6 0 5 0 
5 0 6 0 5 0 5 0 6 0 5 0 5 0 6 0 
5 0 5 0 6 0 5 0 5 0 6 0 5 0 5 0 
6 0 5 0 5 0 4475 614 300 MP stroke
6 0 5 0 5 0 6 0 5 0 5 0 6 0 5 0 
5 0 6 0 5 0 5 0 6 0 5 0 6 0 5 0 
5 0 6 0 5 0 5 0 6 0 5 0 5 0 6 0 
5 0 5 0 6 0 5 0 5 0 6 0 5 0 5 0 
6 0 5 0 5 0 6 0 5 0 5 0 6 0 5 0 
5 0 6 0 5 0 5 0 6 0 5 0 5 0 6 0 
5 0 5 0 6 0 5 0 5 0 6 0 5 0 5 0 
6 0 5 0 6 0 5 0 5 0 6 0 5 0 5 0 
6 0 5 0 5 0 6 0 5 0 5 0 6 0 5 0 
5 0 6 0 5 0 5 0 6 0 5 0 5 0 6 0 
5 0 5 0 6 0 5 0 5 0 6 0 5 0 5 0 
6 0 5 0 5 0 6 0 5 0 5 0 6 0 5 0 
5 0 6 0 5 0 5 0 6 0 5 0 6 0 5 0 
5 -960 6 0 5 0 5 0 6 0 5 0 5 0 6 0 
5 0 5 0 6 0 5 0 5 0 6 0 5 0 5 0 
6 0 5 0 5 0 6 0 5 0 5 0 6 0 5 0 
5 0 6 0 5 0 5 0 6 0 5 0 5 0 6 0 
5 0 5 0 6 0 5 0 5 0 6 0 5 0 6 0 
5 0 5 0 6 0 5 0 5 0 6 0 5 0 5 0 
6 0 5 0 5 0 6 0 5 0 5 0 6 0 5 0 
5 0 6 0 5 0 5 0 6 0 5 0 5 0 6 0 
5 0 5 0 6 0 5 0 5 0 6 0 5 0 5 0 
6 0 5 0 5 0 6 0 5 0 5 0 6 0 5 0 
5 0 6 0 5 0 6 0 5 0 5 0 6 0 5 0 
5 0 6 0 5 0 5 0 6 0 5 0 5 0 6 0 
5 0 5 0 6 0 5 0 5 0 6 0 5 0 5 0 
6 0 5 0 5 0 6 0 5 0 5 0 6 0 5 0 
5 0 6 0 5 0 5 0 6 0 5 0 5 0 6 0 
5 0 5 0 6 0 5 960 5 0 6 0 5 0 6 0 
5 0 5 0 6 0 5 0 5 0 6 0 5 0 5 0 
6 0 5 0 5 0 6 0 5 0 5 0 6 0 5 0 
5 0 6 0 5 0 5 0 6 0 5 0 5 0 6 0 
5 0 5 0 6 0 5 0 5 0 6 0 5 0 5 0 
6 0 5 0 5 0 6 0 5 0 5 0 6 0 5 0 
5 0 6 0 5 0 6 0 5 0 5 0 6 0 5 0 
5 0 6 0 5 0 5 0 6 0 5 0 5 0 6 0 
5 0 5 0 6 0 5 0 5 0 6 0 5 0 5 0 
6 0 5 0 5 0 2878 614 300 MP stroke
6 0 5 0 5 0 6 0 5 0 5 0 6 0 5 0 
5 0 6 0 5 0 5 0 6 0 5 0 5 0 6 0 
5 0 5 0 6 0 5 0 6 0 5 0 5 0 6 0 
5 0 5 0 6 0 5 0 5 0 6 0 5 0 5 0 
6 0 5 0 5 0 6 0 5 0 5 0 6 0 5 0 
5 0 6 0 5 0 5 0 6 0 5 0 5 0 6 0 
5 0 5 0 6 0 5 0 5 0 6 0 5 0 5 0 
6 0 5 0 5 0 6 0 5 0 6 0 5 0 5 0 
6 0 5 0 5 0 6 0 5 0 5 0 6 0 5 0 
5 0 6 0 5 0 5 0 6 0 5 0 5 0 6 0 
5 0 5 0 6 0 5 0 5 0 6 0 5 0 5 0 
6 -960 5 0 5 0 6 0 5 0 5 0 6 0 5 0 
5 0 6 0 5 0 5 0 6 0 5 0 5 0 6 0 
5 0 6 0 5 0 5 0 6 0 5 0 5 0 6 0 
5 0 5 0 6 0 5 0 5 0 6 0 5 0 5 0 
6 0 5 0 5 0 6 0 5 0 5 0 6 0 5 0 
5 0 6 0 5 0 5 0 6 0 5 0 5 0 6 0 
5 0 5 0 6 0 5 0 5 0 6 0 5 0 5 0 
6 0 5 0 5 0 6 0 5 0 6 0 5 0 5 0 
6 0 5 0 5 0 6 0 5 0 5 0 6 0 5 0 
5 0 6 0 5 0 5 0 6 0 5 0 5 0 6 0 
5 0 5 0 6 0 5 0 5 0 6 0 5 0 5 0 
6 0 5 0 5 0 6 0 5 0 5 0 6 0 5 0 
5 0 6 0 5 0 5 0 6 0 5 0 5 0 6 0 
5 0 6 0 5 0 5 0 6 0 5 0 5 0 6 0 
5 0 5 0 6 0 5 0 5 0 6 960 5 0 5 0 
6 0 5 0 5 0 6 0 5 0 5 0 6 0 5 0 
5 0 6 0 5 0 5 0 6 0 5 0 5 0 6 0 
5 0 5 0 6 0 5 0 5 0 6 0 5 0 5 0 
6 0 5 0 6 0 5 0 5 0 6 0 5 0 5 0 
6 0 5 0 5 0 6 0 5 0 5 0 6 0 5 0 
5 0 6 0 5 0 5 0 6 0 5 0 5 0 6 0 
5 0 5 0 6 0 5 0 5 0 6 0 5 0 5 0 
6 0 5 0 5 0 6 0 5 0 5 0 6 0 5 0 
5 0 6 0 5 0 5 0 6 0 5 0 6 0 5 0 
5 0 6 0 5 0 5 0 6 0 5 0 5 0 6 0 
5 0 5 0 6 0 5 0 5 0 6 0 5 0 5 0 
6 0 5 0 5 0 1281 614 300 MP stroke
6 0 5 0 5 0 6 0 5 0 5 0 6 0 5 0 
5 0 6 0 5 0 5 0 6 0 5 0 5 0 6 0 
5 0 5 0 6 0 5 0 5 0 6 0 5 0 6 0 
5 0 5 0 6 0 5 0 5 0 6 0 5 0 5 0 
6 0 5 0 5 0 6 0 5 0 5 0 6 0 5 0 
5 0 6 0 5 0 5 0 6 0 5 0 5 0 6 -960 
5 0 5 0 6 960 5 0 5 0 6 0 5 0 5 0 
6 0 5 0 5 0 6 0 5 0 5 0 6 0 5 0 
5 0 6 0 5 0 6 0 5 0 5 0 6 0 5 0 
5 0 6 0 5 0 5 0 6 0 5 0 5 0 6 0 
5 0 5 0 6 0 5 0 5 0 6 0 5 0 5 0 
6 0 5 0 5 0 6 0 5 0 5 0 6 0 5 -960 
5 0 6 0 5 0 5 0 6 0 5 0 5 0 6 0 
5 0 5 0 6 0 5 0 5 0 6 0 5 0 6 0 
5 0 5 0 6 0 5 0 5 0 6 0 5 0 5 0 
6 0 5 0 5 0 6 0 5 0 5 0 6 0 5 0 
5 0 6 0 5 0 5 0 6 0 5 0 5 0 6 0 
5 0 5 0 6 0 5 0 5 0 6 0 5 0 5 0 
6 0 5 0 5 0 6 0 5 0 5 0 6 0 5 0 
6 0 5 0 5 0 6 0 5 0 5 0 6 0 5 0 
5 0 6 0 5 0 5 0 6 0 5 0 5 0 6 0 
5 0 5 0 6 0 5 0 5 0 6 0 5 0 5 0 
6 0 5 0 5 0 6 0 5 0 5 0 6 0 5 0 
5 0 6 0 5 0 5 0 6 0 5 960 5 0 6 0 
5 0 5 0 6 0 5 0 6 0 5 0 5 0 6 0 
5 0 5 0 6 0 5 0 5 0 6 0 5 0 5 0 
6 0 5 0 5 0 6 0 5 0 5 0 6 0 5 0 
5 0 6 0 5 0 5 0 6 0 5 0 5 0 6 0 
5 0 5 0 6 0 5 0 5 0 6 0 5 0 5 0 
6 0 5 0 5 0 6 0 5 0 5 0 6 0 4 0 
6 0 5 0 5 0 6 0 5 0 5 0 6 0 5 0 
5 0 6 0 5 0 5 0 6 0 5 0 5 0 6 0 
5 0 5 0 6 0 5 0 5 0 6 0 5 0 5 0 
6 0 5 0 5 0 6 0 5 0 5 0 6 0 5 0 
5 0 6 0 5 0 5 0 6 0 5 0 5 0 6 0 
5 0 5 0 6 0 5 0 6 0 5 0 5 0 6 0 
5 0 5 0 6 0 5 0 5 0 6 0 5 0 5 0 
6 0 5 0 5 0 -315 614 300 MP stroke
6 0 5 0 5 0 6 0 5 0 5 0 6 0 5 0 
5 0 6 0 5 0 5 0 6 0 5 0 5 0 6 0 
5 0 5 0 6 -960 5 0 5 0 6 0 5 0 5 0 
6 0 5 0 6 0 5 0 5 0 6 0 5 0 5 0 
6 0 5 0 5 0 6 0 5 0 5 0 6 0 5 0 
5 0 6 0 5 0 5 0 6 0 5 0 5 0 6 0 
5 0 5 0 6 0 5 0 5 0 6 0 5 0 5 0 
6 0 5 0 5 0 6 960 5 0 5 0 6 0 5 0 
5 -960 6 0 5 0 5 0 6 960 5 0 6 0 5 0 
5 0 6 0 5 0 5 -960 6 0 5 0 5 0 6 0 
5 0 5 0 6 0 5 0 5 0 6 0 5 0 5 0 
6 0 5 0 5 0 6 0 5 0 5 0 6 0 5 0 
5 0 6 0 5 0 5 0 6 0 5 0 5 0 6 0 
5 0 5 0 6 0 5 0 5 0 6 0 5 0 5 0 
6 0 5 0 6 0 5 0 5 0 6 0 5 0 5 0 
6 0 5 0 5 0 6 0 5 0 5 0 6 0 5 0 
5 0 6 0 5 0 5 0 6 0 5 0 5 0 6 0 
5 0 5 0 6 0 5 0 5 0 6 0 5 0 5 0 
6 0 5 0 5 0 6 0 5 0 5 0 6 0 5 0 
5 0 6 0 5 0 5 0 6 0 5 0 6 0 5 0 
5 0 6 0 5 0 5 0 6 0 5 0 5 0 6 960 
5 0 5 0 6 0 5 0 5 0 6 0 5 0 5 0 
6 0 5 0 5 0 6 0 5 0 5 0 6 0 5 0 
5 0 6 0 5 0 5 0 6 0 5 0 5 0 6 0 
5 0 5 0 6 0 5 0 5 0 6 0 5 0 5 0 
6 0 5 0 6 0 5 0 5 0 6 0 5 0 5 0 
6 0 5 0 5 0 6 0 5 0 5 -960 6 0 5 0 
5 0 6 0 5 0 5 0 6 0 5 0 5 0 6 0 
5 0 5 0 6 0 5 0 5 0 6 0 5 0 5 0 
6 0 5 0 5 0 6 0 5 0 5 0 6 0 5 0 
5 0 6 0 5 0 6 0 5 0 5 0 6 0 5 0 
5 0 6 0 5 0 5 0 6 0 5 0 5 0 6 0 
5 0 5 0 6 0 5 0 5 0 6 0 5 0 5 0 
6 0 5 0 5 0 6 0 5 0 5 0 6 0 5 0 
5 0 6 0 5 0 5 0 6 0 5 0 5 0 6 0 
5 0 5 0 6 0 5 0 5 0 6 0 5 0 6 0 
5 0 5 0 6 0 5 0 5 0 6 0 5 0 5 0 
6 0 5 0 5 0 -1912 1574 300 MP stroke
6 0 5 0 5 0 6 0 5 0 5 0 6 0 5 0 
5 0 6 0 5 0 5 0 6 0 5 0 5 0 6 0 
5 0 5 0 6 0 5 0 5 0 6 0 5 0 5 0 
6 0 5 0 5 0 6 0 5 0 5 0 6 960 5 0 
6 0 5 0 5 0 6 0 5 0 5 0 6 0 5 0 
5 0 6 0 5 0 5 0 6 0 5 0 5 0 6 0 
5 0 5 0 6 0 5 0 5 0 6 0 5 0 5 -960 
6 0 5 0 5 0 6 0 5 0 5 0 6 0 5 0 
5 0 6 0 5 0 5 0 6 0 5 0 5 0 6 0 
5 0 5 0 6 0 5 0 6 0 5 0 5 0 6 0 
5 0 5 0 6 0 5 0 5 0 6 0 5 0 5 0 
6 0 5 0 5 0 6 0 5 0 5 0 6 0 5 0 
5 0 6 0 5 0 5 0 6 0 5 0 5 0 6 0 
5 0 5 0 6 0 5 0 5 0 6 0 5 0 5 0 
6 0 5 0 5 0 6 0 5 0 6 0 5 0 5 0 
6 0 5 0 5 0 6 0 5 0 5 0 6 0 5 0 
5 0 6 0 5 0 5 0 6 0 5 0 5 0 6 0 
5 0 5 0 6 0 5 0 5 0 6 0 5 0 5 0 
6 0 5 0 5 0 6 0 5 0 5 0 6 0 5 0 
5 0 6 0 5 0 5 0 6 0 5 960 5 0 6 0 
5 0 6 0 5 0 5 0 6 0 5 0 5 0 6 0 
5 0 5 0 6 0 5 0 5 0 6 0 5 0 5 0 
6 0 5 0 5 0 6 0 5 0 5 0 6 0 5 0 
5 0 6 0 5 0 5 0 6 0 5 0 5 0 6 0 
5 0 5 0 6 0 5 0 5 0 6 0 5 0 5 0 
6 0 5 0 5 0 6 0 5 0 6 0 5 0 5 0 
6 0 5 0 5 0 6 0 5 0 5 0 6 0 5 0 
5 0 6 0 5 0 5 0 6 0 5 0 5 0 6 0 
5 0 5 0 6 0 5 0 5 0 6 0 5 0 5 0 
6 0 5 0 5 0 6 0 5 0 5 0 6 0 5 0 
5 0 6 0 5 0 5 0 6 0 5 0 5 0 6 0 
5 0 6 0 5 0 5 0 6 0 5 0 5 0 6 0 
5 0 5 0 6 0 5 0 5 0 6 0 5 0 5 0 
6 0 5 0 5 0 6 0 5 0 5 0 6 0 5 0 
5 0 6 0 5 0 5 0 6 0 5 0 5 0 6 0 
5 0 5 0 6 0 5 0 5 0 6 0 5 0 5 0 
6 0 5 0 6 0 5 0 5 0 6 0 5 0 5 0 
6 0 5 0 5 0 -3509 614 300 MP stroke
6 0 5 0 5 0 6 0 5 0 5 0 6 0 5 -960 
5 0 6 0 5 0 5 0 6 0 5 0 5 0 6 0 
5 0 5 0 6 0 5 0 5 0 6 0 5 0 5 0 
6 0 5 0 5 0 6 0 5 0 5 0 6 0 5 0 
5 0 6 0 5 0 6 0 5 0 5 0 6 0 5 0 
5 0 6 0 5 0 5 0 6 0 5 0 5 0 6 0 
5 0 5 0 6 0 5 0 5 0 6 0 5 0 5 0 
6 0 5 0 5 0 6 0 5 0 5 0 6 0 5 0 
5 0 6 0 5 0 5 0 6 0 5 0 5 0 6 0 
5 0 5 0 6 0 5 0 5 0 6 0 5 0 6 0 
5 0 5 0 6 0 5 0 5 0 6 0 5 0 5 0 
6 0 5 0 5 0 6 0 5 0 5 0 6 0 5 0 
5 0 6 0 5 0 5 0 6 0 5 0 5 0 6 0 
5 0 5 0 6 0 5 0 5 0 6 0 5 0 0 0 
-4102 1574 113 MP stroke
0.4 sg
5 0 5 0 6 0 5 0 5 0 6 0 5 0 5 0 
6 0 5 0 5 0 6 0 5 0 5 0 6 0 5 0 
5 0 6 0 5 0 5 0 6 0 5 0 6 0 5 0 
5 0 6 0 5 0 5 0 6 0 5 0 5 0 6 0 
5 0 5 0 6 0 5 0 5 0 6 0 5 0 5 0 
6 0 5 0 5 0 6 0 5 0 5 0 6 0 5 0 
5 0 6 0 5 0 5 0 6 0 5 0 5 0 6 0 
5 0 5 0 6 0 5 0 5 0 6 0 5 0 5 0 
6 0 5 0 6 0 5 0 5 0 6 0 5 0 5 0 
6 0 5 0 5 0 6 0 5 0 5 0 6 0 5 0 
5 0 6 0 5 0 5 0 6 0 5 0 5 0 6 0 
5 0 5 0 6 0 5 0 5 0 6 0 5 0 5 0 
6 0 5 0 0 0 -4102 1574 100 MP
5 0 5 0 6 0 5 0 5 0 6 0 5 0 5 0 
6 0 5 0 5 0 6 0 5 0 5 0 6 0 5 0 
5 0 6 0 5 0 5 0 6 0 5 0 5 0 6 0 
5 0 5 0 6 0 5 0 5 0 6 0 5 0 5 0 
6 0 5 0 5 0 6 0 5 0 6 0 5 0 5 0 
6 0 5 0 5 0 6 0 5 0 5 0 6 0 5 0 
5 0 6 0 5 0 5 0 6 0 5 0 5 0 6 0 
5 0 5 0 6 0 5 0 5 0 6 0 5 0 5 0 
6 0 5 0 5 0 6 0 5 0 5 0 6 0 5 0 
5 0 6 0 5 0 5 0 6 0 5 0 6 0 5 0 
5 0 6 0 5 0 5 0 6 0 5 0 5 0 6 0 
5 0 5 0 6 0 5 0 5 0 6 0 5 0 5 0 
6 0 5 0 5 0 6 0 100 AP
6 0 5 0 5 0 6 0 5 0 6 0 5 0 5 0 
6 0 5 0 5 0 6 0 5 0 5 0 6 0 5 0 
5 0 6 0 5 0 5 0 6 0 5 0 5 0 6 0 
5 0 5 0 6 0 5 0 5 0 6 0 5 0 5 0 
6 0 5 0 5 0 6 0 5 0 5 0 6 0 5 0 
5 0 6 0 5 0 5 0 6 0 5 941 5 0 6 0 
5 -941 6 0 5 0 5 0 6 0 5 0 5 0 6 0 
5 0 5 0 6 0 5 0 5 0 6 0 5 0 5 0 
6 0 5 0 5 0 6 0 5 0 5 0 6 0 5 0 
5 0 6 0 5 0 5 0 6 0 5 0 5 0 6 0 
5 0 5 0 6 0 5 0 5 0 6 0 5 0 5 0 
6 0 5 0 5 0 6 0 5 0 6 0 5 0 5 0 
6 0 5 0 5 0 6 0 100 AP
6 0 5 0 5 0 6 0 5 0 5 0 6 0 5 0 
5 0 6 0 5 0 5 0 6 0 5 0 5 0 6 0 
5 0 5 0 6 0 5 0 6 0 5 0 5 0 6 0 
5 0 5 0 6 0 5 0 5 0 6 0 5 0 5 0 
6 0 5 0 5 0 6 0 5 0 5 0 6 941 5 0 
5 0 6 -941 5 941 5 -941 6 0 5 0 5 0 6 0 
5 0 5 0 6 0 5 0 5 0 6 0 5 0 5 0 
6 0 5 0 5 0 6 0 5 0 5 0 6 0 5 0 
6 0 5 0 5 0 6 0 5 0 5 0 6 0 5 0 
5 0 6 0 5 0 5 0 6 0 5 0 5 0 6 0 
5 0 5 0 6 0 5 0 5 0 6 0 5 0 5 0 
6 0 5 0 5 0 6 0 5 0 5 0 6 0 5 0 
5 0 6 0 5 0 5 0 100 AP
6 -941 5 941 5 -941 6 0 5 0 5 0 6 0 5 0 
5 0 6 0 5 0 5 0 6 0 5 0 5 0 6 0 
5 0 5 0 6 0 5 0 5 0 6 0 5 0 5 0 
6 0 5 0 5 0 6 0 5 0 5 0 6 0 5 0 
6 0 5 0 5 0 6 0 5 0 5 0 6 0 5 0 
5 0 6 0 5 0 5 0 6 0 5 0 5 0 6 0 
5 0 5 0 6 0 5 0 5 0 6 0 5 0 5 0 
6 0 5 0 5 0 6 0 5 0 5 0 6 0 5 0 
5 0 6 0 5 0 5 0 6 0 5 0 5 0 6 0 
5 0 5 0 6 0 5 0 6 0 5 0 5 0 6 0 
5 0 5 0 6 0 5 0 5 0 6 0 5 0 5 0 
6 0 5 0 5 0 6 0 5 0 5 0 6 0 5 0 
5 0 6 0 5 0 5 0 100 AP
5 0 6 0 5 0 6 0 5 0 5 0 6 0 5 0 
5 0 6 0 5 0 5 0 6 0 5 0 5 0 6 0 
5 0 5 0 6 0 5 0 5 0 6 0 5 0 5 0 
6 0 5 0 5 0 6 0 5 0 5 0 6 0 5 0 
5 0 6 0 5 0 5 0 6 0 5 0 5 0 6 0 
5 0 5 0 6 0 5 0 5 0 6 0 5 0 6 0 
5 0 5 0 6 0 5 0 5 0 6 0 5 0 5 0 
6 0 5 0 5 0 6 0 5 0 5 0 6 0 5 0 
5 0 6 0 5 0 5 0 6 0 5 0 5 0 6 0 
5 0 5 0 6 0 5 0 5 0 6 0 5 0 5 0 
6 0 5 0 5 0 6 0 5 0 5 0 6 0 5 0 
5 0 6 0 5 0 6 0 5 0 5 0 6 0 5 0 
5 941 6 0 5 0 5 0 100 AP
5 941 6 -941 5 0 5 0 6 0 5 941 5 0 6 -941 
5 0 5 0 6 0 5 0 5 0 6 0 5 0 6 0 
5 0 5 0 6 0 5 0 5 0 6 0 5 0 5 0 
6 0 5 0 5 0 6 0 5 0 5 0 6 0 5 0 
5 0 6 0 5 0 5 0 6 0 5 0 5 0 6 0 
5 0 5 0 6 0 5 0 5 0 6 0 5 0 5 0 
6 0 5 0 5 0 6 0 5 0 5 0 6 0 5 0 
5 0 6 941 5 0 6 0 5 -941 5 0 6 0 5 0 
5 0 6 0 5 0 5 0 6 0 5 0 5 0 6 0 
5 0 5 0 6 0 5 0 5 0 6 0 5 0 5 0 
6 0 5 0 5 0 6 0 5 0 5 0 6 0 5 0 
5 0 6 0 5 0 5 0 6 0 5 0 5 0 6 0 
5 0 5 0 6 0 5 0 100 AP
5 0 6 0 5 0 5 0 6 0 5 0 5 0 6 0 
5 0 5 0 6 0 5 0 5 0 6 0 5 0 5 0 
6 0 5 0 5 0 6 0 5 0 5 0 6 0 5 0 
5 0 6 0 5 0 5 0 6 0 4 0 6 0 5 0 
5 0 6 0 5 0 5 0 6 0 5 0 5 0 6 0 
5 0 5 0 6 0 5 0 5 0 6 0 5 0 5 0 
6 0 5 0 5 0 6 0 5 0 5 0 6 0 5 0 
5 0 6 0 5 0 5 0 6 0 5 0 5 0 6 0 
5 0 5 0 6 0 5 0 5 0 6 0 5 0 5 0 
6 0 5 0 6 0 5 0 5 0 6 0 5 0 5 0 
6 0 5 0 5 0 6 0 5 0 5 0 6 0 5 0 
5 0 6 0 5 0 5 0 6 0 5 0 5 0 6 0 
5 0 5 0 6 0 5 0 100 AP
5 0 6 0 5 0 5 0 6 0 5 0 5 0 6 0 
5 0 5 0 6 0 5 0 5 0 6 0 5 0 5 0 
6 0 5 0 5 0 6 0 5 0 5 0 6 0 5 0 
5 0 6 0 5 0 5 0 6 0 5 0 5 0 6 0 
5 0 5 0 6 0 5 0 5 0 6 0 5 0 5 0 
6 0 5 0 6 0 5 0 5 0 6 0 5 0 5 0 
6 0 5 0 5 0 6 0 5 0 5 0 6 0 5 0 
5 0 6 0 5 0 5 0 6 0 5 0 5 0 6 0 
5 0 5 0 6 0 5 0 5 0 6 0 5 0 5 0 
6 0 5 0 5 0 6 0 5 0 5 0 6 0 5 0 
5 0 6 0 5 0 5 0 6 0 5 0 6 0 5 0 
5 0 6 0 5 0 5 0 6 0 5 0 5 0 6 0 
5 0 5 0 6 0 5 0 100 AP
5 0 5 0 6 0 5 0 5 0 6 0 5 0 5 0 
6 0 5 0 5 0 6 0 5 0 6 0 5 0 5 0 
6 0 5 0 5 0 6 941 5 0 5 0 6 0 5 0 
5 0 6 0 5 0 5 0 6 0 5 0 5 0 6 0 
5 0 5 0 6 0 5 0 5 0 6 -941 5 0 5 0 
6 941 5 0 5 0 6 0 5 0 5 0 6 0 5 -941 
5 0 6 0 5 0 5 0 6 0 5 0 5 0 6 0 
5 0 6 0 5 0 5 0 6 0 5 0 5 0 6 0 
5 0 5 0 6 0 5 0 5 0 6 0 5 0 5 0 
6 0 5 0 5 0 6 0 5 0 5 0 6 0 5 0 
5 0 6 0 5 0 5 0 6 0 5 0 5 0 6 0 
5 0 5 0 6 0 5 0 5 0 6 0 5 0 5 0 
6 0 5 0 5 0 6 0 100 AP
5 -941 5 0 6 0 5 0 5 0 6 0 5 0 5 0 
6 0 5 0 5 0 6 0 5 0 5 0 6 0 5 0 
5 0 6 0 5 0 5 0 6 0 5 0 5 0 6 0 
5 0 6 0 5 0 5 0 6 0 5 0 5 0 6 0 
5 0 5 0 6 0 5 0 5 0 6 0 5 0 5 0 
6 0 5 0 5 0 6 0 5 0 5 0 6 0 5 0 
5 0 6 0 5 0 5 0 6 0 5 0 5 0 6 0 
5 0 5 0 6 0 5 0 5 0 6 0 5 0 5 0 
6 0 5 0 5 0 6 0 5 0 6 0 5 0 5 0 
6 0 5 0 5 0 6 0 5 0 5 0 6 0 5 0 
5 0 6 0 5 0 5 0 6 0 5 0 5 0 6 0 
5 0 5 0 6 0 5 0 5 0 6 0 5 0 5 0 
6 0 5 0 5 0 6 0 100 AP
5 0 5 0 6 0 5 0 5 0 6 0 5 0 5 0 
6 0 5 0 5 0 6 0 5 0 5 0 6 0 5 0 
5 0 6 0 5 0 5 0 6 0 5 0 5 0 6 0 
5 0 5 0 6 0 5 0 5 0 6 0 5 0 5 0 
6 0 5 0 5 0 6 0 5 0 5 0 6 0 5 0 
6 0 5 0 5 0 6 0 5 0 5 0 6 0 5 0 
5 0 6 0 5 0 5 0 6 0 5 0 5 0 6 0 
5 0 5 0 6 0 5 0 5 0 6 0 5 0 5 0 
6 0 5 0 5 0 6 0 5 0 5 0 6 0 5 0 
5 0 6 0 5 0 5 0 6 0 5 0 5 0 6 0 
5 0 5 0 6 0 5 0 6 0 5 0 5 0 6 0 
5 0 5 0 6 0 5 0 5 0 6 0 5 0 5 0 
6 0 5 0 5 941 6 0 100 AP
6 0 5 0 5 0 6 0 5 0 5 0 6 0 5 0 
5 0 6 0 5 0 6 0 5 0 5 0 6 0 5 0 
5 0 6 0 5 0 5 0 6 0 5 0 5 0 6 0 
5 0 5 0 6 0 5 0 5 0 6 0 5 0 5 0 
6 0 5 0 5 0 6 0 5 0 5 0 6 0 5 0 
5 0 6 0 5 0 5 0 6 0 5 0 5 0 6 0 
5 0 5 0 6 0 5 0 6 0 5 0 5 0 6 0 
5 0 5 0 6 0 5 0 5 0 6 0 5 0 5 0 
6 0 5 0 5 0 6 0 5 0 5 0 6 0 5 0 
5 0 6 0 5 0 5 0 6 0 5 0 5 0 6 0 
5 0 5 0 6 0 5 0 5 0 6 0 5 0 5 0 
6 0 5 0 5 0 6 0 5 0 5 0 6 0 5 0 
6 0 5 0 5 0 6 0 100 AP
6 0 5 0 5 0 6 0 5 0 5 0 6 0 5 0 
5 0 6 0 5 0 5 0 6 0 5 0 5 0 6 0 
5 0 5 0 6 0 5 0 5 0 6 0 5 0 6 0 
5 0 5 0 6 0 5 0 5 0 6 0 5 0 5 0 
6 0 5 0 5 0 6 0 5 0 5 0 6 0 5 0 
5 0 6 0 5 0 5 0 6 0 5 0 5 0 6 0 
5 0 5 0 6 0 5 0 5 0 6 0 5 0 5 0 
6 0 5 0 5 0 6 0 5 0 5 0 6 0 5 0 
5 0 6 0 5 0 6 0 5 0 5 0 6 0 5 0 
5 0 6 0 5 0 5 0 6 0 5 0 5 0 6 0 
5 0 5 0 6 0 5 0 5 0 6 0 5 0 5 0 
6 0 5 0 5 0 6 0 5 0 5 0 6 0 5 0 
5 0 6 0 5 0 5 0 100 AP
6 0 5 0 5 0 6 0 5 0 5 0 6 0 5 0 
5 0 6 0 5 0 5 0 6 0 5 0 5 0 6 0 
5 0 5 0 6 0 5 0 5 0 6 0 5 0 5 0 
6 0 5 0 5 0 6 0 5 0 5 0 6 0 5 0 
5 0 6 0 5 0 6 0 5 0 5 0 6 0 5 0 
5 0 6 0 5 0 5 0 6 0 5 0 5 0 6 0 
5 0 5 0 6 0 5 0 5 0 6 0 5 0 5 0 
6 0 5 0 5 0 6 0 5 0 5 0 6 0 5 0 
5 0 6 0 5 0 5 0 6 0 5 0 5 0 6 0 
5 0 5 0 6 0 5 0 5 0 6 0 5 0 6 0 
5 0 5 0 6 0 5 0 5 0 6 0 5 0 5 0 
6 0 5 0 5 0 6 0 5 0 5 0 6 0 5 0 
5 0 6 0 5 0 5 0 100 AP
5 0 6 0 5 0 5 0 6 0 5 0 6 0 5 0 
5 0 6 0 5 0 5 0 6 0 5 0 5 0 6 0 
5 0 5 0 6 0 5 0 5 0 6 0 5 0 5 0 
6 0 5 0 5 0 6 0 5 0 5 0 6 0 5 0 
5 0 6 0 5 0 5 0 6 0 5 0 5 0 6 0 
5 0 5 0 6 0 5 0 5 0 6 0 5 0 5 0 
6 0 5 0 6 0 5 0 5 0 6 0 5 0 5 0 
6 0 5 0 5 0 6 0 5 0 5 0 6 0 5 0 
5 0 6 0 5 0 5 0 6 0 5 0 5 0 6 0 
5 0 5 0 6 941 5 -941 5 941 6 0 5 -941 5 0 
6 0 5 0 5 0 6 0 5 0 5 0 6 0 5 0 
5 0 6 0 5 0 5 941 6 0 5 -941 6 0 5 0 
5 0 6 0 5 0 5 0 100 AP
5 0 6 0 5 0 5 0 6 0 5 0 5 0 6 0 
5 0 5 0 6 0 5 0 5 0 6 0 5 0 5 0 
6 0 5 0 6 0 5 0 5 0 6 0 5 0 5 0 
6 0 5 0 5 0 6 0 5 0 5 0 6 0 5 0 
5 0 6 0 5 0 5 0 6 0 5 941 5 -941 6 0 
5 0 5 0 6 0 5 0 5 0 6 0 5 0 5 0 
6 0 5 0 5 0 6 0 5 0 5 0 6 0 5 0 
5 0 6 0 5 0 5 0 6 0 5 0 6 0 5 0 
5 0 6 0 5 0 5 0 6 0 5 0 5 0 6 0 
5 0 5 0 6 0 5 0 5 0 6 0 5 0 5 0 
6 0 5 0 5 0 6 0 5 0 5 0 6 0 5 0 
5 0 6 0 5 0 5 0 6 0 5 0 5 0 6 0 
5 0 5 0 6 0 5 0 100 AP
5 941 6 0 5 0 5 -941 6 0 5 0 5 0 6 0 
5 0 5 0 6 0 5 0 5 0 6 0 5 0 5 0 
6 0 5 0 5 0 6 0 5 0 5 0 6 0 5 0 
5 0 6 0 5 0 5 0 6 0 5 0 5 0 6 0 
5 0 6 0 5 0 5 0 6 0 5 0 5 0 6 0 
5 0 5 0 6 0 5 0 5 0 6 0 5 0 5 0 
6 0 5 0 5 0 6 0 5 0 5 0 6 0 5 0 
5 0 6 0 5 0 5 0 6 0 5 0 5 0 6 0 
5 0 5 0 6 0 5 0 5 0 6 0 5 0 5 0 
6 0 5 0 5 0 6 0 5 0 6 0 5 0 5 0 
6 0 5 0 5 0 6 0 5 0 5 0 6 0 5 0 
5 0 6 0 5 0 5 0 6 0 5 0 5 0 6 0 
5 0 5 0 6 0 5 0 100 AP
5 0 5 0 6 0 5 0 6 0 5 0 5 0 6 0 
5 0 5 0 6 0 5 0 5 0 6 0 5 0 5 0 
6 0 5 0 5 0 6 0 5 0 5 0 6 0 5 0 
5 0 6 0 5 0 5 0 6 0 5 0 5 0 6 0 
5 0 5 0 6 0 5 0 5 0 6 0 5 0 5 0 
6 0 5 0 5 0 6 0 5 0 6 0 5 0 5 0 
6 0 5 0 5 0 6 0 5 0 5 0 6 0 5 0 
5 0 6 0 5 0 5 0 6 0 5 0 5 0 6 0 
5 0 5 0 6 0 5 0 5 0 6 0 5 0 5 0 
6 0 5 0 5 0 6 0 5 0 5 0 6 0 5 0 
5 0 6 0 5 0 5 0 6 0 5 0 5 0 6 0 
5 0 6 0 5 0 5 0 6 0 5 0 5 0 6 0 
5 0 5 0 6 0 5 0 100 AP
5 0 5 0 6 0 5 0 5 0 6 0 5 0 5 0 
6 0 5 0 5 0 6 0 5 0 5 0 6 0 5 0 
6 0 5 0 5 0 6 0 5 0 5 0 6 0 5 0 
5 0 6 0 5 0 5 0 6 0 5 0 5 0 6 0 
5 0 5 0 6 0 5 0 5 0 6 0 5 0 5 0 
6 0 5 0 5 0 6 0 5 0 5 0 6 0 5 0 
5 0 6 0 5 0 5 0 6 0 5 0 5 0 6 0 
5 0 5 0 6 0 5 0 6 0 5 0 5 0 6 0 
5 0 5 0 6 0 5 0 5 0 6 0 5 0 5 0 
6 0 5 0 5 0 6 0 5 0 5 0 6 0 5 0 
5 0 6 0 5 0 5 0 6 0 5 0 5 0 6 0 
5 0 5 0 6 0 5 0 5 0 6 0 5 0 5 0 
6 0 5 0 5 0 6 0 100 AP
-5 0 -5 0 -6 0 -5 0 -5 0 -6 0 -5 0 -5 0 
-6 0 -5 0 -5 0 -6 0 -5 0 -5 0 -6 0 -5 0 
-5 0 -6 0 -5 0 -5 0 -6 0 -5 0 -5 0 -6 0 
-5 0 -5 0 -6 0 -5 0 -5 0 -6 0 -5 0 -5 0 
-6 0 -5 0 -5 0 -6 0 -5 0 -5 0 -6 0 -5 0 
-6 0 -5 0 -5 0 -6 0 -5 0 -5 0 -6 0 -5 0 
-5 0 -6 0 -5 0 -5 0 -6 0 -5 0 -5 0 -6 0 
-5 0 -5 0 -6 0 -5 0 -5 0 -6 0 -5 0 -5 0 
-6 0 -5 0 -5 0 -6 0 -5 0 -5 0 -6 0 -5 0 
-5 0 -6 0 -5 0 -5 0 -6 0 -5 0 -5 0 -6 0 
-5 0 -5 0 -6 0 -5 0 -6 0 -5 0 -5 0 -6 0 
-5 0 -5 0 -6 0 -5 0 -5 0 -6 0 -5 0 -5 0 
-6 0 -5 0 -5 0 0 0 100 AP
-6 0 -5 0 -5 0 -6 0 -5 0 -5 0 -6 0 -5 0 
-5 0 -6 0 -5 0 -6 0 -5 0 -5 0 -6 0 -5 0 
-5 0 -6 0 -5 0 -5 0 -6 0 -5 0 -5 0 -6 0 
-5 0 -5 0 -6 0 -5 0 -5 0 -6 0 -5 0 -5 0 
-6 0 -5 0 -5 0 -6 0 -5 0 -5 0 -6 0 -5 0 
-5 0 -6 0 -5 0 -5 0 -6 0 -5 0 -5 0 -6 0 
-5 0 -5 0 -6 0 -5 0 -5 0 -6 0 -5 0 -6 0 
-5 0 -5 0 -6 0 -5 0 -5 0 -6 0 -5 0 -5 0 
-6 0 -5 0 -5 0 -6 0 -5 0 -5 0 -6 0 -5 0 
-5 0 -6 0 -5 0 -5 0 -6 0 -5 0 -5 0 -6 0 
-5 0 -5 0 -6 0 -5 0 -5 0 -6 0 -5 0 -5 0 
-6 0 -5 0 -5 0 -6 0 -5 0 -5 0 -6 0 -5 0 
-6 0 -5 0 -5 0 -6 0 100 AP
-6 0 -5 0 -5 0 -6 0 -5 0 -5 0 -6 0 -5 0 
-5 0 -6 0 -5 0 -5 0 -6 0 -5 0 -5 0 -6 0 
-5 0 -5 0 -6 0 -5 0 -5 0 -6 0 -5 0 -6 0 
-5 0 -5 0 -6 0 -5 0 -5 0 -6 0 -5 0 -5 0 
-6 0 -5 0 -5 0 -6 0 -5 0 -5 0 -6 0 -5 0 
-5 0 -6 0 -5 0 -5 0 -6 0 -5 0 -5 0 -6 0 
-5 0 -5 0 -6 0 -5 0 -5 0 -6 0 -5 0 -5 0 
-6 0 -5 0 -5 0 -6 0 -5 0 -5 0 -6 0 -5 0 
-5 0 -6 0 -5 0 -6 0 -5 0 -5 0 -6 0 -5 0 
-5 0 -6 0 -5 0 -5 0 -6 0 -5 0 -5 0 -6 0 
-5 0 -5 0 -6 0 -5 0 -5 0 -6 0 -5 0 -5 0 
-6 0 -5 0 -5 0 -6 0 -5 0 -5 0 -6 0 -5 0 
-5 0 -6 0 -5 0 -5 0 100 AP
-6 0 -5 0 -5 0 -6 0 -5 0 -5 0 -6 0 -5 0 
-5 0 -6 0 -5 0 -5 0 -6 0 -5 0 -5 0 -6 0 
-5 0 -5 0 -6 0 -5 0 -5 0 -6 0 -5 0 -5 0 
-6 0 -5 0 -5 0 -6 0 -5 0 -5 0 -6 0 -5 0 
-5 0 -6 0 -5 0 -5 0 -6 0 -5 0 -6 0 -5 0 
-5 0 -6 0 -5 0 -5 0 -6 0 -5 0 -5 0 -6 0 
-5 0 -5 0 -6 0 -5 0 -5 0 -6 0 -5 0 -5 0 
-6 0 -5 0 -5 0 -6 0 -5 0 -5 0 -6 0 -5 0 
-5 0 -6 0 -5 0 -5 0 -6 0 -5 0 -5 0 -6 0 
-5 0 -5 0 -6 0 -5 0 -5 0 -6 0 -5 0 -5 0 
-6 0 -5 0 -6 0 -5 0 -5 0 -6 0 -5 0 -5 0 
-6 0 -5 0 -5 0 -6 0 -5 0 -5 0 -6 0 -5 0 
-5 0 -6 0 -5 0 -5 0 100 AP
-5 0 -6 0 -5 0 -5 0 -6 0 -5 0 -6 0 -5 0 
-5 0 -6 0 -5 0 -5 0 -6 0 -5 0 -5 0 -6 0 
-5 0 -5 0 -6 0 -5 0 -5 0 -6 0 -5 0 -5 0 
-6 0 -5 0 -5 0 -6 0 -5 0 -5 0 -6 0 -5 0 
-5 0 -6 0 -5 0 -5 0 -6 0 -5 0 -5 0 -6 0 
-5 0 -5 0 -6 0 -5 0 -5 0 -6 0 -5 0 -5 0 
-6 0 -5 0 -6 0 -5 0 -5 0 -6 0 -5 0 -5 0 
-6 0 -5 0 -5 0 -6 0 -5 0 -5 0 -6 0 -5 0 
-5 0 -6 0 -5 0 -5 0 -6 0 -5 0 -5 0 -6 0 
-5 0 -5 0 -6 0 -5 0 -5 0 -6 0 -5 0 -5 0 
-6 0 -5 0 -5 0 -6 0 -5 0 -5 0 -6 0 -5 0 
-5 0 -6 0 -5 0 -5 0 -6 0 -5 0 -6 0 -5 0 
-5 0 -6 0 -5 0 -5 0 100 AP
-5 0 -6 0 -5 0 -5 0 -6 0 -5 0 -5 0 -6 0 
-5 0 -5 0 -6 0 -5 0 -5 0 -6 0 -5 0 -5 0 
-6 0 -5 0 -5 0 -6 0 -5 0 -6 0 -5 0 -5 0 
-6 0 -5 0 -5 0 -6 0 -5 0 -5 0 -6 0 -5 0 
-5 0 -6 0 -5 0 -5 0 -6 0 -5 0 -5 0 -6 0 
-5 0 -5 0 -6 0 -5 0 -5 0 -6 0 -5 0 -5 0 
-6 0 -5 0 -5 0 -6 0 -5 0 -5 0 -6 0 -5 0 
-5 0 -6 0 -5 0 -5 0 -6 0 -5 0 -5 0 -6 0 
-5 0 -6 0 -5 0 -5 0 -6 0 -5 0 -5 0 -6 0 
-5 0 -5 0 -6 0 -5 0 -5 0 -6 0 -5 0 -5 0 
-6 0 -5 0 -5 0 -6 0 -5 0 -5 0 -6 0 -5 0 
-5 0 -6 0 -5 0 -5 0 -6 0 -5 0 -5 0 -6 0 
-5 0 -5 0 -6 0 -5 0 100 AP
-5 0 -6 0 -5 0 -5 0 -6 0 -5 0 -5 0 -6 0 
-5 0 -5 0 -6 0 -5 0 -5 0 -6 0 -5 0 -5 0 
-6 0 -5 0 -5 0 -6 0 -5 0 -5 0 -6 0 -5 0 
-5 0 -6 0 -5 0 -5 0 -6 0 -5 0 -5 0 -6 0 
-5 0 -6 0 -5 0 -5 0 -6 0 -5 0 -5 0 -6 0 
-5 0 -5 0 -6 0 -5 0 -5 0 -6 0 -5 0 -5 0 
-6 0 -5 0 -5 0 -6 0 -5 0 -5 0 -6 0 -5 0 
-5 0 -6 0 -5 0 -5 0 -6 0 -5 0 -5 0 -6 0 
-5 0 -5 0 -6 0 -5 0 -5 0 -6 0 -5 0 -5 0 
-6 0 -5 0 -5 0 -6 0 -5 0 -6 0 -5 0 -5 0 
-6 0 -5 0 -5 0 -6 0 -5 0 -5 0 -6 0 -5 0 
-5 0 -6 0 -5 0 -5 0 -6 0 -5 0 -5 0 -6 0 
-5 0 -5 0 -6 0 -5 0 100 AP
-5 0 -5 0 -6 0 -5 0 -6 0 -5 0 -5 0 -6 0 
-5 0 -5 0 -6 0 -5 0 -5 0 -6 0 -5 0 -5 0 
-6 0 -5 0 -5 0 -6 0 -5 0 -5 0 -6 0 -5 0 
-5 0 -6 0 -5 0 -5 0 -6 0 -5 0 -5 0 -6 0 
-5 0 -5 0 -6 0 -5 0 -5 0 -6 0 -5 0 -5 0 
-6 0 -5 0 -5 0 -6 0 -5 0 -5 0 -6 0 -5 0 
-6 0 -5 0 -5 0 -6 0 -5 0 -5 0 -6 0 -5 0 
-5 0 -6 0 -5 0 -5 0 -6 0 -5 0 -5 0 -6 0 
-5 0 -5 0 -6 0 -5 0 -5 0 -6 0 -5 0 -5 0 
-6 0 -5 0 -5 0 -6 0 -5 0 -5 0 -6 0 -5 0 
-5 0 -6 0 -5 0 -5 0 -6 0 -5 0 -5 0 -6 0 
-5 0 -6 0 -5 0 -5 0 -6 0 -5 0 -5 0 -6 0 
-5 0 -5 0 -6 0 -5 0 100 AP
-5 0 -5 0 -6 0 -5 0 -5 0 -6 0 -5 0 -5 0 
-6 0 -5 0 -5 0 -6 0 -5 0 -5 0 -6 0 -5 0 
-6 0 -5 0 -5 0 -6 0 -5 0 -5 0 -6 0 -5 0 
-5 0 -6 0 -5 0 -5 0 -6 0 -5 0 -5 0 -6 0 
-5 0 -5 0 -6 0 -5 0 -5 0 -6 0 -5 0 -5 0 
-6 0 -5 0 -5 0 -6 0 -5 0 -5 0 -6 0 -5 0 
-5 0 -6 0 -5 0 -5 0 -6 0 -5 0 -5 0 -6 0 
-5 0 -5 0 -6 0 -5 0 -6 0 -5 0 -5 0 -6 0 
-5 0 -5 0 -6 0 -5 0 -5 0 -6 0 -5 0 -5 0 
-6 0 -5 0 -5 0 -6 0 -5 0 -5 0 -6 0 -5 0 
-5 0 -6 0 -5 0 -5 0 -6 0 -5 0 -5 0 -6 0 
-5 0 -5 0 -6 0 -5 0 -5 0 -6 0 -5 0 -5 0 
-6 0 -5 0 -5 0 -6 0 100 AP
-5 0 -5 0 -6 0 -5 0 -5 0 -6 0 -5 0 -5 0 
-6 0 -5 0 -5 0 -6 0 -5 0 -5 0 -6 0 -5 0 
-5 0 -6 0 -5 0 -5 0 -6 0 -5 0 -5 0 -6 0 
-5 0 -5 0 -6 0 -5 0 -5 0 -6 0 -5 0 -6 0 
-5 0 -5 0 -6 0 -5 0 -5 0 -6 0 -5 0 -5 0 
-6 0 -5 0 -5 0 -6 0 -5 0 -5 0 -6 0 -5 0 
-5 0 -6 0 -5 0 -5 0 -6 0 -5 0 -5 0 -6 0 
-5 0 -5 0 -6 0 -5 0 -5 0 -6 0 -5 0 -5 0 
-6 0 -5 0 -5 0 -6 0 -5 0 -5 0 -6 0 -5 0 
-5 0 -6 0 -5 0 -6 0 -5 0 -5 0 -6 0 -5 0 
-5 0 -6 0 -5 0 -5 0 -6 0 -5 0 -5 0 -6 0 
-5 0 -5 0 -6 0 -5 0 -5 0 -6 0 -5 0 -5 0 
-6 0 -5 0 -5 0 -6 0 100 AP
-5 0 -5 0 -6 0 -5 0 -5 0 -6 0 -5 0 -5 0 
-6 0 -5 0 -5 0 -6 0 -5 0 -5 0 -6 0 -5 0 
-5 0 -6 0 -5 0 -5 0 -6 0 -5 0 -5 0 -6 0 
-5 0 -5 0 -6 0 -5 0 -5 0 -6 0 -5 0 -5 0 
-6 0 -5 0 -5 0 -6 0 -5 0 -5 0 -6 0 -5 0 
-5 0 -6 0 -5 0 -6 0 -5 0 -5 0 -6 0 -5 0 
-5 0 -6 0 -5 0 -5 0 -6 0 -5 0 -5 0 -6 0 
-5 0 -5 0 -6 0 -5 0 -5 0 -6 0 -5 0 -5 0 
-6 0 -5 0 -5 0 -6 0 -5 0 -5 0 -6 0 -5 0 
-5 0 -6 0 -5 0 -5 0 -6 0 -5 0 -5 0 -6 0 
-5 0 -5 0 -6 0 -5 0 -5 0 -6 0 -5 0 -6 0 
-5 0 -5 0 -6 0 -5 0 -5 0 -6 0 -5 0 -5 0 
-6 0 -5 0 -5 0 -6 0 100 AP
-6 0 -5 0 -5 0 -6 0 -5 0 -5 0 -6 0 -5 0 
-5 0 -6 0 -5 0 -5 0 -6 0 -5 0 -6 0 -5 0 
-5 0 -6 0 -5 0 -5 0 -6 0 -5 0 -5 0 -6 0 
-5 0 -5 0 -6 0 -5 0 -5 0 -6 0 -5 0 -5 0 
-6 0 -5 0 -5 0 -6 0 -5 0 -5 0 -6 0 -5 0 
-5 0 -6 0 -5 0 -5 0 -6 0 -5 0 -5 0 -6 0 
-5 0 -5 0 -6 0 -5 0 -5 0 -6 0 -5 0 -5 0 
-6 0 -5 0 -6 0 -5 0 -5 0 -6 0 -5 0 -5 0 
-6 0 -5 0 -5 0 -6 0 -5 0 -5 0 -6 0 -5 0 
-5 0 -6 0 -5 0 -5 0 -6 0 -5 0 -5 0 -6 0 
-5 0 -5 0 -6 0 -5 0 -5 0 -6 0 -5 0 -5 0 
-6 0 -5 0 -5 0 -6 0 -5 0 -5 0 -6 0 -5 0 
-5 0 -6 0 -5 0 -6 0 100 AP
-6 0 -5 0 -5 0 -6 0 -5 0 -5 0 -6 0 -5 0 
-5 0 -6 0 -5 0 -5 0 -6 0 -5 0 -5 0 -6 0 
-5 0 -5 0 -6 0 -5 0 -5 0 -6 0 -5 0 -5 0 
-6 0 -5 0 -6 0 -5 0 -5 0 -6 0 -5 0 -5 0 
-6 0 -5 0 -5 0 -6 0 -5 0 -5 0 -6 0 -5 0 
-5 0 -6 0 -5 0 -5 0 -6 0 -5 0 -5 0 -6 0 
-5 0 -5 0 -6 0 -5 0 -5 0 -6 0 -5 0 -5 0 
-6 0 -5 0 -5 0 -6 0 -5 0 -5 0 -6 0 -5 0 
-5 0 -6 0 -5 0 -5 0 -6 0 -4 0 -6 0 -5 0 
-5 0 -6 0 -5 0 -5 0 -6 0 -5 0 -5 0 -6 0 
-5 0 -5 0 -6 0 -5 0 -5 0 -6 0 -5 0 -5 0 
-6 0 -5 0 -5 0 -6 0 -5 0 -5 0 -6 0 -5 0 
-5 0 -6 0 -5 0 -5 0 100 AP
-6 0 -5 0 -5 0 -6 0 -5 0 -5 0 -6 0 -5 0 
-5 0 -6 0 -5 0 -5 0 -6 0 -5 0 -5 0 -6 0 
-5 0 -5 0 -6 0 -5 0 -5 0 -6 0 -5 0 -5 0 
-6 0 -5 0 -5 0 -6 0 -5 0 -5 0 -6 0 -5 0 
-5 0 -6 0 -5 0 -5 0 -6 0 -5 0 -5 0 -6 0 
-5 0 -6 0 -5 0 -5 0 -6 0 -5 0 -5 0 -6 0 
-5 0 -5 0 -6 0 -5 0 -5 0 -6 0 -5 0 -5 0 
-6 0 -5 0 -5 0 -6 0 -5 0 -5 0 -6 0 -5 0 
-5 0 -6 0 -5 0 -5 0 -6 0 -5 0 -5 0 -6 0 
-5 0 -5 0 -6 0 -5 0 -5 0 -6 0 -5 0 -5 0 
-6 0 -5 0 -5 0 -6 0 -5 0 -6 0 -5 0 -5 0 
-6 0 -5 0 -5 0 -6 0 -5 0 -5 0 -6 0 -5 0 
-5 0 -6 0 -5 0 -5 0 100 AP
-5 0 -6 0 -5 0 -5 0 -6 0 -5 0 -5 0 -6 0 
-5 0 -6 0 -5 0 -5 0 -6 0 -5 0 -5 0 -6 0 
-5 0 -5 0 -6 0 -5 0 -5 0 -6 0 -5 0 -5 0 
-6 0 -5 0 -5 0 -6 0 -5 0 -5 0 -6 0 -5 0 
-5 0 -6 0 -5 0 -5 0 -6 0 -5 0 -5 0 -6 0 
-5 0 -5 0 -6 0 -5 0 -5 0 -6 0 -5 0 -5 0 
-6 0 -5 0 -5 0 -6 0 -5 0 -6 0 -5 0 -5 0 
-6 0 -5 0 -5 0 -6 0 -5 0 -5 0 -6 0 -5 0 
-5 0 -6 0 -5 0 -5 0 -6 0 -5 0 -5 0 -6 0 
-5 0 -5 0 -6 0 -5 0 -5 0 -6 0 -5 0 -5 0 
-6 0 -5 0 -5 0 -6 0 -5 0 -5 0 -6 0 -5 0 
-5 0 -6 0 -5 0 -5 0 -6 0 -5 0 -5 0 -6 0 
-5 0 -6 0 -5 0 -5 0 100 AP
-5 0 -6 0 -5 0 -5 0 -6 0 -5 0 -5 0 -6 0 
-5 0 -5 0 -6 0 -5 0 -5 0 -6 0 -5 0 -5 0 
-6 0 -5 0 -5 0 -6 0 -5 0 -5 0 -6 0 -5 0 
-6 0 -5 0 -5 0 -6 0 -5 0 -5 0 -6 0 -5 0 
-5 0 -6 0 -5 0 -5 0 -6 0 -5 0 -5 0 -6 0 
-5 0 -5 0 -6 0 -5 0 -5 0 -6 0 -5 0 -5 0 
-6 0 -5 0 -5 0 -6 0 -5 0 -5 0 -6 0 -5 0 
-5 0 -6 0 -5 0 -5 0 -6 0 -5 0 -5 0 -6 0 
-5 0 -5 0 -6 0 -5 0 -6 0 -5 0 -5 0 -6 0 
-5 0 -5 0 -6 0 -5 0 -5 0 -6 0 -5 0 -5 0 
-6 0 -5 0 -5 0 -6 0 -5 0 -5 0 -6 0 -5 0 
-5 0 -6 0 -5 0 -5 0 -6 0 -5 0 -5 0 -6 0 
-5 0 -5 0 -6 0 -5 0 100 AP
-5 0 -6 0 -5 0 -5 0 -6 0 -5 0 -5 0 -6 0 
-5 0 -5 0 -6 0 -5 0 -5 0 -6 0 -5 0 -5 0 
-6 0 -5 0 -5 0 -6 0 -5 0 -5 0 -6 0 -5 0 
-5 0 -6 0 -5 0 -5 0 -6 0 -5 0 -5 0 -6 0 
-5 0 -5 0 -6 0 -5 0 -6 0 -5 0 -5 0 -6 0 
-5 0 -5 0 -6 0 -5 0 -5 0 -6 0 -5 0 -5 0 
-6 0 -5 0 -5 0 -6 0 -5 0 -5 0 -6 0 -5 0 
-5 0 -6 0 -5 0 -5 0 -6 0 -5 0 -5 0 -6 0 
-5 0 -5 0 -6 0 -5 0 -5 0 -6 0 -5 0 -5 0 
-6 0 -5 0 -5 0 -6 0 -5 0 -5 0 -6 0 -5 0 
-6 0 -5 0 -5 0 -6 0 -5 0 -5 0 -6 0 -5 0 
-5 0 -6 0 -5 0 -5 0 -6 0 -5 0 -5 0 -6 0 
-5 0 -5 0 -6 0 -5 0 100 AP
-5 0 -5 0 -6 0 -5 0 -5 0 -6 0 -5 0 -6 0 
-5 0 -5 0 -6 0 -5 0 -5 0 -6 0 -5 0 -5 0 
-6 0 -5 0 -5 0 -6 0 -5 0 -5 0 -6 0 -5 0 
-5 0 -6 0 -5 0 -5 0 -6 0 -5 0 -5 0 -6 0 
-5 0 -5 0 -6 0 -5 0 -5 0 -6 0 -5 0 -5 0 
-6 0 -5 0 -5 0 -6 0 -5 0 -5 0 -6 0 -5 0 
-5 0 -6 0 -5 0 -6 0 -5 0 -5 0 -6 0 -5 0 
-5 0 -6 0 -5 0 -5 0 -6 0 -5 0 -5 0 -6 0 
-5 0 -5 0 -6 0 -5 0 -5 0 -6 0 -5 0 -5 0 
-6 0 -5 0 -5 0 -6 0 -5 0 -5 0 -6 0 -5 0 
-5 0 -6 0 -5 0 -5 0 -6 0 -5 0 -5 0 -6 0 
-5 0 -5 0 -6 0 -5 0 -5 0 -6 0 -5 0 -6 0 
-5 0 -5 0 -6 0 -5 0 100 AP
-5 0 -5 0 -6 0 -5 0 -5 0 -6 0 -5 0 -5 0 
-6 0 -5 0 -5 0 -6 0 -5 0 -5 0 -6 0 -5 0 
-5 0 -6 0 -5 0 -5 0 -6 0 -5 0 -6 0 -5 0 
-5 0 -6 0 -5 0 -5 0 -6 0 -5 0 -5 0 -6 0 
-5 0 -5 0 -6 0 -5 0 -5 0 -6 0 -5 0 -5 0 
-6 0 -5 0 -5 0 -6 0 -5 0 -5 0 -6 0 -5 0 
-5 0 -6 0 -5 0 -5 0 -6 0 -5 0 -5 0 -6 0 
-5 0 -5 0 -6 0 -5 0 -5 0 -6 0 -5 0 -6 0 
-5 0 -5 0 -6 0 -5 0 -5 0 -6 0 -5 0 -5 0 
-6 0 -5 0 -5 0 -6 0 -5 0 -5 0 -6 0 -5 0 
-5 0 -6 0 -5 0 -5 0 -6 0 -5 0 -5 0 -6 0 
-5 0 -5 0 -6 0 -5 0 -5 0 -6 0 -5 0 -5 0 
-6 0 -5 0 -5 0 -6 0 100 AP
-5 0 -6 0 -5 0 -5 0 -6 0 -5 0 -5 0 -6 0 
-5 0 -5 0 -6 0 -5 0 -5 0 -6 0 -5 0 -5 0 
-6 0 -5 0 -5 0 -6 0 -5 0 -5 0 -6 0 -5 0 
-5 0 -6 0 -5 0 -5 0 -6 0 -5 0 -5 0 -6 0 
-5 0 -6 0 -5 0 -5 0 -6 0 -5 0 -5 0 -6 0 
-5 0 -5 0 -6 0 -5 0 -5 0 -6 0 -5 0 -5 0 
-6 0 -5 0 -5 0 -6 0 -5 0 -5 0 -6 0 -5 0 
-5 0 -6 0 -5 0 -5 0 -6 0 -5 0 -5 0 -6 0 
-5 0 -5 0 -6 0 -5 0 -5 0 -6 0 -5 0 -5 0 
-6 0 -5 0 -5 0 -6 0 -5 0 -6 0 -5 0 -5 0 
-6 0 -5 0 -5 0 -6 0 -5 0 -5 0 -6 0 -5 0 
-5 0 -6 0 -5 0 -5 0 -6 0 -5 0 -5 0 -6 0 
-5 0 -5 0 -6 0 99 AP
PP
0 sg
0 0 -5 0 -6 0 -5 0 -5 0 -6 0 -5 0 -5 0 
-6 0 -5 0 -5 0 -6 0 -5 0 -5 0 -6 0 -5 0 
-5 0 -6 0 -5 0 -5 0 -6 0 -5 0 -5 0 -6 0 
-5 0 -5 0 -6 0 -5 0 -5 0 -6 0 -5 0 -5 0 
-6 0 -5 0 -6 0 -5 0 -5 0 -6 0 -5 0 -5 0 
-6 0 -5 0 -5 0 -6 0 -5 0 -5 0 -6 0 -5 0 
-5 0 -6 0 -5 0 -5 0 -6 0 -5 0 -5 0 -6 0 
-5 0 -5 0 -6 0 -5 0 -5 0 -6 0 -5 0 -5 0 
-6 0 -5 0 -5 0 -6 0 -5 0 -5 0 -6 0 -5 0 
-5 0 -6 0 -5 0 -5 0 -6 0 -5 0 -6 0 -5 0 
-5 0 -6 0 -5 0 -5 0 -6 0 -5 0 -5 0 -6 0 
-5 0 -5 0 -6 0 -5 0 -5 0 -6 0 -5 0 -5 0 
-6 0 -5 0 -5 0 -6 0 -5 0 -5 0 -6 0 -5 0 
-5 0 -6 0 -5 0 -5 0 -6 0 -5 0 -5 0 -6 0 
-5 0 -5 0 -6 0 -5 0 -5 0 -6 0 -5 0 -5 0 
-6 0 -5 0 -6 0 -5 0 -5 0 -6 0 -5 0 -5 0 
-6 0 -5 0 -5 0 -6 0 -5 0 -5 0 -6 0 -5 0 
-5 0 -6 0 -5 0 -5 0 -6 0 -5 0 -5 0 -6 0 
-5 0 -5 0 -6 0 -5 0 -5 0 -6 0 -5 0 -5 0 
-6 0 -5 0 -5 0 -6 0 -5 0 -5 0 -6 0 -5 0 
-5 0 -6 0 -5 0 -6 0 -5 0 -5 0 -6 0 -5 0 
-5 0 -6 0 -5 0 -5 0 -6 0 -5 0 -5 0 -6 0 
-5 0 -5 0 -6 0 -5 0 -5 0 -6 0 -5 0 -5 0 
-6 0 -5 0 -5 0 -6 0 -5 0 -5 0 -6 0 -5 0 
-5 0 -6 0 -5 0 -5 0 -6 0 -5 0 -5 0 -6 0 
-5 0 -5 0 -6 0 -5 0 -5 0 -6 0 -5 0 -6 0 
-5 0 -5 0 -6 0 -5 0 -5 0 -6 0 -5 0 -5 0 
-6 0 -5 0 -5 0 -6 0 -5 0 -5 0 -6 0 -5 0 
-5 0 -6 0 -5 0 -5 0 -6 0 -5 0 -5 0 -6 0 
-5 0 -5 0 -6 0 -5 0 -5 0 -6 0 -5 0 -5 0 
-6 0 -5 0 -5 0 -6 0 -5 0 -5 0 -6 0 -5 0 
-5 0 -6 0 -5 0 -6 0 -5 0 -5 0 -6 0 -5 0 
-5 0 -6 0 -5 0 -5 0 -6 0 -5 0 -5 0 -6 0 
-5 0 -5 0 -6 0 -5 0 -5 0 -6 0 -5 0 -5 0 
-6 0 -5 0 -5 0 -6 0 -5 0 -5 0 -6 0 -5 0 
-5 0 -6 0 -5 0 -5 0 -6 0 -5 0 -5 0 -6 0 
-5 0 -5 0 -6 0 -5 0 -5 0 -6 0 -5 0 -6 0 
-5 0 -5 0 -6 0 -2510 1574 300 MP stroke
-5 0 -5 0 -6 0 -5 0 -5 0 -6 0 -5 0 -5 0 
-6 0 -5 0 -5 0 -6 0 -5 0 -5 0 -6 0 -5 0 
-5 0 -6 0 -5 0 -5 0 -6 0 -5 0 -5 0 -6 0 
-5 0 -5 0 -6 0 -5 0 -5 0 -6 0 -5 0 -5 0 
-6 0 -5 0 -5 0 -6 0 -5 0 -6 0 -5 0 -5 0 
-6 0 -5 0 -5 0 -6 0 -5 0 -5 0 -6 0 -5 0 
-5 0 -6 0 -5 0 -5 0 -6 0 -5 0 -5 0 -6 0 
-5 0 -5 0 -6 0 -5 0 -5 0 -6 0 -5 0 -5 0 
-6 0 -5 0 -5 0 -6 0 -5 0 -5 0 -6 0 -5 0 
-5 0 -6 0 -5 0 -5 0 -6 0 -5 0 -5 0 -6 0 
-5 0 -6 0 -5 0 -5 0 -6 0 -5 0 -5 0 -6 0 
-5 0 -5 0 -6 0 -5 0 -5 0 -6 0 -5 0 -5 0 
-6 0 -5 0 -5 0 -6 0 -5 0 -5 0 -6 0 -5 0 
-5 0 -6 0 -5 0 -5 0 -6 0 -5 0 -5 0 -6 0 
-5 0 -5 0 -6 0 -5 0 -5 0 -6 0 -5 0 -5 0 
-6 0 -5 0 -5 0 -6 0 -5 0 -6 0 -5 0 -5 0 
-6 0 -5 0 -5 0 -6 0 -5 0 -5 0 -6 0 -5 0 
-5 0 -6 0 -5 0 -5 0 -6 0 -5 0 -5 0 -6 0 
-5 0 -5 0 -6 0 -5 0 -5 0 -6 0 -5 0 -5 0 
-6 0 -5 0 -5 0 -6 0 -5 0 -5 0 -6 0 -5 0 
-5 0 -6 0 -5 0 -5 0 -6 0 -5 0 -5 0 -6 0 
-5 0 -6 0 -5 0 -5 0 -6 0 -5 0 -5 0 -6 0 
-5 0 -5 0 -6 0 -5 0 -5 0 -6 0 -5 0 -5 0 
-6 0 -5 0 -5 0 -6 0 -5 0 -5 0 -6 0 -5 0 
-5 0 -6 0 -5 0 -5 0 -6 0 -5 0 -5 0 -6 0 
-5 0 -5 0 -6 0 -5 0 -5 0 -6 0 -5 0 -5 0 
-6 0 -5 0 -6 0 -5 0 -5 0 -6 0 -5 0 -5 0 
-6 0 -5 0 -5 0 -6 0 -5 0 -5 0 -6 0 -5 0 
-5 0 -6 0 -5 0 -5 0 -6 0 -5 0 -5 0 -6 0 
-5 0 -5 0 -6 0 -5 0 -5 0 -6 0 -5 0 -5 0 
-6 0 -5 0 -5 0 -6 0 -5 0 -5 0 -6 0 -5 0 
-5 0 -6 0 -5 0 -5 0 -6 0 -5 0 -6 0 -5 0 
-5 0 -6 0 -5 0 -5 0 -6 0 -5 0 -5 0 -6 0 
-5 0 -5 0 -6 0 -5 0 -5 0 -6 0 -5 0 -5 0 
-6 0 -5 0 -5 0 -6 0 -5 0 -5 0 -6 0 -5 0 
-5 0 -6 0 -5 0 -5 0 -6 0 -5 0 -5 0 -6 0 
-5 0 -5 0 -6 0 -5 0 -5 0 -6 0 -5 0 -5 0 
-6 0 -5 0 -6 0 -913 1574 300 MP stroke
-5 0 -5 0 -6 0 -5 0 -5 0 -6 0 -5 0 -5 0 
-6 0 -5 0 -5 0 -6 0 -5 0 -5 0 -6 0 -5 0 
-5 0 -6 0 -5 0 -5 0 -6 0 -5 0 -5 0 -6 0 
-5 0 -5 0 -6 0 -5 0 -5 0 -6 0 -5 0 -5 0 
-6 0 -5 0 -5 0 -6 0 -5 0 -5 0 -6 0 -5 0 
-5 0 -6 0 -5 0 -6 0 -5 0 -5 0 -6 0 -5 0 
-5 0 -6 0 -5 0 -5 0 -6 0 -5 0 -5 0 -6 0 
-5 0 -5 0 -6 0 -5 0 -5 0 -6 0 -5 0 -5 0 
-6 0 -5 0 -5 0 -6 0 -5 0 -5 0 -6 0 -5 0 
-5 0 -6 0 -5 0 -5 0 -6 0 -5 0 -5 0 -6 0 
-5 0 -5 0 -6 0 -5 0 -5 0 -6 0 -5 0 -6 0 
-5 0 -5 0 -6 0 -5 0 -5 0 -6 0 -5 0 -5 0 
-6 0 -5 0 -5 0 -6 0 -5 0 -5 0 -6 0 -5 0 
-5 0 -6 0 -5 0 -5 0 -6 0 -5 0 -5 0 -6 0 
-5 0 -5 0 -6 0 -5 0 -5 0 -6 0 -5 0 -5 0 
-6 0 -5 0 -5 0 -6 0 -5 0 -5 0 -6 0 -5 0 
-6 0 -5 0 -5 0 -6 0 -5 0 -5 0 -6 0 -5 0 
-5 0 -6 0 -5 0 -5 0 -6 0 -5 0 -5 0 -6 0 
-5 0 -5 0 -6 0 -5 0 -5 0 -6 0 -5 0 -5 0 
-6 0 -5 0 -5 0 -6 0 -5 0 -5 0 -6 0 -5 0 
-5 0 -6 0 -5 0 -5 0 -6 0 -5 0 -5 0 -6 0 
-5 0 -5 0 -6 0 -4 0 -6 0 -5 0 -5 0 -6 0 
-5 0 -5 0 -6 0 -5 0 -5 0 -6 0 -5 0 -5 0 
-6 0 -5 0 -5 0 -6 0 -5 0 -5 0 -6 0 -5 0 
-5 0 -6 0 -5 0 -5 0 -6 0 -5 0 -5 0 -6 0 
-5 0 -5 0 -6 0 -5 0 -5 0 -6 0 -5 0 -5 0 
-6 0 -5 0 -5 0 -6 0 -5 0 -5 0 -6 0 -5 0 
-6 0 -5 0 -5 0 -6 0 -5 0 -5 0 -6 0 -5 0 
-5 0 -6 0 -5 0 -5 0 -6 0 -5 0 -5 0 -6 0 
-5 0 -5 0 -6 0 -5 0 -5 0 -6 0 -5 0 -5 0 
-6 0 -5 0 -5 0 -6 0 -5 0 -5 0 -6 0 -5 0 
-5 0 -6 0 -5 0 -5 0 -6 0 -5 0 -5 0 -6 0 
-5 0 -5 0 -6 0 -5 0 -6 0 -5 0 -5 0 -6 0 
-5 0 -5 0 -6 0 -5 0 -5 0 -6 0 -5 0 -5 0 
-6 0 -5 0 -5 0 -6 0 -5 0 -5 0 -6 0 -5 0 
-5 0 -6 0 -5 0 -5 0 -6 0 -5 0 -5 0 -6 0 
-5 0 -5 0 -6 0 -5 0 -5 0 -6 0 -5 0 -5 0 
-6 0 -5 0 -5 0 682 1574 300 MP stroke
-6 0 -5 0 -6 0 -5 0 -5 0 -6 0 -5 0 -5 0 
-6 0 -5 0 -5 0 -6 0 -5 0 -5 0 -6 0 -5 0 
-5 0 -6 0 -5 0 -5 0 -6 0 -5 0 -5 0 -6 0 
-5 0 -5 0 -6 0 -5 0 -5 0 -6 0 -5 0 -5 0 
-6 0 -5 0 -5 0 -6 0 -5 0 -5 0 -6 0 -5 0 
-5 0 -6 0 -5 0 -5 0 -6 0 -5 0 -6 0 -5 0 
-5 0 -6 0 -5 0 -5 0 -6 0 -5 0 -5 0 -6 0 
-5 0 -5 0 -6 0 -5 0 -5 0 -6 0 -5 0 -5 0 
-6 0 -5 0 -5 0 -6 0 -5 0 -5 0 -6 0 -5 0 
-5 0 -6 0 -5 0 -5 0 -6 0 -5 0 -5 0 -6 0 
-5 0 -5 0 -6 0 -5 0 -5 0 -6 0 -5 0 -5 0 
-6 0 -5 0 -6 0 -5 0 -5 0 -6 0 -5 0 -5 0 
-6 0 -5 0 -5 0 -6 0 -5 0 -5 0 -6 0 -5 0 
-5 0 -6 0 -5 0 -5 0 -6 0 -5 0 -5 0 -6 0 
-5 0 -5 0 -6 0 -5 0 -5 0 -6 0 -5 0 -5 0 
-6 0 -5 0 -5 0 -6 0 -5 0 -5 0 -6 0 -5 0 
-5 0 -6 0 -5 0 -5 0 -6 0 -5 0 -6 0 -5 0 
-5 0 -6 0 -5 0 -5 0 -6 0 -5 0 -5 0 -6 0 
-5 0 -5 0 -6 0 -5 0 -5 0 -6 0 -5 0 -5 0 
-6 0 -5 0 -5 0 -6 0 -5 0 -5 0 -6 0 -5 0 
-5 0 -6 0 -5 0 -5 0 -6 0 -5 0 -5 0 -6 0 
-5 0 -5 0 -6 0 -5 0 -5 0 -6 0 -5 0 -5 0 
-6 0 -5 0 -6 0 -5 0 -5 0 -6 0 -5 0 -5 0 
-6 0 -5 0 -5 0 -6 0 -5 0 -5 0 -6 0 -5 0 
-5 0 -6 0 -5 0 -5 0 -6 0 -5 0 -5 0 -6 0 
-5 0 -5 0 -6 0 -5 0 -5 0 -6 0 -5 0 -5 0 
-6 0 -5 0 -5 0 -6 0 -5 0 -5 0 -6 0 -5 0 
-5 0 -6 0 -5 0 -6 0 -5 0 -5 0 -6 0 -5 0 
-5 0 -6 0 -5 0 -5 0 -6 0 -5 0 -5 0 -6 0 
-5 0 -5 0 -6 0 -5 0 -5 0 -6 0 -5 0 -5 0 
-6 0 -5 0 -5 0 -6 0 -5 0 -5 0 -6 0 -5 0 
-5 0 -6 0 -5 0 -5 0 -6 0 -5 0 -5 0 -6 0 
-5 0 -5 0 -6 0 -5 0 -5 0 -6 0 -5 0 -6 0 
-5 0 -5 0 -6 0 -5 0 -5 0 -6 0 -5 0 -5 0 
-6 0 -5 0 -5 0 -6 0 -5 0 -5 0 -6 0 -5 0 
-5 0 -6 0 -5 0 -5 0 -6 0 -5 0 -5 0 -6 0 
-5 0 -5 0 -6 0 -5 0 -5 0 -6 0 -5 0 -5 0 
-6 0 -5 0 -5 0 2279 1574 300 MP stroke
-6 0 -5 0 -5 0 -6 0 -5 0 -5 0 -6 0 -5 0 
-6 0 -5 0 -5 0 -6 0 -5 0 -5 0 -6 0 -5 0 
-5 0 -6 0 -5 0 -5 0 -6 0 -5 0 -5 0 -6 0 
-5 0 -5 0 -6 0 -5 0 -5 0 -6 0 -5 0 -5 0 
-6 0 -5 0 -5 0 -6 0 -5 0 -5 0 -6 0 -5 0 
-5 0 -6 0 -5 0 -5 0 -6 0 -5 0 -5 0 -6 0 
-5 0 -5 0 -6 0 -5 0 -6 0 -5 0 -5 0 -6 0 
-5 0 -5 0 -6 0 -5 0 -5 0 -6 0 -5 0 -5 0 
-6 0 -5 0 -5 0 -6 0 -5 0 -5 0 -6 0 -5 0 
-5 0 -6 0 -5 0 -5 0 -6 0 -5 0 -5 0 -6 0 
-5 0 -5 0 -6 0 -5 0 -5 0 -6 0 -5 0 -5 0 
-6 0 -5 0 -5 0 -6 0 -5 0 -6 0 -5 0 -5 0 
-6 0 -5 0 -5 0 -6 0 -5 0 -5 0 -6 0 -5 0 
-5 0 -6 0 -5 0 -5 0 -6 0 -5 0 -5 0 -6 0 
-5 0 -5 0 -6 0 -5 0 -5 0 -6 0 -5 0 -5 0 
-6 0 -5 0 -5 0 -6 0 -5 0 -5 0 -6 0 -5 0 
-5 0 -6 0 -5 0 -5 0 -6 0 -5 0 -5 0 -6 0 
-5 0 -6 0 -5 0 -5 0 -6 0 -5 0 -5 0 -6 0 
-5 0 -5 0 -6 0 -5 0 -5 0 -6 0 -5 0 -5 0 
-6 0 -5 0 -5 0 -6 0 -5 0 -5 0 -6 0 -5 0 
-5 0 -6 0 -5 0 -5 0 -6 0 -5 0 -5 0 -6 0 
-5 0 -5 0 -6 0 -5 0 -5 0 -6 0 -5 0 -5 0 
-6 0 -5 0 -5 0 -6 0 -5 0 -6 0 -5 0 -5 0 
-6 0 -5 0 -5 0 -6 0 -5 0 -5 0 -6 0 -5 0 
-5 0 -6 0 -5 0 -5 0 -6 0 -5 0 -5 0 -6 0 
-5 0 -5 0 -6 0 -5 0 -5 0 -6 0 -5 0 -5 0 
-6 0 -5 0 -5 0 -6 0 -5 0 -5 0 -6 0 -5 0 
-5 0 -6 0 -5 0 -5 0 -6 0 -5 0 -5 0 -6 0 
-5 0 -6 0 -5 0 -5 0 -6 0 -5 0 -5 0 -6 0 
-5 0 -5 0 -6 0 -5 0 -5 0 -6 0 -5 0 -5 0 
-6 0 -5 0 -5 0 -6 0 -5 0 -5 0 -6 0 -5 0 
-5 0 -6 0 -5 0 -5 0 -6 0 -5 0 -5 0 -6 0 
-5 0 -5 0 -6 0 -5 0 -5 0 -6 0 -5 0 -5 0 
-6 0 -5 0 -5 0 -6 0 -5 0 -6 0 -5 0 -5 0 
-6 0 -5 0 -5 0 -6 0 -5 0 -5 0 -6 0 -5 0 
-5 0 -6 0 -5 0 -5 0 -6 0 -5 0 -5 0 -6 0 
-5 0 -5 0 -6 0 -5 0 -5 0 -6 0 -5 0 -5 0 
-6 0 -5 0 -5 0 3876 1574 300 MP stroke
-6 0 -5 0 -5 0 -6 0 -5 0 -5 0 -6 0 -5 0 
-5 0 -6 0 -5 0 -6 0 -5 0 -5 0 -6 0 -5 0 
-5 0 -6 0 -5 0 -5 0 -6 0 -5 0 -5 0 -6 0 
-5 0 -5 0 -6 0 -5 0 -5 0 -6 0 -5 0 -5 0 
-6 0 -5 0 -5 0 -6 0 -5 0 -5 0 -6 0 -5 0 
-5 0 -6 0 -5 0 -5 0 -6 0 -5 0 -5 0 -6 0 
-5 0 -5 0 -6 0 -5 0 -5 0 -6 0 -5 0 -6 0 
-5 0 -5 0 -6 0 -5 0 -5 0 -6 0 -5 0 -5 0 
-6 0 -5 0 -5 0 -6 0 -5 0 -5 0 -6 0 -5 0 
-5 0 -6 0 -5 0 -5 0 -6 0 -5 0 -5 0 -6 0 
-5 0 -5 0 -6 0 -5 0 -5 0 -6 0 -5 0 -5 0 
-6 0 -5 0 -5 0 -6 0 -5 0 -5 0 -6 0 -5 0 
-5 0 -6 0 -5 0 -6 0 -5 0 -5 0 -6 0 -5 0 
-5 0 -6 0 -5 0 -5 0 -6 0 -5 0 -5 0 -6 0 
-5 0 -5 0 -6 0 -5 0 -5 0 -6 0 -5 0 -5 0 
-6 0 -5 0 -5 0 -6 0 -5 0 -5 0 -6 0 -5 0 
-5 0 -6 0 -5 0 -5 0 -6 0 -5 0 -5 0 -6 0 
-5 0 -5 0 -6 0 -5 0 -5 0 -6 0 -5 0 -6 0 
-5 0 -5 0 -6 0 -5 0 -5 0 -6 0 -5 0 -5 0 
-6 0 -5 0 -5 0 -6 0 -5 0 -5 0 -6 0 -5 0 
-5 0 -6 0 -5 0 -5 0 -6 0 -5 0 -5 0 -6 0 
-5 0 -5 0 -6 0 -5 0 -5 0 -6 0 -5 0 -5 0 
-6 0 -5 0 -5 0 -6 0 -5 0 -5 0 -6 0 -5 0 
-5 0 -6 0 -5 0 -6 0 -5 0 -5 0 -6 0 -5 0 
-5 0 -6 0 -5 0 -5 0 -6 0 -5 0 -5 0 -6 0 
-5 0 -5 0 -6 0 -5 0 -5 0 -6 0 -5 0 -5 0 
-6 0 -5 0 -5 0 -6 0 -5 0 -5 0 -6 0 -5 0 
-5 0 -6 0 -5 0 -5 0 -6 0 -5 0 -5 0 -6 0 
-5 0 -5 0 -6 0 -5 0 -6 0 -5 0 -5 0 -6 0 
-5 0 -5 0 -6 0 -5 0 -5 0 -6 0 -5 0 -5 0 
-6 0 -5 0 -5 0 -6 0 -5 0 -5 0 -6 0 -5 0 
-5 0 -6 0 -5 0 -5 0 -6 0 -5 0 -5 0 -6 0 
-5 0 -5 0 -6 0 -5 0 -5 0 -6 0 -5 0 -5 0 
-6 0 -5 0 -5 0 -6 0 -5 0 -5 0 -6 0 -5 0 
-6 0 -5 0 -5 0 -6 0 -5 0 -5 0 -6 0 -5 0 
-5 0 -6 0 -5 0 -5 0 -6 0 -5 0 -5 0 -6 0 
-5 0 -5 0 -6 0 -5 0 -5 0 -6 0 -5 0 -5 0 
-6 0 -5 0 -5 0 5473 1574 300 MP stroke
-6 0 -5 0 -5 0 -6 0 -5 0 -5 0 -6 0 -5 0 
-5 0 -6 0 -5 0 -5 0 -6 0 -5 0 -5 0 -6 0 
-5 0 -6 0 -5 0 -5 0 -6 0 -5 0 -5 0 -6 0 
-5 0 -5 0 -6 0 -5 0 -5 0 -6 0 -5 0 -5 0 
-6 0 -5 0 -5 0 -6 0 -5 0 -5 0 -6 0 -5 0 
-5 0 -6 0 -5 0 -5 0 -6 0 -5 0 -5 0 -6 0 
-5 0 -5 0 -6 0 -5 0 -5 0 -6 0 -5 0 -5 0 
-6 0 -5 0 -5 0 -6 0 -5 0 -6 0 -5 0 -5 0 
-6 0 -5 0 -5 0 -6 0 -5 0 -5 0 -6 0 -5 0 
-5 0 -6 0 -5 0 -5 0 -6 0 -5 0 -5 0 -6 0 
-5 0 -5 0 -6 0 -5 0 -5 0 -6 0 -5 0 -5 0 
-6 0 -5 0 -5 0 -6 0 -5 0 -5 0 -6 0 -5 0 
-5 0 -6 0 -5 0 -5 0 -6 0 -5 0 -6 0 -5 0 
-5 0 -6 0 -5 0 -5 0 -6 0 -5 0 -5 0 -6 0 
-5 0 -5 0 -6 0 -5 0 -5 0 -6 0 -5 0 -5 0 
-6 0 -5 0 -5 0 -6 0 -5 0 -5 0 -6 0 -5 0 
-5 0 -6 0 -5 0 -5 0 -6 0 -5 0 -5 0 -6 0 
-5 0 -5 0 -6 0 -5 0 -5 0 -6 0 -5 0 -5 0 
-6 0 -5 0 -6 0 -5 0 -5 0 -6 0 -5 0 -5 0 
-6 0 -5 0 -5 0 -6 0 -5 0 -5 0 -6 0 -5 0 
-5 0 -6 0 -5 0 -5 0 -6 0 -5 0 -5 0 -6 0 
-5 0 -5 0 -6 0 -5 0 -5 0 -6 0 -5 0 -5 0 
-6 0 -5 0 -5 0 -6 0 -5 0 -5 0 -6 0 -5 0 
-5 0 -6 0 -5 0 -5 0 -6 0 -5 0 -6 0 -5 0 
-5 0 -6 0 -5 0 -5 0 -6 0 -5 0 -5 0 -6 0 
-5 0 -5 0 -6 0 -5 0 -5 0 0 0 5 0 5 0 
6 0 5 0 5 0 6 0 5 0 5 0 6 0 5 0 
5 0 6 0 5 0 5 0 6 0 5 0 6 0 5 0 
5 0 6 0 5 0 5 0 6 0 5 0 5 0 6 0 
5 0 5 0 6 0 5 0 5 0 6 0 5 0 5 0 
6 0 5 0 5 0 6 0 5 0 5 0 6 0 5 0 
5 0 6 0 5 0 5 0 6 0 5 0 5 0 6 0 
5 0 5 0 6 0 5 0 5 0 6 0 5 0 5 0 
6 0 5 0 6 0 5 0 5 0 6 0 5 0 5 0 
6 0 5 0 5 0 6 0 5 0 5 0 6 0 5 0 
5 0 6 0 5 0 5 0 6 0 5 0 5 0 6 0 
5 0 5 0 6 0 5 0 5 0 6 0 5 0 5 0 
6 0 5 0 5 0 6072 1574 300 MP stroke
6 0 5 0 5 0 6 0 5 0 5 0 6 0 5 0 
5 0 6 0 5 0 6 0 5 0 5 0 6 0 5 0 
5 0 6 0 5 0 5 0 6 0 5 0 5 0 6 0 
5 0 5 0 6 0 5 0 5 0 6 0 5 0 5 0 
6 0 5 0 5 0 6 0 5 0 5 0 6 0 5 0 
5 0 6 0 5 0 5 0 6 0 5 0 5 0 6 0 
5 0 5 0 6 0 5 0 6 0 5 0 5 0 6 0 
5 0 5 0 6 0 5 0 5 0 6 0 5 0 5 0 
6 0 5 0 5 0 6 0 5 0 5 0 6 0 5 0 
5 0 6 0 5 0 5 0 6 0 5 0 5 0 6 0 
5 0 5 0 6 0 5 0 5 0 6 0 5 0 5 0 
6 0 5 0 5 0 6 0 5 0 5 0 6 0 5 0 
6 0 5 0 5 0 6 0 5 0 5 0 6 0 5 0 
5 0 6 0 5 0 5 941 6 0 5 0 5 -941 6 0 
5 0 5 0 6 0 5 0 5 0 6 0 5 0 5 0 
6 0 5 0 5 0 6 0 5 0 5 0 6 0 5 0 
5 0 6 0 5 0 5 0 6 0 5 0 5 0 6 0 
5 0 5 0 6 0 5 0 6 0 5 0 5 0 6 0 
5 0 5 0 6 0 5 0 5 0 6 0 5 0 5 0 
6 0 5 0 5 0 6 0 5 0 5 0 6 0 5 0 
5 0 6 0 5 0 5 0 6 0 5 0 5 0 6 0 
5 0 5 0 6 0 5 0 5 0 6 0 5 0 5 0 
6 0 5 0 5 0 6 0 5 0 5 0 6 0 5 0 
6 0 5 0 5 0 6 0 5 0 5 0 6 0 5 0 
5 0 6 0 5 0 5 0 6 0 5 0 5 0 6 0 
5 0 5 0 6 0 5 0 5 0 6 0 5 0 5 0 
6 0 5 0 5 0 6 0 5 0 5 0 6 0 5 0 
5 0 6 0 5 0 5 0 6 0 5 0 5 0 6 0 
5 0 6 0 5 0 5 0 6 0 5 0 5 0 6 0 
5 0 5 0 6 0 5 0 5 0 6 0 5 0 5 0 
6 0 5 0 5 0 6 0 5 941 5 -941 6 0 5 0 
5 0 6 0 5 0 5 0 6 0 5 0 5 0 6 0 
5 0 5 0 6 0 5 0 5 0 6 0 5 0 5 0 
6 0 5 0 5 0 6 0 5 0 6 0 5 0 5 0 
6 0 5 0 5 0 6 0 5 0 5 0 6 0 5 0 
5 0 6 0 5 0 5 0 6 0 5 0 5 0 6 0 
5 0 5 0 6 0 5 0 5 0 6 0 5 0 5 0 
6 0 5 0 5 0 4475 1574 300 MP stroke
6 0 5 0 5 0 6 0 5 0 5 0 6 0 5 0 
5 0 6 0 5 0 5 0 6 0 5 0 6 0 5 0 
5 0 6 0 5 0 5 0 6 0 5 0 5 0 6 0 
5 0 5 0 6 0 5 0 5 0 6 0 5 0 5 0 
6 0 5 0 5 0 6 0 5 0 5 0 6 0 5 0 
5 0 6 0 5 0 5 0 6 0 5 0 5 0 6 0 
5 0 5 0 6 0 5 0 5 0 6 0 5 0 5 0 
6 0 5 0 6 0 5 0 5 0 6 0 5 0 5 0 
6 0 5 0 5 0 6 0 5 0 5 0 6 0 5 0 
5 0 6 0 5 0 5 0 6 0 5 0 5 0 6 0 
5 0 5 0 6 941 5 -941 5 941 6 0 5 -941 5 0 
6 0 5 0 5 0 6 0 5 0 5 0 6 0 5 0 
5 0 6 0 5 0 5 941 6 0 5 -941 6 0 5 0 
5 0 6 0 5 0 5 0 6 0 5 0 5 0 6 0 
5 0 5 0 6 0 5 0 5 0 6 0 5 0 5 0 
6 0 5 0 5 0 6 0 5 0 5 0 6 0 5 0 
5 0 6 0 5 0 5 0 6 0 5 0 5 0 6 0 
5 0 5 0 6 0 5 0 5 0 6 0 5 0 6 0 
5 0 5 0 6 0 5 0 5 0 6 0 5 0 5 0 
6 0 5 0 5 0 6 0 5 0 5 0 6 0 5 0 
5 0 6 0 5 0 5 0 6 0 5 0 5 0 6 0 
5 0 5 0 6 0 5 0 5 0 6 0 5 0 5 0 
6 0 5 0 5 0 6 0 5 0 5 0 6 0 5 0 
5 0 6 0 5 0 6 0 5 0 5 0 6 0 5 0 
5 0 6 0 5 0 5 0 6 0 5 0 5 0 6 0 
5 0 5 0 6 0 5 0 5 0 6 0 5 0 5 0 
6 0 5 0 5 0 6 0 5 0 5 0 6 0 5 0 
5 0 6 0 5 0 5 0 6 0 5 0 5 0 6 0 
5 0 5 0 6 0 5 0 5 0 6 0 5 0 6 0 
5 0 5 0 6 0 5 0 5 0 6 0 5 0 5 0 
6 0 5 0 5 0 6 0 5 0 5 0 6 0 5 0 
5 0 6 0 5 0 5 0 6 0 5 0 5 0 6 0 
5 0 5 0 6 0 5 0 5 0 6 0 5 0 5 0 
6 0 5 0 5 0 6 0 5 0 5 0 6 0 5 0 
5 0 6 0 5 0 6 0 5 0 5 0 6 0 5 0 
5 0 6 0 5 0 5 0 6 0 5 0 5 0 6 0 
5 0 5 0 6 0 5 0 5 0 6 0 5 0 5 0 
6 0 5 0 5 0 2878 1574 300 MP stroke
6 0 5 0 5 0 6 0 5 0 5 0 6 0 5 0 
5 0 6 0 5 0 5 0 6 0 5 0 5 0 6 0 
5 0 5 0 6 0 5 0 6 0 5 0 5 0 6 0 
5 0 5 0 6 0 5 0 5 0 6 0 5 0 5 0 
6 0 5 0 5 0 6 0 5 0 5 0 6 0 5 0 
5 0 6 0 5 0 5 0 6 0 5 0 5 0 6 0 
5 0 5 0 6 0 5 0 5 0 6 0 5 0 5 0 
6 0 5 0 5 0 6 0 5 0 6 0 5 0 5 0 
6 0 5 0 5 0 6 0 5 0 5 0 6 0 5 0 
5 0 6 0 5 0 5 0 6 0 5 0 5 0 6 0 
5 0 5 0 6 0 5 0 5 0 6 0 5 0 5 0 
6 0 5 0 5 0 6 0 5 0 5 0 6 0 5 0 
5 0 6 0 5 0 5 0 6 0 5 0 5 0 6 0 
5 0 6 0 5 0 5 0 6 0 5 0 5 0 6 0 
5 0 5 0 6 0 5 0 5 0 6 0 5 0 5 0 
6 0 5 0 5 0 6 0 5 0 5 0 6 0 5 0 
5 0 6 0 5 0 5 0 6 0 5 0 5 0 6 0 
5 0 5 0 6 0 5 0 5 0 6 0 5 0 5 0 
6 0 5 0 5 0 6 0 5 0 6 0 5 0 5 0 
6 0 5 0 5 0 6 0 5 0 5 0 6 0 5 0 
5 0 6 0 5 0 5 0 6 0 5 0 5 0 6 0 
5 0 5 0 6 0 5 0 5 0 6 0 5 0 5 0 
6 0 5 0 5 0 6 0 5 0 5 0 6 0 5 0 
5 0 6 0 5 0 5 0 6 0 5 0 5 0 6 0 
5 0 6 0 5 0 5 0 6 0 5 0 5 0 6 0 
5 0 5 0 6 0 5 0 5 0 6 0 5 0 5 941 
6 0 5 -941 5 0 6 0 5 0 5 0 6 0 5 0 
5 0 6 0 5 0 5 0 6 0 5 0 5 0 6 0 
5 0 5 0 6 0 5 0 5 0 6 0 5 0 5 0 
6 0 5 0 6 0 5 0 5 0 6 0 5 0 5 0 
6 0 5 0 5 0 6 0 5 0 5 0 6 0 5 0 
5 0 6 0 5 0 5 0 6 0 5 0 5 0 6 0 
5 0 5 0 6 0 5 0 5 0 6 0 5 0 5 0 
6 0 5 0 5 0 6 0 5 0 5 0 6 0 5 0 
5 0 6 0 5 0 5 0 6 0 5 0 6 0 5 0 
5 0 6 0 5 0 5 0 6 0 5 0 5 0 6 0 
5 0 5 0 6 0 5 0 5 0 6 0 5 0 5 0 
6 0 5 0 5 0 1281 1574 300 MP stroke
6 0 5 0 5 0 6 0 5 0 5 0 6 0 5 0 
5 0 6 0 5 0 5 0 6 0 5 0 5 0 6 0 
5 0 5 0 6 0 5 0 5 0 6 0 5 0 6 0 
5 0 5 0 6 0 5 0 5 0 6 941 5 0 5 0 
6 0 5 0 5 0 6 0 5 0 5 0 6 0 5 0 
5 0 6 0 5 0 5 0 6 0 5 0 5 0 6 -941 
5 0 5 0 6 941 5 0 5 0 6 0 5 0 5 0 
6 0 5 -941 5 0 6 0 5 0 5 0 6 0 5 0 
5 0 6 0 5 0 6 0 5 0 5 0 6 0 5 0 
5 0 6 0 5 0 5 0 6 0 5 0 5 0 6 0 
5 0 5 0 6 0 5 0 5 0 6 0 5 0 5 0 
6 0 5 0 5 0 6 0 5 0 5 0 6 0 5 0 
5 0 6 0 5 0 5 0 6 0 5 0 5 0 6 0 
5 0 5 0 6 0 5 0 5 0 6 0 5 0 6 0 
5 0 5 0 6 0 5 0 5 0 6 0 5 0 5 0 
6 0 5 0 5 0 6 0 5 0 5 0 6 0 5 0 
5 0 6 0 5 0 5 0 6 0 5 0 5 0 6 0 
5 0 5 0 6 0 5 0 5 0 6 0 5 0 5 0 
6 0 5 0 5 0 6 0 5 0 5 0 6 0 5 0 
6 0 5 0 5 0 6 0 5 0 5 0 6 0 5 0 
5 0 6 0 5 0 5 0 6 0 5 0 5 0 6 0 
5 0 5 0 6 0 5 0 5 0 6 0 5 0 5 0 
6 0 5 0 5 0 6 0 5 0 5 0 6 0 5 0 
5 0 6 0 5 0 5 0 6 0 5 0 5 0 6 0 
5 0 5 0 6 0 5 0 6 0 5 0 5 0 6 0 
5 0 5 0 6 0 5 0 5 0 6 0 5 0 5 0 
6 0 5 0 5 0 6 0 5 0 5 0 6 0 5 0 
5 0 6 0 5 0 5 0 6 0 5 0 5 0 6 0 
5 0 5 0 6 0 5 0 5 0 6 0 5 0 5 0 
6 0 5 0 5 0 6 0 5 0 5 0 6 0 4 0 
6 0 5 0 5 0 6 0 5 0 5 0 6 0 5 0 
5 0 6 0 5 0 5 0 6 0 5 0 5 0 6 0 
5 0 5 0 6 0 5 0 5 0 6 0 5 0 5 0 
6 0 5 0 5 0 6 0 5 0 5 0 6 0 5 0 
5 0 6 0 5 0 5 0 6 0 5 0 5 0 6 0 
5 0 5 0 6 0 5 0 6 0 5 0 5 0 6 0 
5 0 5 0 6 0 5 0 5 0 6 0 5 0 5 0 
6 0 5 0 5 0 -315 1574 300 MP stroke
6 0 5 0 5 0 6 0 5 0 5 0 6 0 5 0 
5 0 6 0 5 0 5 941 6 -941 5 0 5 0 6 0 
5 941 5 0 6 -941 5 0 5 0 6 0 5 0 5 0 
6 0 5 0 6 0 5 0 5 0 6 0 5 0 5 0 
6 0 5 0 5 0 6 0 5 0 5 0 6 0 5 0 
5 0 6 0 5 0 5 0 6 0 5 0 5 0 6 0 
5 0 5 0 6 0 5 0 5 0 6 0 5 0 5 0 
6 0 5 0 5 0 6 0 5 0 5 0 6 0 5 0 
5 0 6 0 5 0 5 0 6 941 5 0 6 0 5 -941 
5 0 6 0 5 0 5 0 6 0 5 0 5 0 6 0 
5 0 5 0 6 0 5 0 5 0 6 0 5 0 5 0 
6 0 5 0 5 0 6 0 5 0 5 0 6 0 5 0 
5 0 6 0 5 0 5 0 6 0 5 0 5 0 6 0 
5 0 5 0 6 0 5 0 5 0 6 0 5 0 5 0 
6 0 5 0 6 0 5 0 5 0 6 0 5 0 5 0 
6 0 5 0 5 0 6 0 5 0 5 0 6 0 5 0 
5 0 6 0 5 0 5 0 6 0 5 0 5 0 6 0 
5 0 5 0 6 0 5 0 5 0 6 0 5 0 5 0 
6 0 5 0 5 0 6 0 5 0 5 0 6 0 5 0 
5 0 6 0 5 0 5 0 6 0 5 0 6 0 5 0 
5 0 6 0 5 0 5 0 6 0 5 0 5 0 6 0 
5 0 5 0 6 0 5 0 5 0 6 0 5 0 5 0 
6 0 5 0 5 0 6 0 5 0 5 0 6 0 5 0 
5 0 6 0 5 0 5 0 6 0 5 0 5 0 6 0 
5 0 5 0 6 0 5 0 5 0 6 0 5 0 5 0 
6 0 5 0 6 0 5 0 5 0 6 0 5 0 5 941 
6 0 5 0 5 0 6 -941 5 941 5 -941 6 0 5 0 
5 0 6 0 5 0 5 0 6 0 5 0 5 0 6 0 
5 0 5 0 6 0 5 0 5 0 6 0 5 0 5 0 
6 0 5 0 5 0 6 0 5 0 5 0 6 0 5 0 
5 0 6 0 5 0 6 0 5 0 5 0 6 0 5 0 
5 0 6 0 5 0 5 0 6 0 5 0 5 0 6 0 
5 0 5 0 6 0 5 0 5 0 6 0 5 0 5 0 
6 0 5 0 5 0 6 0 5 0 5 0 6 0 5 0 
5 0 6 0 5 0 5 0 6 0 5 0 5 0 6 0 
5 0 5 0 6 0 5 0 5 0 6 0 5 0 6 0 
5 0 5 0 6 0 5 0 5 0 6 0 5 0 5 0 
6 0 5 0 5 0 -1912 1574 300 MP stroke
6 0 5 0 5 0 6 0 5 0 5 0 6 0 5 0 
5 0 6 0 5 0 5 0 6 0 5 0 5 0 6 0 
5 0 5 0 6 0 5 0 5 0 6 0 5 0 5 0 
6 0 5 0 5 0 6 0 5 0 5 0 6 0 5 0 
6 0 5 0 5 0 6 0 5 0 5 0 6 0 5 0 
5 0 6 0 5 0 5 0 6 0 5 0 5 0 6 0 
5 0 5 0 6 941 5 0 5 0 6 -941 5 941 5 -941 
6 0 5 0 5 0 6 0 5 0 5 0 6 0 5 0 
5 0 6 0 5 0 5 0 6 0 5 0 5 0 6 0 
5 0 5 0 6 0 5 0 6 0 5 0 5 0 6 0 
5 0 5 0 6 0 5 0 5 0 6 0 5 0 5 0 
6 0 5 0 5 0 6 0 5 0 5 0 6 0 5 0 
5 0 6 0 5 0 5 0 6 0 5 0 5 0 6 0 
5 0 5 0 6 0 5 0 5 0 6 0 5 0 5 0 
6 0 5 0 5 0 6 0 5 0 6 0 5 0 5 0 
6 0 5 0 5 0 6 0 5 0 5 0 6 0 5 0 
5 0 6 0 5 0 5 0 6 0 5 0 5 0 6 0 
5 0 5 0 6 0 5 0 5 0 6 0 5 0 5 0 
6 0 5 0 5 0 6 0 5 0 5 0 6 0 5 0 
5 0 6 0 5 0 5 0 6 0 5 941 5 0 6 0 
5 -941 6 0 5 0 5 0 6 0 5 0 5 0 6 0 
5 0 5 0 6 0 5 0 5 0 6 0 5 0 5 0 
6 0 5 0 5 0 6 0 5 0 5 0 6 0 5 0 
5 0 6 0 5 0 5 0 6 0 5 0 5 0 6 0 
5 0 5 0 6 0 5 0 5 0 6 0 5 0 5 0 
6 0 5 0 5 0 6 0 5 0 6 0 5 0 5 0 
6 0 5 0 5 0 6 0 5 0 5 0 6 0 5 0 
5 0 6 0 5 0 5 0 6 0 5 0 5 0 6 0 
5 0 5 0 6 0 5 0 5 0 6 0 5 0 5 0 
6 0 5 0 5 0 6 0 5 0 5 0 6 0 5 0 
5 0 6 0 5 0 5 0 6 0 5 0 5 0 6 0 
5 0 6 0 5 0 5 0 6 0 5 0 5 0 6 0 
5 0 5 0 6 0 5 0 5 0 6 0 5 0 5 0 
6 0 5 0 5 0 6 0 5 0 5 0 6 0 5 0 
5 0 6 0 5 0 5 0 6 0 5 0 5 0 6 0 
5 0 5 0 6 0 5 0 5 0 6 0 5 0 5 0 
6 0 5 0 6 0 5 0 5 0 6 0 5 0 5 0 
6 0 5 0 5 0 -3509 1574 300 MP stroke
6 0 5 0 5 0 6 0 5 0 5 0 6 0 5 0 
5 0 6 0 5 0 5 0 6 0 5 0 5 0 6 0 
5 0 5 0 6 0 5 0 5 0 6 0 5 0 5 0 
6 0 5 0 5 0 6 0 5 0 5 0 6 0 5 0 
5 0 6 0 5 0 6 0 5 0 5 0 6 0 5 0 
5 0 6 0 5 0 5 0 6 0 5 0 5 0 6 0 
5 0 5 0 6 0 5 0 5 0 6 0 5 0 5 0 
6 0 5 0 5 0 6 0 5 0 5 0 6 0 5 0 
5 0 6 0 5 0 5 0 6 0 5 0 5 0 6 0 
5 0 5 0 6 0 5 0 5 0 6 0 5 0 6 0 
5 0 5 0 6 0 5 0 5 0 6 0 5 0 5 0 
6 0 5 0 5 0 6 0 5 0 5 0 6 0 5 0 
5 0 6 0 5 0 5 0 6 0 5 0 5 0 6 0 
5 0 5 0 6 0 5 0 5 0 6 0 5 0 0 0 
-4102 1574 113 MP stroke
gr

2587 1958 mt 
(time [s]) s
 681 1713 mt 
( ) s
4848  190 mt 
( ) s
1 sg
0 334 1399 0 0 -334 3406 542 4 MP
PP
-1399 0 0 334 1399 0 0 -334 3406 542 5 MP stroke
4 w
DO
SO
6 w
0 sg
3406  542 mt 4805  542 L
3406  208 mt 4805  208 L
3406  542 mt 3406  208 L
4805  542 mt 4805  208 L
3406  542 mt 4805  542 L
3406  542 mt 3406  208 L
3406  542 mt 4805  542 L
3406  208 mt 4805  208 L
3406  542 mt 3406  208 L
4805  542 mt 4805  208 L
3842  344 mt 
(Contact Sensor) s
gs 3406 208 1400 335 rc
0.6 sg
-335 0 0 107 335 0 0 -107 3473 355 5 MP
PP
0 sg
0 0 -335 0 0 107 335 0 0 -107 3473 355 6 MP stroke
gr

3842  491 mt 
(Outlier Detection) s
gs 3406 208 1400 335 rc
0.4 sg
-335 0 0 107 335 0 0 -107 3473 501 5 MP
PP
0 sg
0 0 -335 0 0 107 335 0 0 -107 3473 501 6 MP stroke
gr


end %%Color Dict

eplot
%%EndObject

epage
end

showpage

%%Trailer
%%EOF
