%!PS-Adobe-3.0 EPSF-3.0
%%Title: /home/michael/workspace/OFIMU/IROS2014/img/gyr_bias.eps
%%Creator: matplotlib version 1.1.1rc, http://matplotlib.sourceforge.net/
%%CreationDate: Fri Feb  7 03:22:24 2014
%%Orientation: portrait
%%BoundingBox: 13 175 598 616
%%EndComments
%%BeginProlog
/mpldict 8 dict def
mpldict begin
/m { moveto } bind def
/l { lineto } bind def
/r { rlineto } bind def
/c { curveto } bind def
/cl { closepath } bind def
/box {
m
1 index 0 r
0 exch r
neg 0 r
cl
} bind def
/clipbox {
box
clip
newpath
} bind def
%!PS-Adobe-3.0 Resource-Font
%%Title: DejaVu Sans
%%Copyright: Copyright (c) 2003 by Bitstream, Inc. All Rights Reserved. Copyright (c) 2006 by Tavmjong Bah. All Rights Reserved. DejaVu changes are in public domain 
%%Creator: Converted from TrueType to type 3 by PPR
25 dict begin
/_d{bind def}bind def
/_m{moveto}_d
/_l{lineto}_d
/_cl{closepath eofill}_d
/_c{curveto}_d
/_sc{7 -1 roll{setcachedevice}{pop pop pop pop pop pop}ifelse}_d
/_e{exec}_d
/FontName /DejaVuSans def
/PaintType 0 def
/FontMatrix[.001 0 0 .001 0 0]def
/FontBBox[-1021 -415 1681 1167]def
/FontType 3 def
/Encoding [ /space /period /slash /zero /one /two /three /four /five /B /G /bracketleft /bracketright /underscore /a /c /d /e /i /o /p /r /s /t /x /y /z /minus ] def
/FontInfo 10 dict dup begin
/FamilyName (DejaVu Sans) def
/FullName (DejaVu Sans) def
/Notice (Copyright (c) 2003 by Bitstream, Inc. All Rights Reserved. Copyright (c) 2006 by Tavmjong Bah. All Rights Reserved. DejaVu changes are in public domain ) def
/Weight (Book) def
/Version (Version 2.33) def
/ItalicAngle 0.0 def
/isFixedPitch false def
/UnderlinePosition -130 def
/UnderlineThickness 90 def
end readonly def
/CharStrings 28 dict dup begin
/space{318 0 0 0 0 0 _sc
}_d
/period{318 0 107 0 210 124 _sc
107 124 _m
210 124 _l
210 0 _l
107 0 _l
107 124 _l
_cl}_d
/slash{337 0 0 -92 337 729 _sc
254 729 _m
337 729 _l
83 -92 _l
0 -92 _l
254 729 _l
_cl}_d
/zero{636 0 66 -13 570 742 _sc
318 664 _m
267 664 229 639 203 589 _c
177 539 165 464 165 364 _c
165 264 177 189 203 139 _c
229 89 267 64 318 64 _c
369 64 407 89 433 139 _c
458 189 471 264 471 364 _c
471 464 458 539 433 589 _c
407 639 369 664 318 664 _c
318 742 _m
399 742 461 709 505 645 _c
548 580 570 486 570 364 _c
570 241 548 147 505 83 _c
461 19 399 -13 318 -13 _c
236 -13 173 19 130 83 _c
87 147 66 241 66 364 _c
66 486 87 580 130 645 _c
173 709 236 742 318 742 _c
_cl}_d
/one{636 0 110 0 544 729 _sc
124 83 _m
285 83 _l
285 639 _l
110 604 _l
110 694 _l
284 729 _l
383 729 _l
383 83 _l
544 83 _l
544 0 _l
124 0 _l
124 83 _l
_cl}_d
/two{{636 0 73 0 536 742 _sc
192 83 _m
536 83 _l
536 0 _l
73 0 _l
73 83 _l
110 121 161 173 226 239 _c
290 304 331 346 348 365 _c
380 400 402 430 414 455 _c
426 479 433 504 433 528 _c
433 566 419 598 392 622 _c
365 646 330 659 286 659 _c
255 659 222 653 188 643 _c
154 632 117 616 78 594 _c
78 694 _l
118 710 155 722 189 730 _c
223 738 255 742 284 742 _c
359 742 419 723 464 685 _c
509 647 532 597 532 534 _c
532 504 526 475 515 449 _c
504 422 484 390 454 354 _c
446 344 420 317 376 272 _c
332 227 271 164 192 83 _c
_cl}_e}_d
/three{{636 0 76 -13 556 742 _sc
406 393 _m
453 383 490 362 516 330 _c
542 298 556 258 556 212 _c
556 140 531 84 482 45 _c
432 6 362 -13 271 -13 _c
240 -13 208 -10 176 -4 _c
144 1 110 10 76 22 _c
76 117 _l
103 101 133 89 166 81 _c
198 73 232 69 268 69 _c
330 69 377 81 409 105 _c
441 129 458 165 458 212 _c
458 254 443 288 413 312 _c
383 336 341 349 287 349 _c
202 349 _l
202 430 _l
291 430 _l
339 430 376 439 402 459 _c
428 478 441 506 441 543 _c
441 580 427 609 401 629 _c
374 649 336 659 287 659 _c
260 659 231 656 200 650 _c
169 644 135 635 98 623 _c
98 711 _l
135 721 170 729 203 734 _c
235 739 266 742 296 742 _c
}_e{370 742 429 725 473 691 _c
517 657 539 611 539 553 _c
539 513 527 479 504 451 _c
481 423 448 403 406 393 _c
_cl}_e}_d
/four{636 0 49 0 580 729 _sc
378 643 _m
129 254 _l
378 254 _l
378 643 _l
352 729 _m
476 729 _l
476 254 _l
580 254 _l
580 172 _l
476 172 _l
476 0 _l
378 0 _l
378 172 _l
49 172 _l
49 267 _l
352 729 _l
_cl}_d
/five{{636 0 77 -13 549 729 _sc
108 729 _m
495 729 _l
495 646 _l
198 646 _l
198 467 _l
212 472 227 476 241 478 _c
255 480 270 482 284 482 _c
365 482 429 459 477 415 _c
525 370 549 310 549 234 _c
549 155 524 94 475 51 _c
426 8 357 -13 269 -13 _c
238 -13 207 -10 175 -6 _c
143 -1 111 6 77 17 _c
77 116 _l
106 100 136 88 168 80 _c
199 72 232 69 267 69 _c
323 69 368 83 401 113 _c
433 143 450 183 450 234 _c
450 284 433 324 401 354 _c
368 384 323 399 267 399 _c
241 399 214 396 188 390 _c
162 384 135 375 108 363 _c
108 729 _l
_cl}_e}_d
/B{{686 0 98 0 615 729 _sc
197 348 _m
197 81 _l
355 81 _l
408 81 447 92 473 114 _c
498 136 511 169 511 215 _c
511 260 498 293 473 315 _c
447 337 408 348 355 348 _c
197 348 _l
197 648 _m
197 428 _l
343 428 _l
391 428 426 437 450 455 _c
474 473 486 500 486 538 _c
486 574 474 602 450 620 _c
426 638 391 648 343 648 _c
197 648 _l
98 729 _m
350 729 _l
425 729 483 713 524 682 _c
564 650 585 606 585 549 _c
585 504 574 468 553 442 _c
532 416 502 399 462 393 _c
510 382 548 360 575 327 _c
601 294 615 253 615 204 _c
615 138 592 88 548 53 _c
504 17 441 0 360 0 _c
98 0 _l
98 729 _l
}_e{_cl}_e}_d
/G{{775 0 56 -13 693 742 _sc
595 104 _m
595 300 _l
434 300 _l
434 381 _l
693 381 _l
693 68 _l
655 40 613 20 567 7 _c
521 -6 472 -13 420 -13 _c
306 -13 216 20 152 86 _c
88 152 56 245 56 364 _c
56 482 88 575 152 642 _c
216 708 306 742 420 742 _c
467 742 512 736 555 724 _c
598 712 638 695 674 673 _c
674 568 _l
637 598 598 621 557 637 _c
516 653 473 661 428 661 _c
338 661 271 636 227 586 _c
182 536 160 462 160 364 _c
160 265 182 191 227 141 _c
271 91 338 67 428 67 _c
462 67 493 70 521 76 _c
549 82 573 91 595 104 _c
_cl}_e}_d
/bracketleft{390 0 86 -131 293 760 _sc
86 760 _m
293 760 _l
293 690 _l
176 690 _l
176 -61 _l
293 -61 _l
293 -131 _l
86 -131 _l
86 760 _l
_cl}_d
/bracketright{390 0 97 -131 304 760 _sc
304 760 _m
304 -131 _l
97 -131 _l
97 -61 _l
214 -61 _l
214 690 _l
97 690 _l
97 760 _l
304 760 _l
_cl}_d
/underscore{500 0 -9 -235 510 -165 _sc
510 -165 _m
510 -235 _l
-9 -235 _l
-9 -165 _l
510 -165 _l
_cl}_d
/a{{613 0 60 -13 522 560 _sc
343 275 _m
270 275 220 266 192 250 _c
164 233 150 205 150 165 _c
150 133 160 107 181 89 _c
202 70 231 61 267 61 _c
317 61 357 78 387 114 _c
417 149 432 196 432 255 _c
432 275 _l
343 275 _l
522 312 _m
522 0 _l
432 0 _l
432 83 _l
411 49 385 25 355 10 _c
325 -5 287 -13 243 -13 _c
187 -13 142 2 109 33 _c
76 64 60 106 60 159 _c
60 220 80 266 122 298 _c
163 329 224 345 306 345 _c
432 345 _l
432 354 _l
432 395 418 427 391 450 _c
364 472 326 484 277 484 _c
245 484 215 480 185 472 _c
155 464 127 453 100 439 _c
100 522 _l
}_e{132 534 164 544 195 550 _c
226 556 256 560 286 560 _c
365 560 424 539 463 498 _c
502 457 522 395 522 312 _c
_cl}_e}_d
/c{{550 0 55 -13 488 560 _sc
488 526 _m
488 442 _l
462 456 437 466 411 473 _c
385 480 360 484 334 484 _c
276 484 230 465 198 428 _c
166 391 150 339 150 273 _c
150 206 166 154 198 117 _c
230 80 276 62 334 62 _c
360 62 385 65 411 72 _c
437 79 462 90 488 104 _c
488 21 _l
462 9 436 0 410 -5 _c
383 -10 354 -13 324 -13 _c
242 -13 176 12 128 64 _c
79 115 55 185 55 273 _c
55 362 79 432 128 483 _c
177 534 244 560 330 560 _c
358 560 385 557 411 551 _c
437 545 463 537 488 526 _c
_cl}_e}_d
/d{{635 0 55 -13 544 760 _sc
454 464 _m
454 760 _l
544 760 _l
544 0 _l
454 0 _l
454 82 _l
435 49 411 25 382 10 _c
353 -5 319 -13 279 -13 _c
213 -13 159 13 117 65 _c
75 117 55 187 55 273 _c
55 359 75 428 117 481 _c
159 533 213 560 279 560 _c
319 560 353 552 382 536 _c
411 520 435 496 454 464 _c
148 273 _m
148 207 161 155 188 117 _c
215 79 253 61 301 61 _c
348 61 385 79 413 117 _c
440 155 454 207 454 273 _c
454 339 440 390 413 428 _c
385 466 348 485 301 485 _c
253 485 215 466 188 428 _c
161 390 148 339 148 273 _c
_cl}_e}_d
/e{{615 0 55 -13 562 560 _sc
562 296 _m
562 252 _l
149 252 _l
153 190 171 142 205 110 _c
238 78 284 62 344 62 _c
378 62 412 66 444 74 _c
476 82 509 95 541 113 _c
541 28 _l
509 14 476 3 442 -3 _c
408 -9 373 -13 339 -13 _c
251 -13 182 12 131 62 _c
80 112 55 181 55 268 _c
55 357 79 428 127 481 _c
175 533 241 560 323 560 _c
397 560 455 536 498 489 _c
540 441 562 377 562 296 _c
472 322 _m
471 371 457 410 431 440 _c
404 469 368 484 324 484 _c
274 484 234 469 204 441 _c
174 413 156 373 152 322 _c
472 322 _l
_cl}_e}_d
/i{278 0 94 0 184 760 _sc
94 547 _m
184 547 _l
184 0 _l
94 0 _l
94 547 _l
94 760 _m
184 760 _l
184 646 _l
94 646 _l
94 760 _l
_cl}_d
/o{612 0 55 -13 557 560 _sc
306 484 _m
258 484 220 465 192 427 _c
164 389 150 338 150 273 _c
150 207 163 156 191 118 _c
219 80 257 62 306 62 _c
354 62 392 80 420 118 _c
448 156 462 207 462 273 _c
462 337 448 389 420 427 _c
392 465 354 484 306 484 _c
306 560 _m
384 560 445 534 490 484 _c
534 433 557 363 557 273 _c
557 183 534 113 490 63 _c
445 12 384 -13 306 -13 _c
227 -13 165 12 121 63 _c
77 113 55 183 55 273 _c
55 363 77 433 121 484 _c
165 534 227 560 306 560 _c
_cl}_d
/p{{635 0 91 -207 580 560 _sc
181 82 _m
181 -207 _l
91 -207 _l
91 547 _l
181 547 _l
181 464 _l
199 496 223 520 252 536 _c
281 552 316 560 356 560 _c
422 560 476 533 518 481 _c
559 428 580 359 580 273 _c
580 187 559 117 518 65 _c
476 13 422 -13 356 -13 _c
316 -13 281 -5 252 10 _c
223 25 199 49 181 82 _c
487 273 _m
487 339 473 390 446 428 _c
418 466 381 485 334 485 _c
286 485 249 466 222 428 _c
194 390 181 339 181 273 _c
181 207 194 155 222 117 _c
249 79 286 61 334 61 _c
381 61 418 79 446 117 _c
473 155 487 207 487 273 _c
_cl}_e}_d
/r{411 0 91 0 411 560 _sc
411 463 _m
401 469 390 473 378 476 _c
366 478 353 480 339 480 _c
288 480 249 463 222 430 _c
194 397 181 350 181 288 _c
181 0 _l
91 0 _l
91 547 _l
181 547 _l
181 462 _l
199 495 224 520 254 536 _c
284 552 321 560 365 560 _c
371 560 378 559 386 559 _c
393 558 401 557 411 555 _c
411 463 _l
_cl}_d
/s{{521 0 54 -13 472 560 _sc
443 531 _m
443 446 _l
417 458 391 468 364 475 _c
336 481 308 485 279 485 _c
234 485 200 478 178 464 _c
156 450 145 430 145 403 _c
145 382 153 366 169 354 _c
185 342 217 330 265 320 _c
296 313 _l
360 299 405 279 432 255 _c
458 230 472 195 472 151 _c
472 100 452 60 412 31 _c
372 1 316 -13 246 -13 _c
216 -13 186 -10 154 -5 _c
122 0 89 8 54 20 _c
54 113 _l
87 95 120 82 152 74 _c
184 65 216 61 248 61 _c
290 61 323 68 346 82 _c
368 96 380 117 380 144 _c
380 168 371 187 355 200 _c
339 213 303 226 247 238 _c
216 245 _l
160 257 119 275 95 299 _c
70 323 58 356 58 399 _c
58 450 76 490 112 518 _c
148 546 200 560 268 560 _c
}_e{301 560 332 557 362 552 _c
391 547 418 540 443 531 _c
_cl}_e}_d
/t{392 0 27 0 368 702 _sc
183 702 _m
183 547 _l
368 547 _l
368 477 _l
183 477 _l
183 180 _l
183 135 189 106 201 94 _c
213 81 238 75 276 75 _c
368 75 _l
368 0 _l
276 0 _l
206 0 158 13 132 39 _c
106 65 93 112 93 180 _c
93 477 _l
27 477 _l
27 547 _l
93 547 _l
93 702 _l
183 702 _l
_cl}_d
/x{592 0 29 0 559 547 _sc
549 547 _m
351 281 _l
559 0 _l
453 0 _l
294 215 _l
135 0 _l
29 0 _l
241 286 _l
47 547 _l
153 547 _l
298 352 _l
443 547 _l
549 547 _l
_cl}_d
/y{592 0 30 -207 562 547 _sc
322 -50 _m
296 -114 271 -157 247 -177 _c
223 -197 191 -207 151 -207 _c
79 -207 _l
79 -132 _l
132 -132 _l
156 -132 175 -126 189 -114 _c
203 -102 218 -75 235 -31 _c
251 9 _l
30 547 _l
125 547 _l
296 119 _l
467 547 _l
562 547 _l
322 -50 _l
_cl}_d
/z{525 0 43 0 482 547 _sc
55 547 _m
482 547 _l
482 465 _l
144 72 _l
482 72 _l
482 0 _l
43 0 _l
43 82 _l
381 475 _l
55 475 _l
55 547 _l
_cl}_d
/minus{838 0 106 272 732 355 _sc
106 355 _m
732 355 _l
732 272 _l
106 272 _l
106 355 _l
_cl}_d
end readonly def

/BuildGlyph
 {exch begin
 CharStrings exch
 2 copy known not{pop /.notdef}if
 true 3 1 roll get exec
 end}_d

/BuildChar {
 1 index /Encoding get exch get
 1 index /BuildGlyph get exec
}_d

FontName currentdict end definefont pop
end
%%EndProlog
mpldict begin
13.5 175.5 translate
585 441 0 0 clipbox
gsave
0 0 m
585 0 l
585 441 l
0 441 l
cl
1.000 setgray
fill
grestore
gsave
73.125 293.135 m
526.5 293.135 l
526.5 396.9 l
73.125 396.9 l
cl
1.000 setgray
fill
grestore
1.000 setlinewidth
1 setlinejoin
2 setlinecap
[] 0 setdash
1.000 0.000 0.000 setrgbcolor
gsave
453.4 103.8 73.12 293.1 clipbox
73.125 345.018 m
73.465 345.018 l
73.5784 341.405 l
74.5985 341.514 l
74.7118 342.257 l
75.1652 342.257 l
75.3352 342.374 l
75.6752 342.374 l
75.7886 342.656 l
76.2986 342.656 l
76.412 342.981 l
76.8653 342.981 l
76.9787 343.587 l
77.4321 343.587 l
77.6021 343.8 l
78.5088 343.833 l
78.6788 343.97 l
79.6989 344.058 l
79.8123 345.88 l
80.2657 345.88 l
80.379 347.003 l
80.8324 347.003 l
81.0024 347.12 l
81.9658 347.201 l
82.2492 347.231 l
83.0993 347.238 l
83.2693 347.497 l
84.176 347.511 l
84.2894 346.159 l
84.7994 346.159 l
84.9128 345.382 l
85.3661 345.382 l
85.5361 345.113 l
85.9328 345.113 l
86.1029 344.972 l
86.4996 344.972 l
86.6129 344.601 l
87.0096 344.601 l
87.123 344.302 l
87.633 344.302 l
87.803 344.052 l
88.1997 344.052 l
88.3131 345.125 l
88.7664 345.125 l
88.8798 345.433 l
89.3332 345.433 l
89.4465 346.083 l
90.4666 345.973 l
91.0333 345.962 l
91.1467 346.572 l
91.6 346.572 l
91.7134 346.02 l
92.1668 346.02 l
92.2801 346.717 l
92.6768 346.717 l
92.8468 346.93 l
93.3002 346.93 l
93.4702 347.089 l
93.8669 347.089 l
94.0369 346.933 l
94.4336 346.933 l
94.6036 347.133 l
95.0003 347.133 l
95.1704 347.343 l
95.5104 347.343 l
95.6804 347.222 l
96.1338 347.222 l
96.3038 347.475 l
96.7005 347.475 l
96.8705 347.361 l
97.8339 347.468 l
98.004 347.211 l
98.344 347.211 l
98.4573 346.823 l
100.101 346.879 l
100.271 346.605 l
100.668 346.605 l
100.781 346.245 l
101.178 346.245 l
101.348 346.055 l
101.801 346.055 l
101.914 345.763 l
102.368 345.763 l
102.538 345.489 l
102.934 345.489 l
103.048 345.083 l
103.501 345.083 l
103.614 344.74 l
104.011 344.74 l
104.125 344.367 l
104.635 344.367 l
104.748 343.941 l
105.201 343.941 l
105.371 343.793 l
105.768 343.793 l
105.881 343.451 l
106.335 343.451 l
106.505 343.268 l
106.845 343.268 l
106.958 343.622 l
108.602 343.697 l
108.828 343.745 l
110.302 343.825 l
110.472 343.924 l
113.135 344.034 l
113.305 344.141 l
113.702 344.141 l
113.872 344.362 l
114.836 344.464 l
115.062 344.506 l
115.346 344.506 l
115.516 344.628 l
115.969 344.628 l
116.139 344.852 l
116.536 344.852 l
116.649 345.159 l
117.669 345.259 l
117.782 345.544 l
119.369 345.464 l
119.539 345.375 l
119.936 345.375 l
120.106 345.185 l
120.503 345.185 l
120.673 344.95 l
122.203 344.84 l
122.373 344.779 l
123.846 344.865 l
124.016 345.007 l
125.036 345.065 l
125.206 345.308 l
126.17 345.363 l
126.34 345.629 l
127.303 345.716 l
127.473 345.815 l
128.437 345.904 l
128.607 345.969 l
130.137 346.02 l
130.307 346.162 l
130.704 346.162 l
130.874 346.308 l
131.27 346.308 l
131.44 346.488 l
135.181 346.516 l
135.351 346.363 l
135.804 346.363 l
135.974 346.577 l
136.938 346.687 l
137.108 346.821 l
138.638 346.799 l
138.808 346.679 l
139.204 346.679 l
139.374 346.44 l
141.471 346.364 l
141.698 346.322 l
143.171 346.216 l
143.341 346.156 l
144.305 346.057 l
144.475 345.965 l
145.438 345.878 l
145.608 345.738 l
146.515 345.673 l
146.685 345.56 l
147.705 345.45 l
147.875 345.371 l
149.349 345.296 l
149.519 345.206 l
150.539 345.149 l
150.709 345.062 l
151.672 345.018 l
151.842 344.902 l
153.372 344.91 l
153.542 344.773 l
163.007 344.874 l
163.177 344.931 l
165.273 345.004 l
165.5 345.046 l
169.184 345.141 l
169.354 345.224 l
170.941 345.323 l
171.167 345.364 l
174.851 345.465 l
175.078 345.506 l
177.175 345.603 l
177.628 345.618 l
180.008 345.527 l
180.178 345.436 l
181.142 345.369 l
181.312 345.32 l
182.275 345.254 l
182.445 345.193 l
191.343 345.269 l
191.569 345.31 l
191.853 345.31 l
192.023 345.431 l
193.043 345.49 l
193.213 345.581 l
193.609 345.581 l
193.779 345.698 l
194.686 345.757 l
194.856 345.814 l
199.843 345.717 l
200.013 345.615 l
200.353 345.615 l
200.523 345.48 l
200.977 345.48 l
201.147 345.366 l
202.11 345.27 l
202.28 345.191 l
203.187 345.119 l
203.357 345.034 l
204.377 344.954 l
204.547 344.865 l
216.845 344.766 l
217.638 344.696 l
221.379 344.738 l
221.549 344.823 l
223.022 344.925 l
223.192 345 l
229.879 344.89 l
231.466 344.83 l
232.713 344.739 l
232.996 344.711 l
234.98 344.609 l
235.15 344.551 l
237.813 344.453 l
238.21 344.434 l
238.947 344.488 l
239.117 344.552 l
240.024 344.604 l
240.194 344.669 l
248.524 344.598 l
248.751 344.557 l
251.981 344.476 l
252.151 344.423 l
254.192 344.331 l
254.475 344.306 l
261.049 344.416 l
261.389 344.436 l
265.526 344.534 l
265.753 344.57 l
301.286 344.679 l
302.533 344.665 l
380.627 344.776 l
387.994 344.77 l
391.678 344.769 l
402.162 344.658 l
404.145 344.652 l
424.831 344.542 l
425.341 344.529 l
448.066 344.438 l
448.406 344.414 l
516.809 344.46 l
516.809 344.46 l
stroke
grestore
0 setlinecap
[6 6] 0 setdash
gsave
453.4 103.8 73.12 293.1 clipbox
73.125 383.929 m
73.465 383.929 l
73.5784 373.146 l
74.0318 373.146 l
74.1451 372.701 l
75.1652 372.719 l
75.2785 372.252 l
75.6752 372.252 l
75.7886 371.952 l
76.2986 371.952 l
76.4686 371.717 l
77.4321 371.778 l
77.5454 371.482 l
77.9988 371.482 l
78.1121 371.068 l
78.5088 371.068 l
78.6788 370.795 l
79.1322 370.795 l
79.2456 370.237 l
79.6989 370.237 l
79.8123 370.865 l
80.8324 370.869 l
80.9457 369.926 l
81.3424 369.926 l
81.4558 369.113 l
81.9658 369.113 l
82.0792 368.583 l
82.5325 368.583 l
82.6459 367.907 l
83.0993 367.907 l
83.2693 367.634 l
83.666 367.634 l
83.7793 367.038 l
84.176 367.038 l
84.2894 364.869 l
84.7994 364.869 l
84.9128 363.596 l
85.3661 363.596 l
85.4795 362.979 l
85.9328 362.979 l
86.0462 362.597 l
86.4996 362.597 l
86.6129 362.007 l
87.0096 362.007 l
87.123 361.448 l
87.633 361.448 l
87.7463 360.912 l
88.1997 360.912 l
88.3131 361.599 l
89.3332 361.585 l
89.4465 361.937 l
89.8432 361.937 l
89.9565 361.517 l
90.4666 361.517 l
90.6366 361.251 l
91.0333 361.251 l
91.1467 361.632 l
91.6 361.632 l
91.7134 360.846 l
92.1668 360.846 l
92.2801 361.286 l
93.3002 361.19 l
93.4702 361.036 l
93.8669 361.036 l
93.9803 360.51 l
94.4336 360.51 l
94.6036 360.266 l
95.0003 360.266 l
95.1137 359.924 l
95.5104 359.924 l
95.6237 359.288 l
96.1338 359.288 l
96.3038 359.114 l
96.7005 359.114 l
96.8138 358.461 l
97.2672 358.461 l
97.3806 358.04 l
97.8339 358.04 l
97.9473 357.243 l
98.344 357.243 l
98.4573 356.418 l
98.9674 356.418 l
99.0807 356.092 l
99.5341 356.092 l
99.7041 355.864 l
100.101 355.864 l
100.214 355.351 l
100.668 355.351 l
100.781 354.794 l
101.178 354.794 l
101.291 354.428 l
101.801 354.428 l
101.914 353.997 l
102.368 353.997 l
102.481 353.587 l
102.934 353.587 l
103.048 353.056 l
103.501 353.056 l
103.614 352.59 l
104.011 352.59 l
104.125 352.101 l
104.635 352.101 l
104.748 351.566 l
105.201 351.566 l
105.371 351.318 l
105.768 351.318 l
105.881 350.892 l
106.335 350.892 l
106.505 350.629 l
106.845 350.629 l
107.015 350.895 l
108.035 350.798 l
108.205 350.748 l
109.168 350.702 l
109.338 350.617 l
112.002 350.525 l
112.229 350.482 l
113.702 350.52 l
113.872 350.681 l
115.969 350.777 l
116.139 350.94 l
116.536 350.94 l
116.706 351.184 l
117.669 351.217 l
117.839 351.418 l
118.803 351.387 l
118.973 351.152 l
119.369 351.152 l
119.539 350.97 l
119.936 350.97 l
120.106 350.728 l
120.503 350.728 l
120.673 350.452 l
121.636 350.409 l
121.806 350.264 l
124.47 350.35 l
124.696 350.396 l
125.036 350.396 l
125.206 350.624 l
126.17 350.664 l
126.34 350.91 l
127.303 350.973 l
127.473 351.035 l
130.137 351.073 l
130.307 351.157 l
131.27 351.236 l
131.44 351.346 l
132.97 351.308 l
133.141 351.202 l
133.537 351.202 l
133.707 351.035 l
134.671 350.986 l
134.841 350.844 l
135.181 350.844 l
135.351 350.578 l
136.371 350.683 l
136.768 350.701 l
138.638 350.623 l
138.808 350.457 l
139.204 350.457 l
139.318 350.171 l
140.338 350.086 l
140.565 350.052 l
141.471 349.993 l
141.641 349.926 l
142.605 349.827 l
142.775 349.764 l
143.681 349.68 l
143.852 349.55 l
144.305 349.55 l
144.475 349.429 l
144.872 349.429 l
145.042 349.313 l
145.438 349.313 l
145.608 349.14 l
146.515 349.038 l
146.685 348.889 l
147.138 348.889 l
147.308 348.742 l
148.272 348.634 l
148.442 348.562 l
149.349 348.481 l
149.519 348.337 l
149.972 348.337 l
150.142 348.222 l
150.539 348.222 l
150.709 348.08 l
151.672 347.987 l
151.842 347.831 l
153.372 347.776 l
153.542 347.614 l
154.506 347.534 l
154.676 347.484 l
163.007 347.567 l
163.233 347.608 l
170.374 347.682 l
170.601 347.728 l
172.641 347.831 l
173.321 347.848 l
177.175 347.955 l
178.195 347.983 l
179.441 347.906 l
179.611 347.844 l
180.518 347.746 l
180.688 347.673 l
181.708 347.619 l
181.878 347.549 l
183.352 347.441 l
183.748 347.424 l
191.853 347.437 l
192.023 347.539 l
193.609 347.649 l
193.779 347.749 l
199.843 347.687 l
200.013 347.553 l
200.353 347.553 l
200.523 347.388 l
200.977 347.388 l
201.147 347.246 l
201.543 347.246 l
201.713 347.129 l
202.677 347.034 l
202.847 346.951 l
203.81 346.856 l
203.98 346.767 l
204.944 346.67 l
205.114 346.579 l
214.521 346.483 l
214.805 346.456 l
217.355 346.38 l
217.525 346.31 l
219.112 346.208 l
219.508 346.191 l
221.379 346.26 l
221.549 346.323 l
223.022 346.382 l
223.192 346.442 l
227.613 346.337 l
228.066 346.322 l
231.013 346.235 l
231.296 346.208 l
232.713 346.109 l
232.94 346.076 l
234.356 346.019 l
234.527 345.959 l
236.113 345.858 l
236.283 345.804 l
240.647 345.915 l
240.987 345.939 l
245.691 345.84 l
245.974 345.811 l
248.014 345.729 l
248.241 345.696 l
249.715 345.609 l
249.998 345.578 l
251.981 345.478 l
252.151 345.397 l
253.115 345.304 l
253.342 345.268 l
257.649 345.178 l
257.819 345.089 l
265.526 345.188 l
265.809 345.218 l
288.818 345.11 l
289.328 345.096 l
411.229 344.992 l
412.023 344.974 l
425.397 344.876 l
425.851 344.862 l
448.066 344.753 l
448.349 344.725 l
450.9 344.621 l
451.636 344.602 l
516.809 344.702 l
516.809 344.702 l
stroke
grestore
gsave
453.4 103.8 73.12 293.1 clipbox
73.125 306.106 m
73.465 306.106 l
73.5784 309.664 l
74.0318 309.664 l
74.1451 310.326 l
74.5985 310.326 l
74.7118 311.794 l
75.1652 311.794 l
75.2785 312.496 l
75.6752 312.496 l
75.7886 313.36 l
76.2986 313.36 l
76.412 314.246 l
76.8653 314.246 l
76.9787 315.395 l
77.4321 315.395 l
77.5454 316.117 l
77.9988 316.117 l
78.1121 316.598 l
78.5088 316.598 l
78.6222 317.144 l
79.1322 317.144 l
79.2456 317.88 l
79.6989 317.88 l
79.8123 320.895 l
80.2657 320.895 l
80.379 323.138 l
80.8324 323.138 l
80.9457 324.314 l
81.3424 324.314 l
81.4558 325.29 l
81.9658 325.29 l
82.0792 325.879 l
82.5325 325.879 l
82.6459 326.57 l
83.0993 326.57 l
83.2126 327.36 l
83.666 327.36 l
83.7793 327.984 l
84.176 327.984 l
84.2894 327.449 l
84.7994 327.449 l
84.9694 327.168 l
85.9328 327.246 l
86.1029 327.347 l
86.4996 327.347 l
86.6696 327.195 l
88.1997 327.193 l
88.3131 328.651 l
88.7664 328.651 l
88.8798 329.28 l
89.3332 329.28 l
89.4465 330.229 l
89.8432 330.229 l
90.0132 330.429 l
90.4666 330.429 l
90.6366 330.674 l
91.0333 330.674 l
91.1467 331.512 l
91.6 331.512 l
91.7134 331.194 l
92.1668 331.194 l
92.2801 332.148 l
92.6768 332.148 l
92.7901 332.671 l
93.3002 332.671 l
93.4135 333.141 l
93.8669 333.141 l
94.0369 333.356 l
94.4336 333.356 l
94.547 334 l
95.0003 334 l
95.1137 334.762 l
95.5104 334.762 l
95.6237 335.156 l
96.1338 335.156 l
96.2471 335.835 l
96.7005 335.835 l
96.8138 336.261 l
97.2672 336.261 l
97.3806 336.897 l
97.8339 336.897 l
97.9473 337.18 l
98.9674 337.228 l
99.0807 337.569 l
99.5341 337.569 l
99.6474 337.893 l
100.668 337.86 l
100.838 337.695 l
101.801 337.681 l
101.971 337.529 l
102.368 337.529 l
102.538 337.392 l
102.934 337.392 l
103.048 337.109 l
103.501 337.109 l
103.671 336.889 l
104.011 336.889 l
104.181 336.633 l
104.635 336.633 l
104.748 336.316 l
105.768 336.268 l
105.938 336.011 l
106.845 335.906 l
106.958 336.35 l
107.468 336.35 l
107.638 336.496 l
108.035 336.496 l
108.205 336.646 l
108.602 336.646 l
108.772 336.789 l
109.678 336.863 l
109.848 337.025 l
110.302 337.025 l
110.472 337.196 l
111.435 337.3 l
111.605 337.397 l
112.512 337.489 l
112.682 337.604 l
113.135 337.604 l
113.305 337.763 l
113.702 337.763 l
113.872 338.043 l
114.269 338.043 l
114.439 338.201 l
115.346 338.302 l
115.516 338.479 l
115.969 338.479 l
116.082 338.764 l
116.536 338.764 l
116.649 339.134 l
117.102 339.134 l
117.272 339.3 l
117.669 339.3 l
117.782 339.67 l
118.179 339.67 l
118.349 339.822 l
119.936 339.779 l
120.106 339.643 l
120.503 339.643 l
120.673 339.449 l
123.846 339.505 l
124.016 339.664 l
125.036 339.734 l
125.206 339.991 l
126.17 340.062 l
126.283 340.347 l
126.68 340.347 l
126.85 340.46 l
127.303 340.46 l
127.473 340.596 l
127.87 340.596 l
128.04 340.723 l
129.003 340.821 l
129.173 340.877 l
130.137 340.967 l
130.307 341.166 l
130.704 341.166 l
130.874 341.379 l
131.27 341.379 l
131.44 341.631 l
131.837 341.631 l
132.007 341.759 l
132.97 341.849 l
133.141 341.9 l
134.104 341.926 l
134.274 342.105 l
135.804 342.149 l
135.917 342.471 l
136.371 342.471 l
136.541 342.672 l
136.938 342.672 l
137.108 342.881 l
137.504 342.881 l
137.674 343.054 l
138.638 342.974 l
138.808 342.902 l
139.204 342.902 l
139.374 342.709 l
143.681 342.633 l
143.852 342.564 l
144.872 342.501 l
145.042 342.442 l
146.005 342.337 l
146.288 342.308 l
147.138 342.23 l
147.308 342.159 l
150.539 342.077 l
150.765 342.045 l
153.372 342.043 l
153.542 341.932 l
159.606 342.034 l
160.57 342.086 l
163.007 342.182 l
163.177 342.253 l
164.707 342.329 l
164.877 342.39 l
166.35 342.498 l
166.917 342.511 l
167.54 342.565 l
167.71 342.623 l
169.184 342.703 l
169.354 342.8 l
170.374 342.855 l
170.544 342.918 l
172.017 343.007 l
172.301 343.038 l
175.474 343.13 l
175.701 343.166 l
177.685 343.273 l
177.911 343.306 l
180.008 343.21 l
180.178 343.125 l
181.708 343.021 l
181.878 342.96 l
190.209 343.054 l
190.549 343.076 l
191.853 343.183 l
192.023 343.322 l
193.043 343.4 l
193.213 343.512 l
193.609 343.512 l
193.779 343.647 l
194.686 343.722 l
194.856 343.79 l
199.843 343.746 l
200.013 343.676 l
200.977 343.571 l
201.147 343.486 l
202.11 343.411 l
202.28 343.347 l
203.187 343.287 l
203.357 343.212 l
204.377 343.141 l
204.547 343.061 l
208.344 343.13 l
208.571 343.173 l
217.978 343.083 l
218.205 343.05 l
220.812 343.14 l
220.982 343.215 l
221.945 343.322 l
222.115 343.408 l
223.022 343.467 l
223.192 343.558 l
231.523 343.452 l
231.75 343.417 l
234.356 343.308 l
234.583 343.259 l
236.113 343.177 l
236.397 343.147 l
238.947 343.199 l
239.117 343.275 l
240.024 343.343 l
240.194 343.422 l
241.781 343.523 l
242.234 343.538 l
250.848 343.439 l
251.301 343.424 l
258.782 343.511 l
258.952 343.568 l
260.482 343.648 l
260.709 343.687 l
263.883 343.788 l
264.223 343.809 l
265.526 343.879 l
265.753 343.922 l
270.683 344.024 l
271.363 344.031 l
299.019 344.139 l
299.359 344.161 l
326.788 344.266 l
327.638 344.282 l
425.397 344.181 l
425.907 344.168 l
449.2 344.077 l
449.483 344.047 l
494.537 344.158 l
497.031 344.168 l
516.809 344.217 l
516.809 344.217 l
stroke
grestore
0.500 setlinewidth
[1 3] 0 setdash
0.000 setgray
gsave
453.4 103.8 73.12 293.1 clipbox
73.125 293.135 m
73.125 396.9 l
stroke
grestore
[] 0 setdash
gsave
/o {
gsave
newpath
translate
0.5 setlinewidth
1 setlinejoin
0 setlinecap
0 0 m
0 4 l
gsave
0.000 setgray
fill
grestore
stroke
grestore
} bind def
73.125 293.135 o
grestore
gsave
/o {
gsave
newpath
translate
0.5 setlinewidth
1 setlinejoin
0 setlinecap
0 0 m
0 -4 l
gsave
0.000 setgray
fill
grestore
stroke
grestore
} bind def
73.125 396.9 o
grestore
/DejaVuSans findfont
12.000 scalefont
setfont
gsave
70.101562 280.057169 translate
0.000000 rotate
0.000000 0.171875 m /zero glyphshow
grestore
[1 3] 0 setdash
gsave
453.4 103.8 73.12 293.1 clipbox
129.797 293.135 m
129.797 396.9 l
stroke
grestore
[] 0 setdash
gsave
/o {
gsave
newpath
translate
0.5 setlinewidth
1 setlinejoin
0 setlinecap
0 0 m
0 4 l
gsave
0.000 setgray
fill
grestore
stroke
grestore
} bind def
129.797 293.135 o
grestore
gsave
/o {
gsave
newpath
translate
0.5 setlinewidth
1 setlinejoin
0 setlinecap
0 0 m
0 -4 l
gsave
0.000 setgray
fill
grestore
stroke
grestore
} bind def
129.797 396.9 o
grestore
gsave
126.960938 280.213419 translate
0.000000 rotate
0.000000 0.171875 m /five glyphshow
grestore
[1 3] 0 setdash
gsave
453.4 103.8 73.12 293.1 clipbox
186.469 293.135 m
186.469 396.9 l
stroke
grestore
[] 0 setdash
gsave
/o {
gsave
newpath
translate
0.5 setlinewidth
1 setlinejoin
0 setlinecap
0 0 m
0 4 l
gsave
0.000 setgray
fill
grestore
stroke
grestore
} bind def
186.469 293.135 o
grestore
gsave
/o {
gsave
newpath
translate
0.5 setlinewidth
1 setlinejoin
0 setlinecap
0 0 m
0 -4 l
gsave
0.000 setgray
fill
grestore
stroke
grestore
} bind def
186.469 396.9 o
grestore
gsave
179.882812 280.057169 translate
0.000000 rotate
0.000000 0.171875 m /one glyphshow
7.634766 0.171875 m /zero glyphshow
grestore
[1 3] 0 setdash
gsave
453.4 103.8 73.12 293.1 clipbox
243.141 293.135 m
243.141 396.9 l
stroke
grestore
[] 0 setdash
gsave
/o {
gsave
newpath
translate
0.5 setlinewidth
1 setlinejoin
0 setlinecap
0 0 m
0 4 l
gsave
0.000 setgray
fill
grestore
stroke
grestore
} bind def
243.141 293.135 o
grestore
gsave
/o {
gsave
newpath
translate
0.5 setlinewidth
1 setlinejoin
0 setlinecap
0 0 m
0 -4 l
gsave
0.000 setgray
fill
grestore
stroke
grestore
} bind def
243.141 396.9 o
grestore
gsave
236.679688 280.213419 translate
0.000000 rotate
0.000000 0.171875 m /one glyphshow
7.634766 0.171875 m /five glyphshow
grestore
[1 3] 0 setdash
gsave
453.4 103.8 73.12 293.1 clipbox
299.812 293.135 m
299.812 396.9 l
stroke
grestore
[] 0 setdash
gsave
/o {
gsave
newpath
translate
0.5 setlinewidth
1 setlinejoin
0 setlinecap
0 0 m
0 4 l
gsave
0.000 setgray
fill
grestore
stroke
grestore
} bind def
299.812 293.135 o
grestore
gsave
/o {
gsave
newpath
translate
0.5 setlinewidth
1 setlinejoin
0 setlinecap
0 0 m
0 -4 l
gsave
0.000 setgray
fill
grestore
stroke
grestore
} bind def
299.812 396.9 o
grestore
gsave
293.007812 280.057169 translate
0.000000 rotate
0.000000 0.171875 m /two glyphshow
7.634766 0.171875 m /zero glyphshow
grestore
[1 3] 0 setdash
gsave
453.4 103.8 73.12 293.1 clipbox
356.484 293.135 m
356.484 396.9 l
stroke
grestore
[] 0 setdash
gsave
/o {
gsave
newpath
translate
0.5 setlinewidth
1 setlinejoin
0 setlinecap
0 0 m
0 4 l
gsave
0.000 setgray
fill
grestore
stroke
grestore
} bind def
356.484 293.135 o
grestore
gsave
/o {
gsave
newpath
translate
0.5 setlinewidth
1 setlinejoin
0 setlinecap
0 0 m
0 -4 l
gsave
0.000 setgray
fill
grestore
stroke
grestore
} bind def
356.484 396.9 o
grestore
gsave
349.804688 280.057169 translate
0.000000 rotate
0.000000 0.171875 m /two glyphshow
7.634766 0.171875 m /five glyphshow
grestore
[1 3] 0 setdash
gsave
453.4 103.8 73.12 293.1 clipbox
413.156 293.135 m
413.156 396.9 l
stroke
grestore
[] 0 setdash
gsave
/o {
gsave
newpath
translate
0.5 setlinewidth
1 setlinejoin
0 setlinecap
0 0 m
0 4 l
gsave
0.000 setgray
fill
grestore
stroke
grestore
} bind def
413.156 293.135 o
grestore
gsave
/o {
gsave
newpath
translate
0.5 setlinewidth
1 setlinejoin
0 setlinecap
0 0 m
0 -4 l
gsave
0.000 setgray
fill
grestore
stroke
grestore
} bind def
413.156 396.9 o
grestore
gsave
406.375000 280.057169 translate
0.000000 rotate
0.000000 0.171875 m /three glyphshow
7.634766 0.171875 m /zero glyphshow
grestore
[1 3] 0 setdash
gsave
453.4 103.8 73.12 293.1 clipbox
469.828 293.135 m
469.828 396.9 l
stroke
grestore
[] 0 setdash
gsave
/o {
gsave
newpath
translate
0.5 setlinewidth
1 setlinejoin
0 setlinecap
0 0 m
0 4 l
gsave
0.000 setgray
fill
grestore
stroke
grestore
} bind def
469.828 293.135 o
grestore
gsave
/o {
gsave
newpath
translate
0.5 setlinewidth
1 setlinejoin
0 setlinecap
0 0 m
0 -4 l
gsave
0.000 setgray
fill
grestore
stroke
grestore
} bind def
469.828 396.9 o
grestore
gsave
463.171875 280.057169 translate
0.000000 rotate
0.000000 0.171875 m /three glyphshow
7.634766 0.171875 m /five glyphshow
grestore
[1 3] 0 setdash
gsave
453.4 103.8 73.12 293.1 clipbox
526.5 293.135 m
526.5 396.9 l
stroke
grestore
[] 0 setdash
gsave
/o {
gsave
newpath
translate
0.5 setlinewidth
1 setlinejoin
0 setlinecap
0 0 m
0 4 l
gsave
0.000 setgray
fill
grestore
stroke
grestore
} bind def
526.5 293.135 o
grestore
gsave
/o {
gsave
newpath
translate
0.5 setlinewidth
1 setlinejoin
0 setlinecap
0 0 m
0 -4 l
gsave
0.000 setgray
fill
grestore
stroke
grestore
} bind def
526.5 396.9 o
grestore
gsave
519.554688 280.057169 translate
0.000000 rotate
0.000000 0.171875 m /four glyphshow
7.634766 0.171875 m /zero glyphshow
grestore
[1 3] 0 setdash
gsave
453.4 103.8 73.12 293.1 clipbox
73.125 293.135 m
526.5 293.135 l
stroke
grestore
[] 0 setdash
gsave
/o {
gsave
newpath
translate
0.5 setlinewidth
1 setlinejoin
0 setlinecap
0 0 m
4 0 l
gsave
0.000 setgray
fill
grestore
stroke
grestore
} bind def
73.125 293.135 o
grestore
gsave
/o {
gsave
newpath
translate
0.5 setlinewidth
1 setlinejoin
0 setlinecap
0 0 m
-4 0 l
gsave
0.000 setgray
fill
grestore
stroke
grestore
} bind def
526.5 293.135 o
grestore
gsave
41.906250 288.596232 translate
0.000000 rotate
0.000000 0.171875 m /minus glyphshow
10.054688 0.171875 m /zero glyphshow
17.689453 0.171875 m /period glyphshow
21.503906 0.171875 m /four glyphshow
grestore
[1 3] 0 setdash
gsave
453.4 103.8 73.12 293.1 clipbox
73.125 306.106 m
526.5 306.106 l
stroke
grestore
[] 0 setdash
gsave
/o {
gsave
newpath
translate
0.5 setlinewidth
1 setlinejoin
0 setlinecap
0 0 m
4 0 l
gsave
0.000 setgray
fill
grestore
stroke
grestore
} bind def
73.125 306.106 o
grestore
gsave
/o {
gsave
newpath
translate
0.5 setlinewidth
1 setlinejoin
0 setlinecap
0 0 m
-4 0 l
gsave
0.000 setgray
fill
grestore
stroke
grestore
} bind def
526.5 306.106 o
grestore
gsave
42.203125 301.566820 translate
0.000000 rotate
0.000000 0.171875 m /minus glyphshow
10.054688 0.171875 m /zero glyphshow
17.689453 0.171875 m /period glyphshow
21.503906 0.171875 m /three glyphshow
grestore
[1 3] 0 setdash
gsave
453.4 103.8 73.12 293.1 clipbox
73.125 319.076 m
526.5 319.076 l
stroke
grestore
[] 0 setdash
gsave
/o {
gsave
newpath
translate
0.5 setlinewidth
1 setlinejoin
0 setlinecap
0 0 m
4 0 l
gsave
0.000 setgray
fill
grestore
stroke
grestore
} bind def
73.125 319.076 o
grestore
gsave
/o {
gsave
newpath
translate
0.5 setlinewidth
1 setlinejoin
0 setlinecap
0 0 m
-4 0 l
gsave
0.000 setgray
fill
grestore
stroke
grestore
} bind def
526.5 319.076 o
grestore
gsave
42.437500 314.537408 translate
0.000000 rotate
0.000000 0.171875 m /minus glyphshow
10.054688 0.171875 m /zero glyphshow
17.689453 0.171875 m /period glyphshow
21.503906 0.171875 m /two glyphshow
grestore
[1 3] 0 setdash
gsave
453.4 103.8 73.12 293.1 clipbox
73.125 332.047 m
526.5 332.047 l
stroke
grestore
[] 0 setdash
gsave
/o {
gsave
newpath
translate
0.5 setlinewidth
1 setlinejoin
0 setlinecap
0 0 m
4 0 l
gsave
0.000 setgray
fill
grestore
stroke
grestore
} bind def
73.125 332.047 o
grestore
gsave
/o {
gsave
newpath
translate
0.5 setlinewidth
1 setlinejoin
0 setlinecap
0 0 m
-4 0 l
gsave
0.000 setgray
fill
grestore
stroke
grestore
} bind def
526.5 332.047 o
grestore
gsave
42.343750 327.507996 translate
0.000000 rotate
0.000000 0.171875 m /minus glyphshow
10.054688 0.171875 m /zero glyphshow
17.689453 0.171875 m /period glyphshow
21.503906 0.171875 m /one glyphshow
grestore
[1 3] 0 setdash
gsave
453.4 103.8 73.12 293.1 clipbox
73.125 345.018 m
526.5 345.018 l
stroke
grestore
[] 0 setdash
gsave
/o {
gsave
newpath
translate
0.5 setlinewidth
1 setlinejoin
0 setlinecap
0 0 m
4 0 l
gsave
0.000 setgray
fill
grestore
stroke
grestore
} bind def
73.125 345.018 o
grestore
gsave
/o {
gsave
newpath
translate
0.5 setlinewidth
1 setlinejoin
0 setlinecap
0 0 m
-4 0 l
gsave
0.000 setgray
fill
grestore
stroke
grestore
} bind def
526.5 345.018 o
grestore
gsave
51.625000 340.478585 translate
0.000000 rotate
0.000000 0.171875 m /zero glyphshow
7.634766 0.171875 m /period glyphshow
11.449219 0.171875 m /zero glyphshow
grestore
[1 3] 0 setdash
gsave
453.4 103.8 73.12 293.1 clipbox
73.125 357.988 m
526.5 357.988 l
stroke
grestore
[] 0 setdash
gsave
/o {
gsave
newpath
translate
0.5 setlinewidth
1 setlinejoin
0 setlinecap
0 0 m
4 0 l
gsave
0.000 setgray
fill
grestore
stroke
grestore
} bind def
73.125 357.988 o
grestore
gsave
/o {
gsave
newpath
translate
0.5 setlinewidth
1 setlinejoin
0 setlinecap
0 0 m
-4 0 l
gsave
0.000 setgray
fill
grestore
stroke
grestore
} bind def
526.5 357.988 o
grestore
gsave
51.937500 353.449173 translate
0.000000 rotate
0.000000 0.171875 m /zero glyphshow
7.634766 0.171875 m /period glyphshow
11.449219 0.171875 m /one glyphshow
grestore
[1 3] 0 setdash
gsave
453.4 103.8 73.12 293.1 clipbox
73.125 370.959 m
526.5 370.959 l
stroke
grestore
[] 0 setdash
gsave
/o {
gsave
newpath
translate
0.5 setlinewidth
1 setlinejoin
0 setlinecap
0 0 m
4 0 l
gsave
0.000 setgray
fill
grestore
stroke
grestore
} bind def
73.125 370.959 o
grestore
gsave
/o {
gsave
newpath
translate
0.5 setlinewidth
1 setlinejoin
0 setlinecap
0 0 m
-4 0 l
gsave
0.000 setgray
fill
grestore
stroke
grestore
} bind def
526.5 370.959 o
grestore
gsave
52.031250 366.419761 translate
0.000000 rotate
0.000000 0.171875 m /zero glyphshow
7.634766 0.171875 m /period glyphshow
11.449219 0.171875 m /two glyphshow
grestore
[1 3] 0 setdash
gsave
453.4 103.8 73.12 293.1 clipbox
73.125 383.929 m
526.5 383.929 l
stroke
grestore
[] 0 setdash
gsave
/o {
gsave
newpath
translate
0.5 setlinewidth
1 setlinejoin
0 setlinecap
0 0 m
4 0 l
gsave
0.000 setgray
fill
grestore
stroke
grestore
} bind def
73.125 383.929 o
grestore
gsave
/o {
gsave
newpath
translate
0.5 setlinewidth
1 setlinejoin
0 setlinecap
0 0 m
-4 0 l
gsave
0.000 setgray
fill
grestore
stroke
grestore
} bind def
526.5 383.929 o
grestore
gsave
51.796875 379.390349 translate
0.000000 rotate
0.000000 0.171875 m /zero glyphshow
7.634766 0.171875 m /period glyphshow
11.449219 0.171875 m /three glyphshow
grestore
[1 3] 0 setdash
gsave
453.4 103.8 73.12 293.1 clipbox
73.125 396.9 m
526.5 396.9 l
stroke
grestore
[] 0 setdash
gsave
/o {
gsave
newpath
translate
0.5 setlinewidth
1 setlinejoin
0 setlinecap
0 0 m
4 0 l
gsave
0.000 setgray
fill
grestore
stroke
grestore
} bind def
73.125 396.9 o
grestore
gsave
/o {
gsave
newpath
translate
0.5 setlinewidth
1 setlinejoin
0 setlinecap
0 0 m
-4 0 l
gsave
0.000 setgray
fill
grestore
stroke
grestore
} bind def
526.5 396.9 o
grestore
gsave
51.500000 392.360937 translate
0.000000 rotate
0.000000 0.171875 m /zero glyphshow
7.634766 0.171875 m /period glyphshow
11.449219 0.171875 m /four glyphshow
grestore
gsave
36.906250 315.697335 translate
90.000000 rotate
0.000000 2.828125 m /d glyphshow
7.617188 2.828125 m /underscore glyphshow
13.617188 2.828125 m /x glyphshow
20.718750 2.828125 m /bracketleft glyphshow
25.400391 2.828125 m /r glyphshow
30.333984 2.828125 m /a glyphshow
37.687500 2.828125 m /d glyphshow
45.304688 2.828125 m /slash glyphshow
49.347656 2.828125 m /s glyphshow
55.599609 2.828125 m /bracketright glyphshow
grestore
1.000 setlinewidth
2 setlinecap
gsave
73.125 396.9 m
526.5 396.9 l
stroke
grestore
gsave
526.5 293.135 m
526.5 396.9 l
stroke
grestore
gsave
73.125 293.135 m
526.5 293.135 l
stroke
grestore
gsave
73.125 293.135 m
73.125 396.9 l
stroke
grestore
/DejaVuSans findfont
14.400 scalefont
setfont
gsave
244.726562 398.993750 translate
0.000000 rotate
0.000000 2.906250 m /G glyphshow
11.151321 2.906250 m /y glyphshow
19.667648 2.906250 m /r glyphshow
25.209106 2.906250 m /o glyphshow
34.013519 2.906250 m /s glyphshow
41.510971 2.906250 m /c glyphshow
49.423004 2.906250 m /o glyphshow
58.227417 2.906250 m /p glyphshow
67.362091 2.906250 m /e glyphshow
76.215698 2.906250 m /space glyphshow
80.790054 2.906250 m /B glyphshow
90.662521 2.906250 m /i glyphshow
94.660690 2.906250 m /a glyphshow
103.479156 2.906250 m /s glyphshow
grestore
gsave
73.125 168.618 m
526.5 168.618 l
526.5 272.382 l
73.125 272.382 l
cl
1.000 setgray
fill
grestore
1.000 0.000 0.000 setrgbcolor
gsave
453.4 103.8 73.12 168.6 clipbox
73.125 220.5 m
73.465 220.5 l
73.5784 218.427 l
74.0318 218.427 l
74.1451 218.051 l
75.1652 218.134 l
75.3352 218.232 l
75.6752 218.232 l
75.8453 218.069 l
76.8653 218.068 l
76.9787 217.779 l
77.4321 217.779 l
77.5454 217.287 l
77.9988 217.287 l
78.1688 217.13 l
78.5088 217.13 l
78.6788 216.93 l
79.1322 216.93 l
79.2456 216.322 l
79.6989 216.322 l
79.8123 215.961 l
80.2657 215.961 l
80.4357 216.082 l
80.8324 216.082 l
80.9457 216.382 l
81.3424 216.382 l
81.5124 216.524 l
83.0993 216.509 l
83.2126 216.81 l
83.666 216.81 l
83.7793 217.506 l
84.176 217.506 l
84.2894 219.074 l
84.7994 219.074 l
84.9128 219.683 l
85.3661 219.683 l
85.4795 220.597 l
85.9328 220.597 l
86.0462 221.158 l
86.4996 221.158 l
86.6129 221.68 l
87.0096 221.68 l
87.123 222.027 l
87.633 222.027 l
87.7463 222.882 l
88.1997 222.882 l
88.3131 224.255 l
88.7664 224.255 l
88.8798 224.568 l
89.3332 224.568 l
89.5032 224.737 l
90.4666 224.787 l
90.6366 224.936 l
91.0333 224.936 l
91.1467 225.337 l
91.6 225.337 l
91.77 225.191 l
92.1668 225.191 l
92.2801 225.795 l
92.6768 225.795 l
92.7901 226.602 l
93.3002 226.602 l
93.4135 227.165 l
93.8669 227.165 l
94.0369 227.036 l
94.4336 227.036 l
94.6036 227.236 l
95.0003 227.236 l
95.1704 227.353 l
95.5104 227.353 l
95.6237 226.442 l
96.1338 226.442 l
96.2471 225.516 l
96.7005 225.516 l
96.8138 224.599 l
97.2672 224.599 l
97.3806 223.957 l
97.8339 223.957 l
97.9473 223.505 l
98.344 223.505 l
98.4573 223.088 l
98.9674 223.088 l
99.0807 222.61 l
99.5341 222.61 l
99.6474 221.999 l
100.101 221.999 l
100.214 221.506 l
100.668 221.506 l
100.781 220.759 l
101.178 220.759 l
101.348 220.55 l
101.801 220.55 l
101.914 220.147 l
102.368 220.147 l
102.481 219.859 l
102.934 219.859 l
103.048 219.343 l
103.501 219.343 l
103.671 219.09 l
104.011 219.09 l
104.181 218.821 l
104.635 218.821 l
104.748 218.525 l
105.768 218.503 l
105.938 218.338 l
106.335 218.338 l
106.505 218.224 l
106.845 218.224 l
106.958 218.872 l
107.468 218.872 l
107.638 219.015 l
108.035 219.015 l
108.205 219.217 l
108.602 219.217 l
108.772 219.333 l
109.168 219.333 l
109.338 219.518 l
109.678 219.518 l
109.848 219.75 l
110.302 219.75 l
110.472 219.878 l
113.135 219.895 l
113.305 220.008 l
114.269 220.086 l
114.439 220.17 l
118.803 220.137 l
118.973 219.997 l
119.369 219.997 l
119.539 219.857 l
120.503 219.817 l
120.673 219.693 l
121.636 219.652 l
121.806 219.57 l
125.603 219.662 l
125.83 219.697 l
127.303 219.79 l
127.7 219.809 l
130.704 219.91 l
130.874 219.981 l
132.347 220.083 l
132.8 220.098 l
135.181 220.036 l
135.351 219.954 l
136.371 220.065 l
136.598 220.107 l
137.504 220.175 l
137.731 220.224 l
138.638 220.142 l
138.808 220.07 l
142.038 219.984 l
142.265 219.947 l
143.681 219.858 l
143.852 219.802 l
144.872 219.739 l
145.042 219.683 l
146.005 219.606 l
146.175 219.55 l
147.705 219.445 l
147.932 219.402 l
150.539 219.295 l
150.765 219.251 l
153.372 219.179 l
153.542 219.122 l
163.517 219.217 l
163.8 219.245 l
169.184 219.339 l
169.354 219.396 l
171.507 219.492 l
171.734 219.525 l
174.851 219.623 l
175.134 219.65 l
181.708 219.557 l
181.935 219.523 l
192.476 219.596 l
192.703 219.636 l
193.609 219.698 l
193.779 219.779 l
195.876 219.877 l
196.216 219.898 l
199.843 219.833 l
200.013 219.771 l
200.977 219.693 l
201.147 219.63 l
202.677 219.533 l
202.904 219.495 l
204.377 219.403 l
204.547 219.352 l
210.044 219.458 l
210.894 219.472 l
217.355 219.362 l
217.582 219.33 l
221.945 219.414 l
222.172 219.446 l
234.98 219.347 l
235.263 219.317 l
252.548 219.239 l
252.775 219.204 l
265.016 219.302 l
265.469 219.317 l
343.223 219.428 l
352.744 219.437 l
516.809 219.386 l
516.809 219.386 l
stroke
grestore
0 setlinecap
[6 6] 0 setdash
gsave
453.4 103.8 73.12 168.6 clipbox
73.125 259.412 m
73.465 259.412 l
73.5784 251.329 l
74.0318 251.329 l
74.1451 250.14 l
74.5985 250.14 l
74.7118 249.591 l
75.1652 249.591 l
75.2785 249.195 l
75.6752 249.195 l
75.7886 248.44 l
76.2986 248.44 l
76.412 247.796 l
76.8653 247.796 l
76.9787 246.999 l
77.4321 246.999 l
77.5454 245.921 l
77.9988 245.921 l
78.1121 245.254 l
78.5088 245.254 l
78.6222 244.559 l
79.1322 244.559 l
79.2456 243.467 l
79.6989 243.467 l
79.8123 242.631 l
80.2657 242.631 l
80.379 242.237 l
80.8324 242.237 l
81.0024 242.039 l
81.3424 242.039 l
81.5124 241.83 l
81.9658 241.83 l
82.0792 241.328 l
82.5325 241.328 l
82.6459 240.921 l
83.0993 240.921 l
83.2693 240.791 l
83.666 240.791 l
83.836 241.005 l
84.176 241.005 l
84.2894 241.626 l
84.7994 241.626 l
84.9694 241.381 l
85.3661 241.381 l
85.4795 241.683 l
85.9328 241.683 l
86.1029 241.848 l
87.633 241.771 l
87.7463 242.192 l
88.1997 242.192 l
88.3131 241.638 l
88.7664 241.638 l
88.8798 240.939 l
89.3332 240.939 l
89.4465 240.325 l
89.8432 240.325 l
89.9565 239.814 l
90.4666 239.814 l
90.5799 239.524 l
91.6 239.543 l
91.7134 239.045 l
92.1668 239.045 l
92.3368 239.256 l
92.6768 239.256 l
92.7901 239.655 l
93.3002 239.655 l
93.4702 239.857 l
93.8669 239.857 l
93.9803 239.35 l
94.4336 239.35 l
94.6036 239.115 l
95.0003 239.115 l
95.1137 238.783 l
95.5104 238.783 l
95.6237 237.397 l
96.1338 237.397 l
96.2471 236.04 l
96.7005 236.04 l
96.8138 234.722 l
97.2672 234.722 l
97.3806 233.729 l
97.8339 233.729 l
97.9473 232.973 l
98.344 232.973 l
98.4573 232.3 l
98.9674 232.3 l
99.0807 231.551 l
99.5341 231.551 l
99.6474 230.682 l
100.101 230.682 l
100.214 229.952 l
100.668 229.952 l
100.781 228.944 l
101.178 228.944 l
101.291 228.322 l
101.801 228.322 l
101.914 227.607 l
102.368 227.607 l
102.481 227.016 l
102.934 227.016 l
103.048 226.228 l
103.501 226.228 l
103.614 225.7 l
104.011 225.7 l
104.125 225.173 l
104.635 225.173 l
104.748 224.647 l
105.201 224.647 l
105.371 224.427 l
105.768 224.427 l
105.881 224.075 l
106.335 224.075 l
106.448 223.761 l
106.845 223.761 l
106.958 224.2 l
107.468 224.2 l
107.638 224.032 l
108.602 223.983 l
108.772 223.886 l
111.435 223.788 l
111.605 223.629 l
112.512 223.559 l
112.682 223.467 l
117.102 223.383 l
117.272 223.323 l
118.803 223.234 l
118.973 223.053 l
119.369 223.053 l
119.539 222.871 l
120.503 222.814 l
120.673 222.674 l
121.636 222.616 l
121.806 222.52 l
126.68 222.623 l
127.133 222.639 l
133.537 222.579 l
133.707 222.476 l
135.181 222.366 l
135.351 222.224 l
138.638 222.17 l
138.808 222.074 l
139.204 222.074 l
139.374 221.952 l
142.605 221.887 l
142.775 221.834 l
143.681 221.774 l
143.852 221.705 l
144.872 221.631 l
145.042 221.56 l
146.005 221.471 l
146.175 221.4 l
147.138 221.337 l
147.308 221.268 l
148.839 221.181 l
149.065 221.142 l
150.539 221.038 l
150.709 220.975 l
152.806 220.881 l
153.089 220.854 l
154.506 220.762 l
154.846 220.741 l
170.374 220.839 l
170.657 220.869 l
173.208 220.973 l
173.548 220.993 l
177.685 221.097 l
178.535 221.101 l
180.008 221.032 l
180.178 220.981 l
182.275 220.88 l
182.558 220.851 l
194.176 220.957 l
194.459 220.986 l
199.843 220.941 l
200.013 220.854 l
200.977 220.752 l
201.147 220.668 l
202.11 220.598 l
202.28 220.543 l
203.81 220.442 l
203.98 220.391 l
204.944 220.334 l
205.114 220.277 l
217.355 220.187 l
217.582 220.146 l
233.846 220.043 l
234.3 220.029 l
236.113 219.94 l
236.397 219.912 l
249.148 219.811 l
249.545 219.794 l
251.981 219.723 l
252.208 219.681 l
255.382 219.577 l
255.948 219.565 l
261.446 219.576 l
447.499 219.467 l
448.576 219.457 l
516.809 219.481 l
516.809 219.481 l
stroke
grestore
gsave
453.4 103.8 73.12 168.6 clipbox
73.125 181.588 m
73.465 181.588 l
73.5784 185.526 l
74.0318 185.526 l
74.1451 185.962 l
74.5985 185.962 l
74.7118 186.678 l
75.1652 186.678 l
75.2785 187.27 l
75.6752 187.27 l
75.7886 187.697 l
76.2986 187.697 l
76.412 188.339 l
76.8653 188.339 l
77.0354 188.558 l
77.9988 188.653 l
78.1121 189.005 l
78.5088 189.005 l
78.6222 189.301 l
79.1322 189.301 l
79.3022 189.177 l
79.6989 189.177 l
79.869 189.292 l
80.2657 189.292 l
80.379 189.928 l
80.8324 189.928 l
80.9457 190.726 l
81.3424 190.726 l
81.4558 191.218 l
81.9658 191.218 l
82.0792 191.574 l
82.5325 191.574 l
82.6459 192.097 l
83.0993 192.097 l
83.2126 192.83 l
83.666 192.83 l
83.7793 194.007 l
84.176 194.007 l
84.2894 196.522 l
84.7994 196.522 l
84.9128 197.985 l
85.3661 197.985 l
85.4795 199.512 l
85.9328 199.512 l
86.0462 200.468 l
86.4996 200.468 l
86.6129 201.437 l
87.0096 201.437 l
87.123 202.283 l
87.633 202.283 l
87.7463 203.572 l
88.1997 203.572 l
88.3131 206.873 l
88.7664 206.873 l
88.8798 208.197 l
89.3332 208.197 l
89.4465 209.149 l
89.8432 209.149 l
89.9565 209.76 l
90.4666 209.76 l
90.5799 210.349 l
91.0333 210.349 l
91.1467 211.131 l
91.6 211.131 l
91.77 211.336 l
92.1668 211.336 l
92.2801 212.334 l
92.6768 212.334 l
92.7901 213.549 l
93.3002 213.549 l
93.4135 214.474 l
93.8669 214.474 l
94.0369 214.722 l
94.4336 214.722 l
94.547 215.358 l
95.0003 215.358 l
95.1137 215.922 l
95.5104 215.922 l
95.6237 215.487 l
96.1338 215.487 l
96.2471 214.993 l
96.7005 214.993 l
96.8138 214.477 l
97.2672 214.477 l
97.3806 214.185 l
97.8339 214.185 l
98.004 214.036 l
98.344 214.036 l
98.514 213.877 l
98.9674 213.877 l
99.1374 213.668 l
99.5341 213.668 l
99.6474 213.316 l
100.101 213.316 l
100.271 213.06 l
100.668 213.06 l
100.781 212.574 l
101.178 212.574 l
101.348 212.779 l
102.934 212.701 l
103.104 212.458 l
105.201 212.403 l
105.371 212.579 l
106.845 212.687 l
106.958 213.543 l
107.468 213.543 l
107.582 213.998 l
108.035 213.998 l
108.148 214.452 l
108.602 214.452 l
108.715 214.78 l
109.168 214.78 l
109.282 215.146 l
109.678 215.146 l
109.792 215.548 l
110.302 215.548 l
110.472 215.829 l
110.868 215.829 l
111.038 215.981 l
111.435 215.981 l
111.605 216.096 l
112.002 216.096 l
112.172 216.23 l
113.135 216.324 l
113.305 216.503 l
113.702 216.503 l
113.872 216.649 l
114.269 216.649 l
114.439 216.786 l
116.536 216.88 l
116.706 216.952 l
119.936 216.842 l
120.276 216.82 l
121.013 216.711 l
121.353 216.689 l
125.603 216.769 l
125.83 216.815 l
126.68 216.882 l
126.85 216.941 l
128.437 217.045 l
128.607 217.107 l
130.704 217.213 l
130.874 217.317 l
131.27 217.317 l
131.44 217.437 l
132.347 217.498 l
132.517 217.552 l
134.104 217.579 l
134.274 217.67 l
135.804 217.684 l
135.974 217.856 l
136.938 217.955 l
137.108 218.07 l
143.171 217.976 l
143.398 217.942 l
144.872 217.847 l
145.098 217.805 l
146.515 217.7 l
146.742 217.665 l
149.972 217.556 l
152.182 217.485 l
152.466 217.516 l
163.517 217.616 l
163.743 217.655 l
165.84 217.746 l
166.124 217.775 l
168.674 217.881 l
168.957 217.908 l
170.374 218.012 l
170.601 218.053 l
172.641 218.157 l
173.038 218.175 l
176.041 218.28 l
177.401 218.338 l
180.518 218.253 l
180.745 218.22 l
191.853 218.276 l
192.023 218.372 l
193.043 218.427 l
193.213 218.505 l
194.176 218.602 l
194.346 218.658 l
202.11 218.555 l
202.394 218.523 l
204.377 218.416 l
204.604 218.371 l
208.344 218.446 l
208.571 218.486 l
220.812 218.57 l
221.039 218.615 l
222.512 218.723 l
222.739 218.758 l
236.113 218.649 l
236.623 218.636 l
239.514 218.723 l
239.74 218.76 l
258.782 218.844 l
259.065 218.875 l
262.692 218.985 l
265.979 219.06 l
282.528 219.166 l
283.944 219.174 l
347.7 219.284 l
349.797 219.291 l
516.809 219.292 l
516.809 219.292 l
stroke
grestore
0.500 setlinewidth
[1 3] 0 setdash
0.000 setgray
gsave
453.4 103.8 73.12 168.6 clipbox
73.125 168.618 m
73.125 272.382 l
stroke
grestore
[] 0 setdash
gsave
/o {
gsave
newpath
translate
0.5 setlinewidth
1 setlinejoin
0 setlinecap
0 0 m
0 4 l
gsave
0.000 setgray
fill
grestore
stroke
grestore
} bind def
73.125 168.618 o
grestore
gsave
/o {
gsave
newpath
translate
0.5 setlinewidth
1 setlinejoin
0 setlinecap
0 0 m
0 -4 l
gsave
0.000 setgray
fill
grestore
stroke
grestore
} bind def
73.125 272.382 o
grestore
/DejaVuSans findfont
12.000 scalefont
setfont
gsave
70.101562 155.539522 translate
0.000000 rotate
0.000000 0.171875 m /zero glyphshow
grestore
[1 3] 0 setdash
gsave
453.4 103.8 73.12 168.6 clipbox
129.797 168.618 m
129.797 272.382 l
stroke
grestore
[] 0 setdash
gsave
/o {
gsave
newpath
translate
0.5 setlinewidth
1 setlinejoin
0 setlinecap
0 0 m
0 4 l
gsave
0.000 setgray
fill
grestore
stroke
grestore
} bind def
129.797 168.618 o
grestore
gsave
/o {
gsave
newpath
translate
0.5 setlinewidth
1 setlinejoin
0 setlinecap
0 0 m
0 -4 l
gsave
0.000 setgray
fill
grestore
stroke
grestore
} bind def
129.797 272.382 o
grestore
gsave
126.960938 155.695772 translate
0.000000 rotate
0.000000 0.171875 m /five glyphshow
grestore
[1 3] 0 setdash
gsave
453.4 103.8 73.12 168.6 clipbox
186.469 168.618 m
186.469 272.382 l
stroke
grestore
[] 0 setdash
gsave
/o {
gsave
newpath
translate
0.5 setlinewidth
1 setlinejoin
0 setlinecap
0 0 m
0 4 l
gsave
0.000 setgray
fill
grestore
stroke
grestore
} bind def
186.469 168.618 o
grestore
gsave
/o {
gsave
newpath
translate
0.5 setlinewidth
1 setlinejoin
0 setlinecap
0 0 m
0 -4 l
gsave
0.000 setgray
fill
grestore
stroke
grestore
} bind def
186.469 272.382 o
grestore
gsave
179.882812 155.539522 translate
0.000000 rotate
0.000000 0.171875 m /one glyphshow
7.634766 0.171875 m /zero glyphshow
grestore
[1 3] 0 setdash
gsave
453.4 103.8 73.12 168.6 clipbox
243.141 168.618 m
243.141 272.382 l
stroke
grestore
[] 0 setdash
gsave
/o {
gsave
newpath
translate
0.5 setlinewidth
1 setlinejoin
0 setlinecap
0 0 m
0 4 l
gsave
0.000 setgray
fill
grestore
stroke
grestore
} bind def
243.141 168.618 o
grestore
gsave
/o {
gsave
newpath
translate
0.5 setlinewidth
1 setlinejoin
0 setlinecap
0 0 m
0 -4 l
gsave
0.000 setgray
fill
grestore
stroke
grestore
} bind def
243.141 272.382 o
grestore
gsave
236.679688 155.695772 translate
0.000000 rotate
0.000000 0.171875 m /one glyphshow
7.634766 0.171875 m /five glyphshow
grestore
[1 3] 0 setdash
gsave
453.4 103.8 73.12 168.6 clipbox
299.812 168.618 m
299.812 272.382 l
stroke
grestore
[] 0 setdash
gsave
/o {
gsave
newpath
translate
0.5 setlinewidth
1 setlinejoin
0 setlinecap
0 0 m
0 4 l
gsave
0.000 setgray
fill
grestore
stroke
grestore
} bind def
299.812 168.618 o
grestore
gsave
/o {
gsave
newpath
translate
0.5 setlinewidth
1 setlinejoin
0 setlinecap
0 0 m
0 -4 l
gsave
0.000 setgray
fill
grestore
stroke
grestore
} bind def
299.812 272.382 o
grestore
gsave
293.007812 155.539522 translate
0.000000 rotate
0.000000 0.171875 m /two glyphshow
7.634766 0.171875 m /zero glyphshow
grestore
[1 3] 0 setdash
gsave
453.4 103.8 73.12 168.6 clipbox
356.484 168.618 m
356.484 272.382 l
stroke
grestore
[] 0 setdash
gsave
/o {
gsave
newpath
translate
0.5 setlinewidth
1 setlinejoin
0 setlinecap
0 0 m
0 4 l
gsave
0.000 setgray
fill
grestore
stroke
grestore
} bind def
356.484 168.618 o
grestore
gsave
/o {
gsave
newpath
translate
0.5 setlinewidth
1 setlinejoin
0 setlinecap
0 0 m
0 -4 l
gsave
0.000 setgray
fill
grestore
stroke
grestore
} bind def
356.484 272.382 o
grestore
gsave
349.804688 155.539522 translate
0.000000 rotate
0.000000 0.171875 m /two glyphshow
7.634766 0.171875 m /five glyphshow
grestore
[1 3] 0 setdash
gsave
453.4 103.8 73.12 168.6 clipbox
413.156 168.618 m
413.156 272.382 l
stroke
grestore
[] 0 setdash
gsave
/o {
gsave
newpath
translate
0.5 setlinewidth
1 setlinejoin
0 setlinecap
0 0 m
0 4 l
gsave
0.000 setgray
fill
grestore
stroke
grestore
} bind def
413.156 168.618 o
grestore
gsave
/o {
gsave
newpath
translate
0.5 setlinewidth
1 setlinejoin
0 setlinecap
0 0 m
0 -4 l
gsave
0.000 setgray
fill
grestore
stroke
grestore
} bind def
413.156 272.382 o
grestore
gsave
406.375000 155.539522 translate
0.000000 rotate
0.000000 0.171875 m /three glyphshow
7.634766 0.171875 m /zero glyphshow
grestore
[1 3] 0 setdash
gsave
453.4 103.8 73.12 168.6 clipbox
469.828 168.618 m
469.828 272.382 l
stroke
grestore
[] 0 setdash
gsave
/o {
gsave
newpath
translate
0.5 setlinewidth
1 setlinejoin
0 setlinecap
0 0 m
0 4 l
gsave
0.000 setgray
fill
grestore
stroke
grestore
} bind def
469.828 168.618 o
grestore
gsave
/o {
gsave
newpath
translate
0.5 setlinewidth
1 setlinejoin
0 setlinecap
0 0 m
0 -4 l
gsave
0.000 setgray
fill
grestore
stroke
grestore
} bind def
469.828 272.382 o
grestore
gsave
463.171875 155.539522 translate
0.000000 rotate
0.000000 0.171875 m /three glyphshow
7.634766 0.171875 m /five glyphshow
grestore
[1 3] 0 setdash
gsave
453.4 103.8 73.12 168.6 clipbox
526.5 168.618 m
526.5 272.382 l
stroke
grestore
[] 0 setdash
gsave
/o {
gsave
newpath
translate
0.5 setlinewidth
1 setlinejoin
0 setlinecap
0 0 m
0 4 l
gsave
0.000 setgray
fill
grestore
stroke
grestore
} bind def
526.5 168.618 o
grestore
gsave
/o {
gsave
newpath
translate
0.5 setlinewidth
1 setlinejoin
0 setlinecap
0 0 m
0 -4 l
gsave
0.000 setgray
fill
grestore
stroke
grestore
} bind def
526.5 272.382 o
grestore
gsave
519.554688 155.539522 translate
0.000000 rotate
0.000000 0.171875 m /four glyphshow
7.634766 0.171875 m /zero glyphshow
grestore
[1 3] 0 setdash
gsave
453.4 103.8 73.12 168.6 clipbox
73.125 168.618 m
526.5 168.618 l
stroke
grestore
[] 0 setdash
gsave
/o {
gsave
newpath
translate
0.5 setlinewidth
1 setlinejoin
0 setlinecap
0 0 m
4 0 l
gsave
0.000 setgray
fill
grestore
stroke
grestore
} bind def
73.125 168.618 o
grestore
gsave
/o {
gsave
newpath
translate
0.5 setlinewidth
1 setlinejoin
0 setlinecap
0 0 m
-4 0 l
gsave
0.000 setgray
fill
grestore
stroke
grestore
} bind def
526.5 168.618 o
grestore
gsave
41.906250 164.078585 translate
0.000000 rotate
0.000000 0.171875 m /minus glyphshow
10.054688 0.171875 m /zero glyphshow
17.689453 0.171875 m /period glyphshow
21.503906 0.171875 m /four glyphshow
grestore
[1 3] 0 setdash
gsave
453.4 103.8 73.12 168.6 clipbox
73.125 181.588 m
526.5 181.588 l
stroke
grestore
[] 0 setdash
gsave
/o {
gsave
newpath
translate
0.5 setlinewidth
1 setlinejoin
0 setlinecap
0 0 m
4 0 l
gsave
0.000 setgray
fill
grestore
stroke
grestore
} bind def
73.125 181.588 o
grestore
gsave
/o {
gsave
newpath
translate
0.5 setlinewidth
1 setlinejoin
0 setlinecap
0 0 m
-4 0 l
gsave
0.000 setgray
fill
grestore
stroke
grestore
} bind def
526.5 181.588 o
grestore
gsave
42.203125 177.049173 translate
0.000000 rotate
0.000000 0.171875 m /minus glyphshow
10.054688 0.171875 m /zero glyphshow
17.689453 0.171875 m /period glyphshow
21.503906 0.171875 m /three glyphshow
grestore
[1 3] 0 setdash
gsave
453.4 103.8 73.12 168.6 clipbox
73.125 194.559 m
526.5 194.559 l
stroke
grestore
[] 0 setdash
gsave
/o {
gsave
newpath
translate
0.5 setlinewidth
1 setlinejoin
0 setlinecap
0 0 m
4 0 l
gsave
0.000 setgray
fill
grestore
stroke
grestore
} bind def
73.125 194.559 o
grestore
gsave
/o {
gsave
newpath
translate
0.5 setlinewidth
1 setlinejoin
0 setlinecap
0 0 m
-4 0 l
gsave
0.000 setgray
fill
grestore
stroke
grestore
} bind def
526.5 194.559 o
grestore
gsave
42.437500 190.019761 translate
0.000000 rotate
0.000000 0.171875 m /minus glyphshow
10.054688 0.171875 m /zero glyphshow
17.689453 0.171875 m /period glyphshow
21.503906 0.171875 m /two glyphshow
grestore
[1 3] 0 setdash
gsave
453.4 103.8 73.12 168.6 clipbox
73.125 207.529 m
526.5 207.529 l
stroke
grestore
[] 0 setdash
gsave
/o {
gsave
newpath
translate
0.5 setlinewidth
1 setlinejoin
0 setlinecap
0 0 m
4 0 l
gsave
0.000 setgray
fill
grestore
stroke
grestore
} bind def
73.125 207.529 o
grestore
gsave
/o {
gsave
newpath
translate
0.5 setlinewidth
1 setlinejoin
0 setlinecap
0 0 m
-4 0 l
gsave
0.000 setgray
fill
grestore
stroke
grestore
} bind def
526.5 207.529 o
grestore
gsave
42.343750 202.990349 translate
0.000000 rotate
0.000000 0.171875 m /minus glyphshow
10.054688 0.171875 m /zero glyphshow
17.689453 0.171875 m /period glyphshow
21.503906 0.171875 m /one glyphshow
grestore
[1 3] 0 setdash
gsave
453.4 103.8 73.12 168.6 clipbox
73.125 220.5 m
526.5 220.5 l
stroke
grestore
[] 0 setdash
gsave
/o {
gsave
newpath
translate
0.5 setlinewidth
1 setlinejoin
0 setlinecap
0 0 m
4 0 l
gsave
0.000 setgray
fill
grestore
stroke
grestore
} bind def
73.125 220.5 o
grestore
gsave
/o {
gsave
newpath
translate
0.5 setlinewidth
1 setlinejoin
0 setlinecap
0 0 m
-4 0 l
gsave
0.000 setgray
fill
grestore
stroke
grestore
} bind def
526.5 220.5 o
grestore
gsave
51.625000 215.960938 translate
0.000000 rotate
0.000000 0.171875 m /zero glyphshow
7.634766 0.171875 m /period glyphshow
11.449219 0.171875 m /zero glyphshow
grestore
[1 3] 0 setdash
gsave
453.4 103.8 73.12 168.6 clipbox
73.125 233.471 m
526.5 233.471 l
stroke
grestore
[] 0 setdash
gsave
/o {
gsave
newpath
translate
0.5 setlinewidth
1 setlinejoin
0 setlinecap
0 0 m
4 0 l
gsave
0.000 setgray
fill
grestore
stroke
grestore
} bind def
73.125 233.471 o
grestore
gsave
/o {
gsave
newpath
translate
0.5 setlinewidth
1 setlinejoin
0 setlinecap
0 0 m
-4 0 l
gsave
0.000 setgray
fill
grestore
stroke
grestore
} bind def
526.5 233.471 o
grestore
gsave
51.937500 228.931526 translate
0.000000 rotate
0.000000 0.171875 m /zero glyphshow
7.634766 0.171875 m /period glyphshow
11.449219 0.171875 m /one glyphshow
grestore
[1 3] 0 setdash
gsave
453.4 103.8 73.12 168.6 clipbox
73.125 246.441 m
526.5 246.441 l
stroke
grestore
[] 0 setdash
gsave
/o {
gsave
newpath
translate
0.5 setlinewidth
1 setlinejoin
0 setlinecap
0 0 m
4 0 l
gsave
0.000 setgray
fill
grestore
stroke
grestore
} bind def
73.125 246.441 o
grestore
gsave
/o {
gsave
newpath
translate
0.5 setlinewidth
1 setlinejoin
0 setlinecap
0 0 m
-4 0 l
gsave
0.000 setgray
fill
grestore
stroke
grestore
} bind def
526.5 246.441 o
grestore
gsave
52.031250 241.902114 translate
0.000000 rotate
0.000000 0.171875 m /zero glyphshow
7.634766 0.171875 m /period glyphshow
11.449219 0.171875 m /two glyphshow
grestore
[1 3] 0 setdash
gsave
453.4 103.8 73.12 168.6 clipbox
73.125 259.412 m
526.5 259.412 l
stroke
grestore
[] 0 setdash
gsave
/o {
gsave
newpath
translate
0.5 setlinewidth
1 setlinejoin
0 setlinecap
0 0 m
4 0 l
gsave
0.000 setgray
fill
grestore
stroke
grestore
} bind def
73.125 259.412 o
grestore
gsave
/o {
gsave
newpath
translate
0.5 setlinewidth
1 setlinejoin
0 setlinecap
0 0 m
-4 0 l
gsave
0.000 setgray
fill
grestore
stroke
grestore
} bind def
526.5 259.412 o
grestore
gsave
51.796875 254.872702 translate
0.000000 rotate
0.000000 0.171875 m /zero glyphshow
7.634766 0.171875 m /period glyphshow
11.449219 0.171875 m /three glyphshow
grestore
[1 3] 0 setdash
gsave
453.4 103.8 73.12 168.6 clipbox
73.125 272.382 m
526.5 272.382 l
stroke
grestore
[] 0 setdash
gsave
/o {
gsave
newpath
translate
0.5 setlinewidth
1 setlinejoin
0 setlinecap
0 0 m
4 0 l
gsave
0.000 setgray
fill
grestore
stroke
grestore
} bind def
73.125 272.382 o
grestore
gsave
/o {
gsave
newpath
translate
0.5 setlinewidth
1 setlinejoin
0 setlinecap
0 0 m
-4 0 l
gsave
0.000 setgray
fill
grestore
stroke
grestore
} bind def
526.5 272.382 o
grestore
gsave
51.500000 267.843290 translate
0.000000 rotate
0.000000 0.171875 m /zero glyphshow
7.634766 0.171875 m /period glyphshow
11.449219 0.171875 m /four glyphshow
grestore
gsave
36.906250 191.179688 translate
90.000000 rotate
0.000000 2.828125 m /d glyphshow
7.617188 2.828125 m /underscore glyphshow
13.617188 2.828125 m /y glyphshow
20.718750 2.828125 m /bracketleft glyphshow
25.400391 2.828125 m /r glyphshow
30.333984 2.828125 m /a glyphshow
37.687500 2.828125 m /d glyphshow
45.304688 2.828125 m /slash glyphshow
49.347656 2.828125 m /s glyphshow
55.599609 2.828125 m /bracketright glyphshow
grestore
1.000 setlinewidth
2 setlinecap
gsave
73.125 272.382 m
526.5 272.382 l
stroke
grestore
gsave
526.5 168.618 m
526.5 272.382 l
stroke
grestore
gsave
73.125 168.618 m
526.5 168.618 l
stroke
grestore
gsave
73.125 168.618 m
73.125 272.382 l
stroke
grestore
gsave
73.125 44.1 m
526.5 44.1 l
526.5 147.865 l
73.125 147.865 l
cl
1.000 setgray
fill
grestore
1.000 0.000 0.000 setrgbcolor
gsave
453.4 103.8 73.12 44.1 clipbox
73.125 95.9824 m
73.465 95.9824 l
73.5784 98.5989 l
74.0318 98.5989 l
74.1451 99.489 l
74.5985 99.489 l
74.7118 100.507 l
75.1652 100.507 l
75.2785 101.684 l
75.6752 101.684 l
75.7886 102.535 l
76.2986 102.535 l
76.412 103.413 l
76.8653 103.413 l
76.9787 104.252 l
77.4321 104.252 l
77.5454 104.769 l
77.9988 104.769 l
78.1121 105.104 l
78.5088 105.104 l
78.6222 106.055 l
79.1322 106.055 l
79.2456 106.952 l
79.6989 106.952 l
79.869 107.16 l
80.2657 107.16 l
80.379 107.49 l
80.8324 107.49 l
80.9457 107.922 l
81.3424 107.922 l
81.4558 108.343 l
83.0993 108.299 l
83.2126 108.692 l
83.666 108.692 l
83.836 108.472 l
84.176 108.472 l
84.2894 109.627 l
84.7994 109.627 l
84.9128 110.49 l
85.9328 110.506 l
86.0462 110.019 l
86.4996 110.019 l
86.6129 109.644 l
87.0096 109.644 l
87.1796 109.414 l
87.633 109.414 l
87.7463 108.909 l
88.1997 108.909 l
88.3131 108.442 l
88.7664 108.442 l
88.8798 107.83 l
89.3332 107.83 l
89.4465 107.217 l
89.8432 107.217 l
89.9565 106.798 l
90.4666 106.798 l
90.5799 106.273 l
91.0333 106.273 l
91.1467 105.935 l
91.6 105.935 l
91.7134 105.382 l
92.1668 105.382 l
92.2801 104.908 l
92.6768 104.908 l
92.7901 104.401 l
93.3002 104.401 l
93.4135 103.86 l
93.8669 103.86 l
93.9803 103.446 l
94.4336 103.446 l
94.547 102.957 l
95.0003 102.957 l
95.1137 102.455 l
95.5104 102.455 l
95.6237 101.796 l
96.1338 101.796 l
96.2471 101.097 l
96.7005 101.097 l
96.8138 100.538 l
97.2672 100.538 l
97.3806 100.005 l
97.8339 100.005 l
98.004 99.8576 l
98.344 99.8576 l
98.514 99.7322 l
98.9674 99.7322 l
99.0807 99.4182 l
99.5341 99.4182 l
99.6474 98.9575 l
100.101 98.9575 l
100.271 98.811 l
100.668 98.811 l
100.838 98.6373 l
101.178 98.6373 l
101.348 98.5176 l
101.801 98.5176 l
101.971 98.2832 l
102.368 98.2832 l
102.538 98.1207 l
102.934 98.1207 l
103.104 97.8569 l
104.011 97.7557 l
104.181 97.6115 l
104.635 97.6115 l
104.805 97.4329 l
106.335 97.3668 l
106.505 97.2683 l
106.845 97.2683 l
107.015 97.4882 l
109.678 97.5764 l
109.905 97.6149 l
112.512 97.5217 l
112.739 97.4835 l
116.536 97.5777 l
116.706 97.6775 l
118.803 97.6585 l
118.973 97.5583 l
120.503 97.4759 l
120.673 97.397 l
125.036 97.5022 l
125.206 97.7075 l
126.17 97.7556 l
126.34 97.8818 l
127.87 97.9636 l
128.097 98.0121 l
130.704 98.0898 l
130.874 98.2184 l
131.837 98.3035 l
132.12 98.3348 l
136.371 98.3993 l
136.541 98.4785 l
137.504 98.5499 l
137.674 98.6126 l
138.638 98.5284 l
138.808 98.4256 l
139.204 98.4256 l
139.374 98.2421 l
141.471 98.1676 l
141.698 98.1292 l
143.171 98.0352 l
143.398 97.9885 l
144.305 97.9153 l
144.475 97.8446 l
145.438 97.7765 l
145.608 97.6807 l
146.515 97.6233 l
146.685 97.5618 l
147.705 97.495 l
147.875 97.4428 l
149.972 97.3552 l
150.255 97.3306 l
153.372 97.2548 l
153.599 97.2101 l
169.184 97.3024 l
169.411 97.3347 l
173.208 97.4382 l
173.604 97.4552 l
191.343 97.5588 l
191.683 97.5813 l
193.043 97.6679 l
193.269 97.711 l
195.876 97.8217 l
196.443 97.8332 l
197.35 97.8125 l
200.353 97.7378 l
200.58 97.6916 l
202.677 97.5912 l
203.017 97.5677 l
204.944 97.4759 l
205.227 97.4489 l
217.355 97.3384 l
217.638 97.3094 l
223.022 97.4097 l
223.249 97.4482 l
233.28 97.3385 l
234.81 97.3109 l
449.2 97.2053 l
450.05 97.1942 l
516.809 97.2346 l
516.809 97.2346 l
stroke
grestore
0 setlinecap
[6 6] 0 setdash
gsave
453.4 103.8 73.12 44.1 clipbox
73.125 134.894 m
73.465 134.894 l
73.5784 129.762 l
74.0318 129.762 l
74.1451 126.21 l
74.5985 126.21 l
74.7118 124.194 l
75.1652 124.194 l
75.2785 123.493 l
75.6752 123.493 l
75.7886 122.712 l
76.2986 122.712 l
76.412 122.251 l
76.8653 122.251 l
77.0354 122.104 l
77.4321 122.104 l
77.5454 121.669 l
77.9988 121.669 l
78.1121 121.239 l
78.5088 121.239 l
78.6222 121.573 l
79.1322 121.573 l
79.2456 121.911 l
79.6989 121.911 l
79.8123 121.58 l
80.2657 121.58 l
80.4357 121.458 l
81.3424 121.414 l
81.5124 121.281 l
81.9658 121.281 l
82.0792 120.821 l
82.5325 120.821 l
82.6459 120.353 l
83.0993 120.353 l
83.2693 120.179 l
83.666 120.179 l
83.7793 119.352 l
84.176 119.352 l
84.2894 119.672 l
85.3661 119.758 l
85.4795 119.196 l
85.9328 119.196 l
86.0462 118.31 l
86.4996 118.31 l
86.6129 117.551 l
87.0096 117.551 l
87.123 116.996 l
87.633 116.996 l
87.7463 116.232 l
88.1997 116.232 l
88.3131 115.552 l
88.7664 115.552 l
88.8798 114.744 l
89.3332 114.744 l
89.4465 113.931 l
89.8432 113.931 l
89.9565 113.318 l
90.4666 113.318 l
90.5799 112.64 l
91.0333 112.64 l
91.1467 112.168 l
91.6 112.168 l
91.7134 111.515 l
92.1668 111.515 l
92.2801 110.952 l
92.6768 110.952 l
92.7901 110.357 l
93.3002 110.357 l
93.4135 109.747 l
93.8669 109.747 l
93.9803 109.26 l
94.4336 109.26 l
94.547 108.691 l
95.0003 108.691 l
95.1137 108.097 l
95.5104 108.097 l
95.6237 107.305 l
96.1338 107.305 l
96.2471 106.453 l
96.7005 106.453 l
96.8138 105.748 l
97.2672 105.748 l
97.3806 105.075 l
97.8339 105.075 l
98.004 104.835 l
98.344 104.835 l
98.514 104.606 l
98.9674 104.606 l
99.0807 104.178 l
99.5341 104.178 l
99.6474 103.594 l
100.101 103.594 l
100.271 103.335 l
100.668 103.335 l
100.781 103.049 l
101.178 103.049 l
101.348 102.861 l
101.801 102.861 l
101.914 102.528 l
102.368 102.528 l
102.538 102.27 l
102.934 102.27 l
103.048 101.911 l
103.501 101.911 l
103.671 101.718 l
104.011 101.718 l
104.181 101.499 l
104.635 101.499 l
104.805 101.238 l
105.201 101.238 l
105.371 101.107 l
105.768 101.107 l
105.938 100.994 l
106.335 100.994 l
106.505 100.804 l
106.845 100.804 l
107.015 100.974 l
110.302 100.874 l
110.642 100.851 l
111.435 100.787 l
111.605 100.712 l
119.369 100.623 l
119.539 100.535 l
121.013 100.432 l
121.183 100.381 l
125.036 100.475 l
125.206 100.667 l
126.17 100.701 l
126.34 100.808 l
133.537 100.796 l
133.707 100.682 l
134.671 100.639 l
134.841 100.545 l
135.181 100.545 l
135.351 100.353 l
138.638 100.312 l
138.808 100.17 l
139.204 100.17 l
139.374 99.9495 l
140.848 99.8596 l
141.018 99.8011 l
142.038 99.7454 l
142.208 99.6732 l
143.171 99.6116 l
143.341 99.5468 l
144.305 99.4509 l
144.475 99.3605 l
145.438 99.2687 l
145.608 99.1485 l
146.515 99.0632 l
146.685 98.9745 l
147.705 98.8808 l
147.875 98.8096 l
149.349 98.7035 l
149.519 98.6375 l
150.539 98.5774 l
150.709 98.508 l
152.806 98.4186 l
153.146 98.3955 l
166.35 98.2944 l
166.86 98.2806 l
172.017 98.3851 l
172.527 98.3988 l
193.043 98.5066 l
193.269 98.539 l
200.977 98.4543 l
201.203 98.4059 l
203.187 98.3024 l
203.414 98.2672 l
208.344 98.1679 l
208.797 98.1525 l
212.878 98.0637 l
213.105 98.0318 l
217.355 97.9566 l
217.582 97.9201 l
232.146 97.813 l
232.543 97.7949 l
248.524 97.6989 l
248.921 97.6807 l
253.115 97.5771 l
253.738 97.5588 l
288.195 97.4502 l
290.292 97.4391 l
427.664 97.3285 l
429.761 97.3231 l
516.809 97.293 l
516.809 97.293 l
stroke
grestore
gsave
453.4 103.8 73.12 44.1 clipbox
73.125 57.0706 m
73.465 57.0706 l
73.5784 67.4355 l
74.0318 67.4355 l
74.1451 72.768 l
74.5985 72.768 l
74.7118 76.8194 l
75.1652 76.8194 l
75.2785 79.8753 l
75.6752 79.8753 l
75.7886 82.3578 l
76.2986 82.3578 l
76.412 84.5752 l
76.8653 84.5752 l
76.9787 86.4008 l
77.4321 86.4008 l
77.5454 87.8684 l
77.9988 87.8684 l
78.1121 88.9687 l
78.5088 88.9687 l
78.6222 90.5367 l
79.1322 90.5367 l
79.2456 91.9917 l
79.6989 91.9917 l
79.8123 92.7395 l
80.2657 92.7395 l
80.379 93.523 l
80.8324 93.523 l
80.9457 94.4301 l
81.3424 94.4301 l
81.4558 95.4053 l
81.9658 95.4053 l
82.0792 95.6897 l
82.5325 95.6897 l
82.6459 96.2446 l
83.0993 96.2446 l
83.2126 97.2051 l
83.666 97.2051 l
83.7793 97.5909 l
84.176 97.5909 l
84.2894 99.5826 l
84.7994 99.5826 l
84.9128 101.221 l
85.3661 101.221 l
85.4795 101.815 l
87.633 101.832 l
87.803 101.585 l
88.1997 101.585 l
88.3697 101.333 l
88.7664 101.333 l
88.8798 100.916 l
89.3332 100.916 l
89.4465 100.504 l
89.8432 100.504 l
90.0132 100.279 l
90.4666 100.279 l
90.5799 99.9056 l
91.0333 99.9056 l
91.2033 99.703 l
91.6 99.703 l
91.7134 99.2499 l
92.1668 99.2499 l
92.2801 98.865 l
92.6768 98.865 l
92.7901 98.4442 l
93.3002 98.4442 l
93.4135 97.9732 l
93.8669 97.9732 l
93.9803 97.6312 l
94.4336 97.6312 l
94.547 97.2239 l
95.0003 97.2239 l
95.1137 96.8137 l
95.5104 96.8137 l
95.6237 96.2863 l
96.1338 96.2863 l
96.2471 95.7413 l
96.7005 95.7413 l
96.8138 95.3283 l
97.2672 95.3283 l
97.3806 94.9354 l
98.9674 94.8585 l
99.1374 94.6587 l
99.5341 94.6587 l
99.6474 94.3205 l
101.178 94.2257 l
101.348 94.1742 l
101.801 94.1742 l
101.971 94.0385 l
102.934 93.9713 l
103.104 93.8031 l
104.635 93.7241 l
104.805 93.6276 l
105.768 93.6718 l
105.938 93.7394 l
106.845 93.7329 l
107.015 94.0027 l
108.035 94.0862 l
108.205 94.159 l
109.168 94.2161 l
109.338 94.2831 l
114.836 94.3826 l
115.062 94.4169 l
116.536 94.4546 l
116.706 94.568 l
119.369 94.4932 l
119.539 94.4397 l
121.636 94.331 l
121.806 94.2803 l
123.846 94.3605 l
124.016 94.4503 l
125.036 94.5291 l
125.206 94.748 l
126.17 94.8105 l
126.34 94.9556 l
127.303 95.0365 l
127.473 95.0892 l
128.437 95.1704 l
128.72 95.2018 l
130.137 95.2728 l
130.307 95.4066 l
130.704 95.4066 l
130.874 95.5911 l
131.27 95.5911 l
131.44 95.7332 l
132.347 95.8139 l
132.517 95.9095 l
134.104 95.9674 l
134.274 96.0912 l
135.804 96.1486 l
135.974 96.3828 l
136.371 96.3828 l
136.541 96.5369 l
136.938 96.5369 l
137.108 96.6677 l
137.504 96.6677 l
137.674 96.7858 l
139.204 96.6814 l
139.374 96.5347 l
143.681 96.4301 l
143.852 96.3798 l
145.438 96.2844 l
145.608 96.2129 l
147.705 96.1091 l
147.932 96.0761 l
159.606 96.1851 l
162.61 96.1898 l
168.674 96.3005 l
169.127 96.3163 l
171.507 96.4274 l
171.847 96.4489 l
187.942 96.5506 l
188.282 96.5741 l
190.776 96.66 l
191.059 96.6898 l
192.476 96.7889 l
192.703 96.8292 l
193.609 96.883 l
193.779 96.9455 l
202.677 96.8518 l
203.074 96.8331 l
216.845 96.726 l
218.318 96.6833 l
221.379 96.7641 l
221.549 96.8222 l
223.022 96.9001 l
223.192 96.9507 l
236.113 96.8417 l
237.02 96.8346 l
241.214 96.9229 l
241.554 96.947 l
264.449 97.0508 l
265.186 97.0716 l
327.865 97.1826 l
329.962 97.1921 l
516.809 97.1762 l
516.809 97.1762 l
stroke
grestore
0.500 setlinewidth
[1 3] 0 setdash
0.000 setgray
gsave
453.4 103.8 73.12 44.1 clipbox
73.125 44.1 m
73.125 147.865 l
stroke
grestore
[] 0 setdash
gsave
/o {
gsave
newpath
translate
0.5 setlinewidth
1 setlinejoin
0 setlinecap
0 0 m
0 4 l
gsave
0.000 setgray
fill
grestore
stroke
grestore
} bind def
73.125 44.1 o
grestore
gsave
/o {
gsave
newpath
translate
0.5 setlinewidth
1 setlinejoin
0 setlinecap
0 0 m
0 -4 l
gsave
0.000 setgray
fill
grestore
stroke
grestore
} bind def
73.125 147.865 o
grestore
gsave
70.101562 31.021875 translate
0.000000 rotate
0.000000 0.171875 m /zero glyphshow
grestore
[1 3] 0 setdash
gsave
453.4 103.8 73.12 44.1 clipbox
129.797 44.1 m
129.797 147.865 l
stroke
grestore
[] 0 setdash
gsave
/o {
gsave
newpath
translate
0.5 setlinewidth
1 setlinejoin
0 setlinecap
0 0 m
0 4 l
gsave
0.000 setgray
fill
grestore
stroke
grestore
} bind def
129.797 44.1 o
grestore
gsave
/o {
gsave
newpath
translate
0.5 setlinewidth
1 setlinejoin
0 setlinecap
0 0 m
0 -4 l
gsave
0.000 setgray
fill
grestore
stroke
grestore
} bind def
129.797 147.865 o
grestore
gsave
126.960938 31.178125 translate
0.000000 rotate
0.000000 0.171875 m /five glyphshow
grestore
[1 3] 0 setdash
gsave
453.4 103.8 73.12 44.1 clipbox
186.469 44.1 m
186.469 147.865 l
stroke
grestore
[] 0 setdash
gsave
/o {
gsave
newpath
translate
0.5 setlinewidth
1 setlinejoin
0 setlinecap
0 0 m
0 4 l
gsave
0.000 setgray
fill
grestore
stroke
grestore
} bind def
186.469 44.1 o
grestore
gsave
/o {
gsave
newpath
translate
0.5 setlinewidth
1 setlinejoin
0 setlinecap
0 0 m
0 -4 l
gsave
0.000 setgray
fill
grestore
stroke
grestore
} bind def
186.469 147.865 o
grestore
gsave
179.882812 31.021875 translate
0.000000 rotate
0.000000 0.171875 m /one glyphshow
7.634766 0.171875 m /zero glyphshow
grestore
[1 3] 0 setdash
gsave
453.4 103.8 73.12 44.1 clipbox
243.141 44.1 m
243.141 147.865 l
stroke
grestore
[] 0 setdash
gsave
/o {
gsave
newpath
translate
0.5 setlinewidth
1 setlinejoin
0 setlinecap
0 0 m
0 4 l
gsave
0.000 setgray
fill
grestore
stroke
grestore
} bind def
243.141 44.1 o
grestore
gsave
/o {
gsave
newpath
translate
0.5 setlinewidth
1 setlinejoin
0 setlinecap
0 0 m
0 -4 l
gsave
0.000 setgray
fill
grestore
stroke
grestore
} bind def
243.141 147.865 o
grestore
gsave
236.679688 31.178125 translate
0.000000 rotate
0.000000 0.171875 m /one glyphshow
7.634766 0.171875 m /five glyphshow
grestore
[1 3] 0 setdash
gsave
453.4 103.8 73.12 44.1 clipbox
299.812 44.1 m
299.812 147.865 l
stroke
grestore
[] 0 setdash
gsave
/o {
gsave
newpath
translate
0.5 setlinewidth
1 setlinejoin
0 setlinecap
0 0 m
0 4 l
gsave
0.000 setgray
fill
grestore
stroke
grestore
} bind def
299.812 44.1 o
grestore
gsave
/o {
gsave
newpath
translate
0.5 setlinewidth
1 setlinejoin
0 setlinecap
0 0 m
0 -4 l
gsave
0.000 setgray
fill
grestore
stroke
grestore
} bind def
299.812 147.865 o
grestore
gsave
293.007812 31.021875 translate
0.000000 rotate
0.000000 0.171875 m /two glyphshow
7.634766 0.171875 m /zero glyphshow
grestore
[1 3] 0 setdash
gsave
453.4 103.8 73.12 44.1 clipbox
356.484 44.1 m
356.484 147.865 l
stroke
grestore
[] 0 setdash
gsave
/o {
gsave
newpath
translate
0.5 setlinewidth
1 setlinejoin
0 setlinecap
0 0 m
0 4 l
gsave
0.000 setgray
fill
grestore
stroke
grestore
} bind def
356.484 44.1 o
grestore
gsave
/o {
gsave
newpath
translate
0.5 setlinewidth
1 setlinejoin
0 setlinecap
0 0 m
0 -4 l
gsave
0.000 setgray
fill
grestore
stroke
grestore
} bind def
356.484 147.865 o
grestore
gsave
349.804688 31.021875 translate
0.000000 rotate
0.000000 0.171875 m /two glyphshow
7.634766 0.171875 m /five glyphshow
grestore
[1 3] 0 setdash
gsave
453.4 103.8 73.12 44.1 clipbox
413.156 44.1 m
413.156 147.865 l
stroke
grestore
[] 0 setdash
gsave
/o {
gsave
newpath
translate
0.5 setlinewidth
1 setlinejoin
0 setlinecap
0 0 m
0 4 l
gsave
0.000 setgray
fill
grestore
stroke
grestore
} bind def
413.156 44.1 o
grestore
gsave
/o {
gsave
newpath
translate
0.5 setlinewidth
1 setlinejoin
0 setlinecap
0 0 m
0 -4 l
gsave
0.000 setgray
fill
grestore
stroke
grestore
} bind def
413.156 147.865 o
grestore
gsave
406.375000 31.021875 translate
0.000000 rotate
0.000000 0.171875 m /three glyphshow
7.634766 0.171875 m /zero glyphshow
grestore
[1 3] 0 setdash
gsave
453.4 103.8 73.12 44.1 clipbox
469.828 44.1 m
469.828 147.865 l
stroke
grestore
[] 0 setdash
gsave
/o {
gsave
newpath
translate
0.5 setlinewidth
1 setlinejoin
0 setlinecap
0 0 m
0 4 l
gsave
0.000 setgray
fill
grestore
stroke
grestore
} bind def
469.828 44.1 o
grestore
gsave
/o {
gsave
newpath
translate
0.5 setlinewidth
1 setlinejoin
0 setlinecap
0 0 m
0 -4 l
gsave
0.000 setgray
fill
grestore
stroke
grestore
} bind def
469.828 147.865 o
grestore
gsave
463.171875 31.021875 translate
0.000000 rotate
0.000000 0.171875 m /three glyphshow
7.634766 0.171875 m /five glyphshow
grestore
[1 3] 0 setdash
gsave
453.4 103.8 73.12 44.1 clipbox
526.5 44.1 m
526.5 147.865 l
stroke
grestore
[] 0 setdash
gsave
/o {
gsave
newpath
translate
0.5 setlinewidth
1 setlinejoin
0 setlinecap
0 0 m
0 4 l
gsave
0.000 setgray
fill
grestore
stroke
grestore
} bind def
526.5 44.1 o
grestore
gsave
/o {
gsave
newpath
translate
0.5 setlinewidth
1 setlinejoin
0 setlinecap
0 0 m
0 -4 l
gsave
0.000 setgray
fill
grestore
stroke
grestore
} bind def
526.5 147.865 o
grestore
gsave
519.554688 31.021875 translate
0.000000 rotate
0.000000 0.171875 m /four glyphshow
7.634766 0.171875 m /zero glyphshow
grestore
gsave
290.328125 15.318750 translate
0.000000 rotate
0.000000 1.578125 m /t glyphshow
4.705078 1.578125 m /bracketleft glyphshow
9.386719 1.578125 m /s glyphshow
15.638672 1.578125 m /bracketright glyphshow
grestore
[1 3] 0 setdash
gsave
453.4 103.8 73.12 44.1 clipbox
73.125 44.1 m
526.5 44.1 l
stroke
grestore
[] 0 setdash
gsave
/o {
gsave
newpath
translate
0.5 setlinewidth
1 setlinejoin
0 setlinecap
0 0 m
4 0 l
gsave
0.000 setgray
fill
grestore
stroke
grestore
} bind def
73.125 44.1 o
grestore
gsave
/o {
gsave
newpath
translate
0.5 setlinewidth
1 setlinejoin
0 setlinecap
0 0 m
-4 0 l
gsave
0.000 setgray
fill
grestore
stroke
grestore
} bind def
526.5 44.1 o
grestore
gsave
41.906250 39.560937 translate
0.000000 rotate
0.000000 0.171875 m /minus glyphshow
10.054688 0.171875 m /zero glyphshow
17.689453 0.171875 m /period glyphshow
21.503906 0.171875 m /four glyphshow
grestore
[1 3] 0 setdash
gsave
453.4 103.8 73.12 44.1 clipbox
73.125 57.0706 m
526.5 57.0706 l
stroke
grestore
[] 0 setdash
gsave
/o {
gsave
newpath
translate
0.5 setlinewidth
1 setlinejoin
0 setlinecap
0 0 m
4 0 l
gsave
0.000 setgray
fill
grestore
stroke
grestore
} bind def
73.125 57.0706 o
grestore
gsave
/o {
gsave
newpath
translate
0.5 setlinewidth
1 setlinejoin
0 setlinecap
0 0 m
-4 0 l
gsave
0.000 setgray
fill
grestore
stroke
grestore
} bind def
526.5 57.0706 o
grestore
gsave
42.203125 52.531526 translate
0.000000 rotate
0.000000 0.171875 m /minus glyphshow
10.054688 0.171875 m /zero glyphshow
17.689453 0.171875 m /period glyphshow
21.503906 0.171875 m /three glyphshow
grestore
[1 3] 0 setdash
gsave
453.4 103.8 73.12 44.1 clipbox
73.125 70.0412 m
526.5 70.0412 l
stroke
grestore
[] 0 setdash
gsave
/o {
gsave
newpath
translate
0.5 setlinewidth
1 setlinejoin
0 setlinecap
0 0 m
4 0 l
gsave
0.000 setgray
fill
grestore
stroke
grestore
} bind def
73.125 70.0412 o
grestore
gsave
/o {
gsave
newpath
translate
0.5 setlinewidth
1 setlinejoin
0 setlinecap
0 0 m
-4 0 l
gsave
0.000 setgray
fill
grestore
stroke
grestore
} bind def
526.5 70.0412 o
grestore
gsave
42.437500 65.502114 translate
0.000000 rotate
0.000000 0.171875 m /minus glyphshow
10.054688 0.171875 m /zero glyphshow
17.689453 0.171875 m /period glyphshow
21.503906 0.171875 m /two glyphshow
grestore
[1 3] 0 setdash
gsave
453.4 103.8 73.12 44.1 clipbox
73.125 83.0118 m
526.5 83.0118 l
stroke
grestore
[] 0 setdash
gsave
/o {
gsave
newpath
translate
0.5 setlinewidth
1 setlinejoin
0 setlinecap
0 0 m
4 0 l
gsave
0.000 setgray
fill
grestore
stroke
grestore
} bind def
73.125 83.0118 o
grestore
gsave
/o {
gsave
newpath
translate
0.5 setlinewidth
1 setlinejoin
0 setlinecap
0 0 m
-4 0 l
gsave
0.000 setgray
fill
grestore
stroke
grestore
} bind def
526.5 83.0118 o
grestore
gsave
42.343750 78.472702 translate
0.000000 rotate
0.000000 0.171875 m /minus glyphshow
10.054688 0.171875 m /zero glyphshow
17.689453 0.171875 m /period glyphshow
21.503906 0.171875 m /one glyphshow
grestore
[1 3] 0 setdash
gsave
453.4 103.8 73.12 44.1 clipbox
73.125 95.9824 m
526.5 95.9824 l
stroke
grestore
[] 0 setdash
gsave
/o {
gsave
newpath
translate
0.5 setlinewidth
1 setlinejoin
0 setlinecap
0 0 m
4 0 l
gsave
0.000 setgray
fill
grestore
stroke
grestore
} bind def
73.125 95.9824 o
grestore
gsave
/o {
gsave
newpath
translate
0.5 setlinewidth
1 setlinejoin
0 setlinecap
0 0 m
-4 0 l
gsave
0.000 setgray
fill
grestore
stroke
grestore
} bind def
526.5 95.9824 o
grestore
gsave
51.625000 91.443290 translate
0.000000 rotate
0.000000 0.171875 m /zero glyphshow
7.634766 0.171875 m /period glyphshow
11.449219 0.171875 m /zero glyphshow
grestore
[1 3] 0 setdash
gsave
453.4 103.8 73.12 44.1 clipbox
73.125 108.953 m
526.5 108.953 l
stroke
grestore
[] 0 setdash
gsave
/o {
gsave
newpath
translate
0.5 setlinewidth
1 setlinejoin
0 setlinecap
0 0 m
4 0 l
gsave
0.000 setgray
fill
grestore
stroke
grestore
} bind def
73.125 108.953 o
grestore
gsave
/o {
gsave
newpath
translate
0.5 setlinewidth
1 setlinejoin
0 setlinecap
0 0 m
-4 0 l
gsave
0.000 setgray
fill
grestore
stroke
grestore
} bind def
526.5 108.953 o
grestore
gsave
51.937500 104.413879 translate
0.000000 rotate
0.000000 0.171875 m /zero glyphshow
7.634766 0.171875 m /period glyphshow
11.449219 0.171875 m /one glyphshow
grestore
[1 3] 0 setdash
gsave
453.4 103.8 73.12 44.1 clipbox
73.125 121.924 m
526.5 121.924 l
stroke
grestore
[] 0 setdash
gsave
/o {
gsave
newpath
translate
0.5 setlinewidth
1 setlinejoin
0 setlinecap
0 0 m
4 0 l
gsave
0.000 setgray
fill
grestore
stroke
grestore
} bind def
73.125 121.924 o
grestore
gsave
/o {
gsave
newpath
translate
0.5 setlinewidth
1 setlinejoin
0 setlinecap
0 0 m
-4 0 l
gsave
0.000 setgray
fill
grestore
stroke
grestore
} bind def
526.5 121.924 o
grestore
gsave
52.031250 117.384467 translate
0.000000 rotate
0.000000 0.171875 m /zero glyphshow
7.634766 0.171875 m /period glyphshow
11.449219 0.171875 m /two glyphshow
grestore
[1 3] 0 setdash
gsave
453.4 103.8 73.12 44.1 clipbox
73.125 134.894 m
526.5 134.894 l
stroke
grestore
[] 0 setdash
gsave
/o {
gsave
newpath
translate
0.5 setlinewidth
1 setlinejoin
0 setlinecap
0 0 m
4 0 l
gsave
0.000 setgray
fill
grestore
stroke
grestore
} bind def
73.125 134.894 o
grestore
gsave
/o {
gsave
newpath
translate
0.5 setlinewidth
1 setlinejoin
0 setlinecap
0 0 m
-4 0 l
gsave
0.000 setgray
fill
grestore
stroke
grestore
} bind def
526.5 134.894 o
grestore
gsave
51.796875 130.355055 translate
0.000000 rotate
0.000000 0.171875 m /zero glyphshow
7.634766 0.171875 m /period glyphshow
11.449219 0.171875 m /three glyphshow
grestore
[1 3] 0 setdash
gsave
453.4 103.8 73.12 44.1 clipbox
73.125 147.865 m
526.5 147.865 l
stroke
grestore
[] 0 setdash
gsave
/o {
gsave
newpath
translate
0.5 setlinewidth
1 setlinejoin
0 setlinecap
0 0 m
4 0 l
gsave
0.000 setgray
fill
grestore
stroke
grestore
} bind def
73.125 147.865 o
grestore
gsave
/o {
gsave
newpath
translate
0.5 setlinewidth
1 setlinejoin
0 setlinecap
0 0 m
-4 0 l
gsave
0.000 setgray
fill
grestore
stroke
grestore
} bind def
526.5 147.865 o
grestore
gsave
51.500000 143.325643 translate
0.000000 rotate
0.000000 0.171875 m /zero glyphshow
7.634766 0.171875 m /period glyphshow
11.449219 0.171875 m /four glyphshow
grestore
gsave
36.906250 67.068290 translate
90.000000 rotate
0.000000 2.828125 m /d glyphshow
7.617188 2.828125 m /underscore glyphshow
13.617188 2.828125 m /z glyphshow
19.916016 2.828125 m /bracketleft glyphshow
24.597656 2.828125 m /r glyphshow
29.531250 2.828125 m /a glyphshow
36.884766 2.828125 m /d glyphshow
44.501953 2.828125 m /slash glyphshow
48.544922 2.828125 m /s glyphshow
54.796875 2.828125 m /bracketright glyphshow
grestore
1.000 setlinewidth
2 setlinecap
gsave
73.125 147.865 m
526.5 147.865 l
stroke
grestore
gsave
526.5 44.1 m
526.5 147.865 l
stroke
grestore
gsave
73.125 44.1 m
526.5 44.1 l
stroke
grestore
gsave
73.125 44.1 m
73.125 147.865 l
stroke
grestore

end
showpage
