%!PS-Adobe-3.0 EPSF-3.0
%%Creator: MATLAB, The MathWorks, Inc. Version 7.11.0.584 (R2010b). Operating System: Linux 2.6.32-38-generic #83-Ubuntu SMP Wed Jan 4 11:13:04 UTC 2012 i686.
%%Title: /data/Eth/MA_FS11/MA/SL/prog/trunk/starlethUser/matlab/data_vicon/2Df.eps
%%CreationDate: 01/28/2012  15:04:35
%%DocumentNeededFonts: Helvetica
%%DocumentProcessColors: Cyan Magenta Yellow Black
%%LanguageLevel: 2
%%Pages: 1
%%BoundingBox:  -456   231  1067   560
%%EndComments

%%BeginProlog
% MathWorks dictionary
/MathWorks 160 dict begin
% definition operators
/bdef {bind def} bind def
/ldef {load def} bind def
/xdef {exch def} bdef
/xstore {exch store} bdef
% operator abbreviations
/c  /clip ldef
/cc /concat ldef
/cp /closepath ldef
/gr /grestore ldef
/gs /gsave ldef
/mt /moveto ldef
/np /newpath ldef
/cm /currentmatrix ldef
/sm /setmatrix ldef
/rm /rmoveto ldef
/rl /rlineto ldef
/s {show newpath} bdef
/sc {setcmykcolor} bdef
/sr /setrgbcolor ldef
/sg /setgray ldef
/w /setlinewidth ldef
/j /setlinejoin ldef
/cap /setlinecap ldef
/rc {rectclip} bdef
/rf {rectfill} bdef
% page state control
/pgsv () def
/bpage {/pgsv save def} bdef
/epage {pgsv restore} bdef
/bplot /gsave ldef
/eplot {stroke grestore} bdef
% orientation switch
/portraitMode 0 def /landscapeMode 1 def /rotateMode 2 def
% coordinate system mappings
/dpi2point 0 def
% font control
/FontSize 0 def
/FMS {/FontSize xstore findfont [FontSize 0 0 FontSize neg 0 0]
  makefont setfont} bdef
/reencode {exch dup where {pop load} {pop StandardEncoding} ifelse
  exch dup 3 1 roll findfont dup length dict begin
  { 1 index /FID ne {def}{pop pop} ifelse } forall
  /Encoding exch def currentdict end definefont pop} bdef
/isroman {findfont /CharStrings get /Agrave known} bdef
/FMSR {3 1 roll 1 index dup isroman {reencode} {pop pop} ifelse
  exch FMS} bdef
/csm {1 dpi2point div -1 dpi2point div scale neg translate
 dup landscapeMode eq {pop -90 rotate}
  {rotateMode eq {90 rotate} if} ifelse} bdef
% line types: solid, dotted, dashed, dotdash
/SO { [] 0 setdash } bdef
/DO { [.5 dpi2point mul 4 dpi2point mul] 0 setdash } bdef
/DA { [6 dpi2point mul] 0 setdash } bdef
/DD { [.5 dpi2point mul 4 dpi2point mul 6 dpi2point mul 4
  dpi2point mul] 0 setdash } bdef
% macros for lines and objects
/L {lineto stroke} bdef
/MP {3 1 roll moveto 1 sub {rlineto} repeat} bdef
/AP {{rlineto} repeat} bdef
/PDlw -1 def
/W {/PDlw currentlinewidth def setlinewidth} def
/PP {closepath eofill} bdef
/DP {closepath stroke} bdef
/MR {4 -2 roll moveto dup  0 exch rlineto exch 0 rlineto
  neg 0 exch rlineto closepath} bdef
/FR {MR stroke} bdef
/PR {MR fill} bdef
/L1i {{currentfile picstr readhexstring pop} image} bdef
/tMatrix matrix def
/MakeOval {newpath tMatrix currentmatrix pop translate scale
0 0 1 0 360 arc tMatrix setmatrix} bdef
/FO {MakeOval stroke} bdef
/PO {MakeOval fill} bdef
/PD {currentlinewidth 2 div 0 360 arc fill
   PDlw -1 eq not {PDlw w /PDlw -1 def} if} def
/FA {newpath tMatrix currentmatrix pop translate scale
  0 0 1 5 -2 roll arc tMatrix setmatrix stroke} bdef
/PA {newpath tMatrix currentmatrix pop	translate 0 0 moveto scale
  0 0 1 5 -2 roll arc closepath tMatrix setmatrix fill} bdef
/FAn {newpath tMatrix currentmatrix pop translate scale
  0 0 1 5 -2 roll arcn tMatrix setmatrix stroke} bdef
/PAn {newpath tMatrix currentmatrix pop translate 0 0 moveto scale
  0 0 1 5 -2 roll arcn closepath tMatrix setmatrix fill} bdef
/vradius 0 def /hradius 0 def /lry 0 def
/lrx 0 def /uly 0 def /ulx 0 def /rad 0 def
/MRR {/vradius xdef /hradius xdef /lry xdef /lrx xdef /uly xdef
  /ulx xdef newpath tMatrix currentmatrix pop ulx hradius add uly
  vradius add translate hradius vradius scale 0 0 1 180 270 arc 
  tMatrix setmatrix lrx hradius sub uly vradius add translate
  hradius vradius scale 0 0 1 270 360 arc tMatrix setmatrix
  lrx hradius sub lry vradius sub translate hradius vradius scale
  0 0 1 0 90 arc tMatrix setmatrix ulx hradius add lry vradius sub
  translate hradius vradius scale 0 0 1 90 180 arc tMatrix setmatrix
  closepath} bdef
/FRR {MRR stroke } bdef
/PRR {MRR fill } bdef
/MlrRR {/lry xdef /lrx xdef /uly xdef /ulx xdef /rad lry uly sub 2 div def
  newpath tMatrix currentmatrix pop ulx rad add uly rad add translate
  rad rad scale 0 0 1 90 270 arc tMatrix setmatrix lrx rad sub lry rad
  sub translate rad rad scale 0 0 1 270 90 arc tMatrix setmatrix
  closepath} bdef
/FlrRR {MlrRR stroke } bdef
/PlrRR {MlrRR fill } bdef
/MtbRR {/lry xdef /lrx xdef /uly xdef /ulx xdef /rad lrx ulx sub 2 div def
  newpath tMatrix currentmatrix pop ulx rad add uly rad add translate
  rad rad scale 0 0 1 180 360 arc tMatrix setmatrix lrx rad sub lry rad
  sub translate rad rad scale 0 0 1 0 180 arc tMatrix setmatrix
  closepath} bdef
/FtbRR {MtbRR stroke } bdef
/PtbRR {MtbRR fill } bdef
/stri 6 array def /dtri 6 array def
/smat 6 array def /dmat 6 array def
/tmat1 6 array def /tmat2 6 array def /dif 3 array def
/asub {/ind2 exch def /ind1 exch def dup dup
  ind1 get exch ind2 get sub exch } bdef
/tri_to_matrix {
  2 0 asub 3 1 asub 4 0 asub 5 1 asub
  dup 0 get exch 1 get 7 -1 roll astore } bdef
/compute_transform {
  dmat dtri tri_to_matrix tmat1 invertmatrix 
  smat stri tri_to_matrix tmat2 concatmatrix } bdef
/ds {stri astore pop} bdef
/dt {dtri astore pop} bdef
/db {2 copy /cols xdef /rows xdef mul dup 3 mul string
  currentfile 
  3 index 0 eq {/ASCIIHexDecode filter}
  {/ASCII85Decode filter 3 index 2 eq {/RunLengthDecode filter} if }
  ifelse exch readstring pop
  dup 0 3 index getinterval /rbmap xdef
  dup 2 index dup getinterval /gbmap xdef
  1 index dup 2 mul exch getinterval /bbmap xdef pop pop}bdef
/it {gs np dtri aload pop moveto lineto lineto cp c
  cols rows 8 compute_transform 
  rbmap gbmap bbmap true 3 colorimage gr}bdef
/il {newpath moveto lineto stroke}bdef
currentdict end def
%%EndProlog

%%BeginSetup
MathWorks begin

0 cap

end
%%EndSetup

%%Page: 1 1
%%BeginPageSetup
%%PageBoundingBox:  -456   231  1067   560
MathWorks begin
bpage
%%EndPageSetup

%%BeginObject: obj1
bplot

/dpi2point 12 def
portraitMode -5472 6720 csm

    0     0 18287  3946 rc
86 dict begin %Colortable dictionary
/c0 { 0.000000 0.000000 0.000000 sr} bdef
/c1 { 1.000000 1.000000 1.000000 sr} bdef
/c2 { 0.900000 0.000000 0.000000 sr} bdef
/c3 { 0.000000 0.820000 0.000000 sr} bdef
/c4 { 0.000000 0.000000 0.800000 sr} bdef
/c5 { 0.910000 0.820000 0.320000 sr} bdef
/c6 { 1.000000 0.260000 0.820000 sr} bdef
/c7 { 0.000000 0.820000 0.820000 sr} bdef
c0
1 j
1 sg
   0    0 18288 3947 rf
6 w
0 3006 13360 0 0 -3006 2478 3140 4 MP
PP
-13360 0 0 3006 13360 0 0 -3006 2478 3140 5 MP stroke
4 w
DO
0 sg
3368 3140 mt 3368  134 L
3368  134 mt 3368  134 L
5595 3140 mt 5595  134 L
5595  134 mt 5595  134 L
7822 3140 mt 7822  134 L
7822  134 mt 7822  134 L
10048 3140 mt 10048  134 L
10048  134 mt 10048  134 L
12275 3140 mt 12275  134 L
12275  134 mt 12275  134 L
14502 3140 mt 14502  134 L
14502  134 mt 14502  134 L
2478 2472 mt 15838 2472 L
15838 2472 mt 15838 2472 L
2478 1358 mt 15838 1358 L
15838 1358 mt 15838 1358 L
2478  245 mt 15838  245 L
15838  245 mt 15838  245 L
SO
6 w
2478 3140 mt 15838 3140 L
2478 3140 mt 2478  134 L
3368 3140 mt 3368 3006 L
%%IncludeResource: font Helvetica
/Helvetica /ISOLatin1Encoding 300 FMSR

3285 3453 mt 
(0) s
5595 3140 mt 5595 3006 L
5512 3453 mt 
(1) s
7822 3140 mt 7822 3006 L
7739 3453 mt 
(2) s
10048 3140 mt 10048 3006 L
9965 3453 mt 
(3) s
12275 3140 mt 12275 3006 L
12192 3453 mt 
(4) s
14502 3140 mt 14502 3006 L
14419 3453 mt 
(5) s
2478 2472 mt 2611 2472 L
2277 2583 mt 
(0) s
2478 1358 mt 2611 1358 L
2026 1469 mt 
(0.5) s
2478  245 mt 2611  245 L
2277  356 mt 
(1) s
gs 2478 134 13361 3007 rc
0.8 sg
597 -413 3369 2473 2 MP stroke
596 411 3369 2473 2 MP stroke
-599 -414 3369 2473 2 MP stroke
-599 410 3369 2473 2 MP stroke
597 -413 3369 2473 2 MP stroke
596 411 3369 2473 2 MP stroke
-599 -414 3369 2473 2 MP stroke
-599 410 3369 2473 2 MP stroke
506 -360 3460 2420 2 MP stroke
607 249 3460 2420 2 MP stroke
-534 -343 3460 2420 2 MP stroke
-690 463 3460 2420 2 MP stroke
506 -360 3460 2420 2 MP stroke
607 249 3460 2420 2 MP stroke
-534 -343 3460 2420 2 MP stroke
-690 463 3460 2420 2 MP stroke
699 -320 3696 2375 2 MP stroke
370 294 3696 2375 2 MP stroke
-772 -299 3696 2375 2 MP stroke
-926 508 3696 2375 2 MP stroke
667 -315 3723 2369 2 MP stroke
342 300 3723 2369 2 MP stroke
-800 -293 3723 2369 2 MP stroke
-441 299 3723 2369 2 MP stroke
419 -238 3971 2290 2 MP stroke
696 231 3971 2290 2 MP stroke
-451 -332 3971 2290 2 MP stroke
-701 378 3971 2290 2 MP stroke
397 -229 3990 2282 2 MP stroke
671 246 3990 2282 2 MP stroke
-482 -320 3990 2282 2 MP stroke
-720 386 3990 2282 2 MP stroke
708 -320 4242 2247 2 MP stroke
431 278 4242 2247 2 MP stroke
-752 -291 4242 2247 2 MP stroke
-972 420 4242 2247 2 MP stroke
674 -314 4273 2240 2 MP stroke
399 285 4273 2240 2 MP stroke
-783 -284 4273 2240 2 MP stroke
-423 310 4273 2240 2 MP stroke
431 -236 4517 2163 2 MP stroke
154 362 4517 2163 2 MP stroke
-448 -339 4517 2163 2 MP stroke
-680 391 4517 2163 2 MP stroke
406 -226 4541 2154 2 MP stroke
670 228 4541 2154 2 MP stroke
-481 -326 4541 2154 2 MP stroke
-704 400 4541 2154 2 MP stroke
689 -328 4805 2119 2 MP stroke
-405 314 4805 2119 2 MP stroke
672 -326 4820 2117 2 MP stroke
-423 316 4820 2117 2 MP stroke
683 218 5045 2053 2 MP stroke
-463 -317 5045 2053 2 MP stroke
670 225 5058 2049 2 MP stroke
-477 -313 5058 2049 2 MP stroke
678 -343 5314 2000 2 MP stroke
-403 317 5314 2000 2 MP stroke
663 -341 5328 1998 2 MP stroke
-419 320 5328 1998 2 MP stroke
719 196 5604 1897 2 MP stroke
-463 -315 5604 1897 2 MP stroke
706 203 5617 1892 2 MP stroke
-478 -309 5617 1892 2 MP stroke
680 -352 5867 1834 2 MP stroke
-394 317 5867 1834 2 MP stroke
663 -349 5884 1831 2 MP stroke
-412 321 5884 1831 2 MP stroke
713 198 6159 1744 2 MP stroke
-449 -308 6159 1744 2 MP stroke
698 203 6173 1739 2 MP stroke
-465 -303 6173 1739 2 MP stroke
685 -346 6426 1709 2 MP stroke
-395 338 6426 1709 2 MP stroke
653 -343 6455 1706 2 MP stroke
-428 342 6455 1706 2 MP stroke
736 209 6717 1655 2 MP stroke
-443 -285 6717 1655 2 MP stroke
720 214 6733 1651 2 MP stroke
-462 -281 6733 1651 2 MP stroke
663 -330 7002 1650 2 MP stroke
-407 353 7002 1650 2 MP stroke
650 -331 7016 1650 2 MP stroke
-424 353 7016 1650 2 MP stroke
715 216 7258 1616 2 MP stroke
-446 -281 7258 1616 2 MP stroke
686 224 7286 1611 2 MP stroke
-478 -273 7286 1611 2 MP stroke
675 -336 7544 1609 2 MP stroke
-401 354 7544 1609 2 MP stroke
658 -336 7560 1609 2 MP stroke
-419 354 7560 1609 2 MP stroke
710 227 7825 1577 2 MP stroke
-465 -276 7825 1577 2 MP stroke
696 229 7837 1576 2 MP stroke
-482 -274 7837 1576 2 MP stroke
678 -325 8082 1578 2 MP stroke
-410 354 8082 1578 2 MP stroke
652 -327 8108 1578 2 MP stroke
-440 354 8108 1578 2 MP stroke
709 216 8356 1532 2 MP stroke
-456 -286 8356 1532 2 MP stroke
692 220 8371 1528 2 MP stroke
-473 -281 8371 1528 2 MP stroke
686 -349 8621 1506 2 MP stroke
-389 340 8621 1506 2 MP stroke
661 -350 8650 1504 2 MP stroke
-421 343 8650 1504 2 MP stroke
714 188 8900 1431 2 MP stroke
-459 -293 8900 1431 2 MP stroke
687 200 8926 1421 2 MP stroke
-490 -280 8926 1421 2 MP stroke
669 -364 9180 1390 2 MP stroke
-401 344 9180 1390 2 MP stroke
656 -362 9194 1388 2 MP stroke
-418 347 9194 1388 2 MP stroke
727 184 9447 1317 2 MP stroke
-452 -281 9447 1317 2 MP stroke
713 190 9463 1312 2 MP stroke
-469 -276 9463 1312 2 MP stroke
631 -349 9714 1292 2 MP stroke
-404 365 9714 1292 2 MP stroke
614 -350 9731 1292 2 MP stroke
-424 365 9731 1292 2 MP stroke
717 212 9999 1251 2 MP stroke
-456 -266 9999 1251 2 MP stroke
705 214 10011 1250 2 MP stroke
-472 -264 10011 1250 2 MP stroke
672 -331 10264 1254 2 MP stroke
-403 362 10264 1254 2 MP stroke
645 -336 10292 1256 2 MP stroke
-436 358 10292 1256 2 MP stroke
722 222 10557 1227 2 MP stroke
-449 -273 10557 1227 2 MP stroke
705 224 10572 1225 2 MP stroke
-467 -271 10572 1225 2 MP stroke
678 -328 10823 1227 2 MP stroke
-397 356 10823 1227 2 MP stroke
650 -329 10852 1228 2 MP stroke
-430 357 10852 1228 2 MP stroke
731 210 11108 1188 2 MP stroke
-450 -280 11108 1188 2 MP stroke
715 215 11124 1184 2 MP stroke
-468 -275 11124 1184 2 MP stroke
677 -337 11402 1177 2 MP stroke
-401 354 11402 1177 2 MP stroke
661 -338 11416 1177 2 MP stroke
-417 353 11416 1177 2 MP stroke
731 204 11670 1129 2 MP stroke
-447 -284 11670 1129 2 MP stroke
702 214 11698 1121 2 MP stroke
-479 -275 11698 1121 2 MP stroke
673 -342 11963 1112 2 MP stroke
-399 355 11963 1112 2 MP stroke
659 -344 11978 1113 2 MP stroke
-417 354 11978 1113 2 MP stroke
723 209 12253 1060 2 MP stroke
-453 -275 12253 1060 2 MP stroke
708 214 12265 1056 2 MP stroke
-468 -270 12265 1056 2 MP stroke
690 -341 12535 1052 2 MP stroke
-389 360 12535 1052 2 MP stroke
659 -343 12562 1051 2 MP stroke
-423 359 12562 1051 2 MP stroke
731 203 12825 1006 2 MP stroke
-452 -270 12825 1006 2 MP stroke
718 208 12839 1003 2 MP stroke
-468 -267 12839 1003 2 MP stroke
684 -342 13102 997 2 MP stroke
-385 355 13102 997 2 MP stroke
652 -342 13131 997 2 MP stroke
-419 356 13131 997 2 MP stroke
741 207 13397 950 2 MP stroke
-441 -276 13397 950 2 MP stroke
707 215 13423 945 2 MP stroke
-476 -268 13423 945 2 MP stroke
682 -337 13704 947 2 MP stroke
-396 356 13704 947 2 MP stroke
664 -338 13719 947 2 MP stroke
-413 355 13719 947 2 MP stroke
729 211 13970 905 2 MP stroke
-445 -276 13970 905 2 MP stroke
702 219 13998 898 2 MP stroke
-478 -267 13998 898 2 MP stroke
673 -341 14260 895 2 MP stroke
-394 353 14260 895 2 MP stroke
657 -342 14275 896 2 MP stroke
-411 352 14275 896 2 MP stroke
721 206 14551 838 2 MP stroke
-453 -277 14551 838 2 MP stroke
705 210 14564 835 2 MP stroke
-469 -274 14564 835 2 MP stroke
682 -347 14825 822 2 MP stroke
-390 356 14825 822 2 MP stroke
652 -349 14853 823 2 MP stroke
-423 355 14853 823 2 MP stroke
592 -345 14910 820 2 MP stroke
-483 358 14910 820 2 MP stroke
592 -345 14910 820 2 MP stroke
-483 358 14910 820 2 MP stroke
36 w
/c8 { 0.000000 0.000000 1.000000 sr} bdef
c8
63 -6 35 -1 266 -15 17 -5 280 -56 17 0 263 -5 34 -8 
257 -42 18 0 277 0 36 -7 265 -48 35 0 267 -7 17 -4 
262 -46 35 1 270 -7 17 -3 279 -53 18 0 265 -10 34 -9 
259 -49 17 0 284 -8 18 -4 259 -43 34 2 255 1 18 -3 
265 -32 34 3 260 4 17 -3 270 -42 16 0 265 -23 18 -5 
253 -71 16 -2 256 -34 33 -12 253 -74 34 -2 255 -24 16 -4 
251 -48 33 2 248 2 15 -3 264 -36 17 1 260 -5 33 -7 
250 -37 16 1 275 -4 17 -4 262 -55 34 -2 258 -33 17 -6 
273 -89 18 -3 267 -55 17 -8 276 -100 17 -2 256 -50 15 -6 
228 -68 16 -2 260 -41 32 -14 240 -81 34 -5 252 -34 33 -12 
244 -81 33 -5 237 -47 89 -54 3369 2473 85 MP stroke
0.8 sg
1 -7 4 -7 5 -5 6 -3 8 -1 7 1 6 3 5 5 
4 7 1 7 -1 8 -4 6 -5 5 -6 4 -7 1 -8 -1 
-6 -4 -5 -5 -4 -6 3988 2876 20 MP
PP
6 w
0 sg
-1 -8 1 -7 4 -7 5 -5 6 -3 8 -1 7 1 6 3 
5 5 4 7 1 7 -1 8 -4 6 -5 5 -6 4 -7 1 
-8 -1 -6 -4 -5 -5 -4 -6 3988 2876 21 MP stroke
0.8 sg
2 -7 3 -7 5 -5 6 -3 8 -2 7 2 6 3 5 5 
4 7 1 7 -1 7 -4 7 -5 5 -6 3 -7 2 -8 -2 
-6 -3 -5 -5 -3 -7 2792 2052 20 MP
PP
0 sg
-2 -7 2 -7 3 -7 5 -5 6 -3 8 -2 7 2 6 3 
5 5 4 7 1 7 -1 7 -4 7 -5 5 -6 3 -7 2 
-8 -2 -6 -3 -5 -5 -3 -7 2792 2052 21 MP stroke
0.8 sg
1 -7 3 -7 6 -5 6 -3 7 -1 7 1 7 3 5 5 
3 7 1 7 -1 7 -3 7 -5 5 -7 4 -7 1 -7 -1 
-6 -4 -6 -5 -3 -7 3988 2053 20 MP
PP
0 sg
-1 -7 1 -7 3 -7 6 -5 6 -3 7 -1 7 1 7 3 
5 5 3 7 1 7 -1 7 -3 7 -5 5 -7 4 -7 1 
-7 -1 -6 -4 -6 -5 -3 -7 3988 2053 21 MP stroke
0.8 sg
1 -7 3 -7 5 -5 7 -3 7 -2 7 2 7 3 5 5 
3 7 1 7 -1 7 -3 7 -5 5 -7 4 -7 1 -7 -1 
-7 -4 -5 -5 -3 -7 2792 2876 20 MP
PP
0 sg
-1 -7 1 -7 3 -7 5 -5 7 -3 7 -2 7 2 7 3 
5 5 3 7 1 7 -1 7 -3 7 -5 5 -7 4 -7 1 
-7 -1 -7 -4 -5 -5 -3 -7 2792 2876 21 MP stroke
0.8 sg
1 -8 4 -6 5 -6 6 -3 8 -2 7 2 6 3 6 6 
3 6 1 8 -1 8 -3 7 -6 5 -6 4 -7 1 -8 -1 
-6 -4 -5 -5 -4 -7 4089 2661 20 MP
PP
0 sg
-1 -8 1 -8 4 -6 5 -6 6 -3 8 -2 7 2 6 3 
6 6 3 6 1 8 -1 8 -3 7 -6 5 -6 4 -7 1 
-8 -1 -6 -4 -5 -5 -4 -7 4089 2661 21 MP stroke
0.8 sg
1 -8 3 -6 6 -6 6 -3 8 -1 7 1 7 3 5 6 
3 6 1 8 -1 7 -3 7 -5 5 -7 3 -7 2 -8 -2 
-6 -3 -6 -5 -3 -7 2946 2069 20 MP
PP
0 sg
-1 -7 1 -8 3 -6 6 -6 6 -3 8 -1 7 1 7 3 
5 6 3 6 1 8 -1 7 -3 7 -5 5 -7 3 -7 2 
-8 -2 -6 -3 -6 -5 -3 -7 2946 2069 21 MP stroke
0.8 sg
1 -8 3 -8 6 -6 7 -3 7 -2 8 2 7 3 5 6 
4 8 1 8 -1 8 -4 8 -5 6 -7 3 -8 2 -7 -2 
-7 -3 -6 -6 -3 -8 4413 2044 20 MP
PP
0 sg
-1 -8 1 -8 3 -8 6 -6 7 -3 7 -2 8 2 7 3 
5 6 4 8 1 8 -1 8 -4 8 -5 6 -7 3 -8 2 
-7 -2 -7 -3 -6 -6 -3 -8 4413 2044 21 MP stroke
0.8 sg
1 -8 4 -6 5 -6 7 -3 7 -1 8 1 6 3 6 6 
3 6 1 8 -1 7 -3 7 -6 5 -6 4 -8 1 -7 -1 
-7 -4 -5 -5 -4 -7 3293 2661 20 MP
PP
0 sg
-1 -7 1 -8 4 -6 5 -6 7 -3 7 -1 8 1 6 3 
6 6 3 6 1 8 -1 7 -3 7 -6 5 -6 4 -8 1 
-7 -1 -7 -4 -5 -5 -4 -7 3293 2661 21 MP stroke
0.8 sg
1 -9 4 -8 5 -7 7 -4 8 -1 8 1 7 4 5 7 
4 8 1 9 -1 9 -4 8 -5 6 -7 4 -8 1 -8 -1 
-7 -4 -5 -6 -4 -8 4697 2516 20 MP
PP
0 sg
-1 -9 1 -9 4 -8 5 -7 7 -4 8 -1 8 1 7 4 
5 7 4 8 1 9 -1 9 -4 8 -5 6 -7 4 -8 1 
-8 -1 -7 -4 -5 -6 -4 -8 4697 2516 21 MP stroke
0.8 sg
1 -8 4 -6 5 -6 7 -3 8 -2 8 2 7 3 6 6 
3 6 2 8 -2 8 -3 7 -6 5 -7 4 -8 1 -8 -1 
-7 -4 -5 -5 -4 -7 3514 1948 20 MP
PP
0 sg
-1 -8 1 -8 4 -6 5 -6 7 -3 8 -2 8 2 7 3 
6 6 3 6 2 8 -2 8 -3 7 -6 5 -7 4 -8 1 
-8 -1 -7 -4 -5 -5 -4 -7 3514 1948 21 MP stroke
0.8 sg
2 -10 3 -9 6 -7 7 -4 9 -1 8 1 7 4 6 7 
3 9 2 10 -2 9 -3 9 -6 7 -7 4 -8 2 -9 -2 
-7 -4 -6 -7 -3 -9 4973 1918 20 MP
PP
0 sg
-2 -9 2 -10 3 -9 6 -7 7 -4 9 -1 8 1 7 4 
6 7 3 9 2 10 -2 9 -3 9 -6 7 -7 4 -8 2 
-9 -2 -7 -4 -6 -7 -3 -9 4973 1918 21 MP stroke
0.8 sg
1 -8 4 -8 5 -5 8 -4 7 -1 8 1 7 4 6 5 
4 8 1 8 -1 8 -4 7 -6 6 -7 3 -8 2 -7 -2 
-8 -3 -5 -6 -4 -7 3861 2546 20 MP
PP
0 sg
-1 -8 1 -8 4 -8 5 -5 8 -4 7 -1 8 1 7 4 
6 5 4 8 1 8 -1 8 -4 7 -6 6 -7 3 -8 2 
-7 -2 -8 -3 -5 -6 -4 -7 3861 2546 21 MP stroke
0.8 sg
1 -11 4 -9 5 -7 8 -5 8 -2 8 2 7 5 6 7 
3 9 2 11 -2 10 -3 9 -6 8 -7 5 -8 1 -8 -1 
-8 -5 -5 -8 -4 -9 5235 2374 20 MP
PP
0 sg
-1 -10 1 -11 4 -9 5 -7 8 -5 8 -2 8 2 7 5 
6 7 3 9 2 11 -2 10 -3 9 -6 8 -7 5 -8 1 
-8 -1 -8 -5 -5 -8 -4 -9 5235 2374 21 MP stroke
0.8 sg
1 -9 4 -7 6 -6 7 -4 9 -2 8 2 8 4 6 6 
3 7 2 9 -2 8 -3 8 -6 6 -8 3 -8 2 -9 -2 
-7 -3 -6 -6 -4 -8 4072 1820 20 MP
PP
0 sg
-1 -8 1 -9 4 -7 6 -6 7 -4 9 -2 8 2 8 4 
6 6 3 7 2 9 -2 8 -3 8 -6 6 -8 3 -8 2 
-9 -2 -7 -3 -6 -6 -4 -8 4072 1820 21 MP stroke
0.8 sg
1 -11 4 -10 6 -8 8 -5 8 -2 9 2 8 5 6 8 
4 10 1 11 -1 11 -4 10 -6 8 -8 5 -9 2 -8 -2 
-8 -5 -6 -8 -4 -10 5515 1782 20 MP
PP
0 sg
-1 -11 1 -11 4 -10 6 -8 8 -5 8 -2 9 2 8 5 
6 8 4 10 1 11 -1 11 -4 10 -6 8 -8 5 -9 2 
-8 -2 -8 -5 -6 -8 -4 -10 5515 1782 21 MP stroke
0.8 sg
1 -9 4 -8 6 -7 7 -4 8 -1 8 1 8 4 6 7 
4 8 1 9 -1 9 -4 8 -6 6 -8 4 -8 2 -8 -2 
-7 -4 -6 -6 -4 -8 4404 2428 20 MP
PP
0 sg
-1 -9 1 -9 4 -8 6 -7 7 -4 8 -1 8 1 8 4 
6 7 4 8 1 9 -1 9 -4 8 -6 6 -8 4 -8 2 
-8 -2 -7 -4 -6 -6 -4 -8 4404 2428 21 MP stroke
0.8 sg
2 -12 4 -10 6 -9 7 -5 9 -2 8 2 8 5 6 9 
4 10 1 12 -1 12 -4 11 -6 8 -8 6 -8 2 -9 -2 
-7 -6 -6 -8 -4 -11 5753 2262 20 MP
PP
0 sg
-2 -12 2 -12 4 -10 6 -9 7 -5 9 -2 8 2 8 5 
6 9 4 10 1 12 -1 12 -4 11 -6 8 -8 6 -8 2 
-9 -2 -7 -6 -6 -8 -4 -11 5753 2262 21 MP stroke
0.8 sg
1 -10 4 -8 6 -7 8 -4 9 -2 9 2 8 4 6 7 
4 8 2 10 -2 9 -4 9 -6 6 -8 5 -9 1 -9 -1 
-8 -5 -6 -6 -4 -9 4607 1726 20 MP
PP
0 sg
-1 -9 1 -10 4 -8 6 -7 8 -4 9 -2 9 2 8 4 
6 7 4 8 2 10 -2 9 -4 9 -6 6 -8 5 -9 1 
-9 -1 -8 -5 -6 -6 -4 -9 4607 1726 21 MP stroke
0.8 sg
2 -13 4 -11 6 -9 9 -6 9 -2 9 2 8 6 6 9 
5 11 1 13 -1 13 -5 11 -6 9 -8 6 -9 2 -9 -2 
-9 -6 -6 -9 -4 -11 6015 1640 20 MP
PP
0 sg
-2 -13 2 -13 4 -11 6 -9 9 -6 9 -2 9 2 8 6 
6 9 5 11 1 13 -1 13 -5 11 -6 9 -8 6 -9 2 
-9 -2 -9 -6 -6 -9 -4 -11 6015 1640 21 MP stroke
0.8 sg
2 -10 4 -9 6 -7 8 -5 8 -2 9 2 8 5 6 7 
4 9 1 10 -1 10 -4 10 -6 7 -8 5 -9 1 -8 -1 
-8 -5 -6 -7 -4 -10 4927 2306 20 MP
PP
0 sg
-2 -10 2 -10 4 -9 6 -7 8 -5 8 -2 9 2 8 5 
6 7 4 9 1 10 -1 10 -4 10 -6 7 -8 5 -9 1 
-8 -1 -8 -5 -6 -7 -4 -10 4927 2306 21 MP stroke
0.8 sg
2 -14 4 -13 6 -10 8 -6 9 -2 9 2 8 6 6 10 
4 13 2 14 -2 13 -4 13 -6 10 -8 6 -9 2 -9 -2 
-8 -6 -6 -10 -4 -13 6360 2082 20 MP
PP
0 sg
-2 -13 2 -14 4 -13 6 -10 8 -6 9 -2 9 2 8 6 
6 10 4 13 2 14 -2 13 -4 13 -6 10 -8 6 -9 2 
-9 -2 -8 -6 -6 -10 -4 -13 6360 2082 21 MP stroke
0.8 sg
2 -10 4 -10 7 -8 8 -5 9 -1 10 1 8 5 7 8 
4 10 2 10 -2 11 -4 10 -7 8 -8 4 -10 2 -9 -2 
-8 -4 -7 -8 -4 -10 5155 1572 20 MP
PP
0 sg
-2 -11 2 -10 4 -10 7 -8 8 -5 9 -1 10 1 8 5 
7 8 4 10 2 10 -2 11 -4 10 -7 8 -8 4 -10 2 
-9 -2 -8 -4 -7 -8 -4 -10 5155 1572 21 MP stroke
0.8 sg
1 -14 5 -13 6 -11 9 -6 10 -3 9 3 9 6 7 11 
5 13 1 14 -1 15 -5 13 -7 11 -9 6 -9 3 -10 -3 
-9 -6 -6 -11 -5 -13 6575 1467 20 MP
PP
0 sg
-1 -15 1 -14 5 -13 6 -11 9 -6 10 -3 9 3 9 6 
7 11 5 13 1 14 -1 15 -5 13 -7 11 -9 6 -9 3 
-10 -3 -9 -6 -6 -11 -5 -13 6575 1467 21 MP stroke
0.8 sg
2 -12 4 -10 6 -9 9 -5 9 -2 9 2 8 5 6 9 
4 10 2 12 -2 11 -4 11 -6 8 -8 6 -9 1 -9 -1 
-9 -6 -6 -8 -4 -11 5498 2140 20 MP
PP
0 sg
-2 -11 2 -12 4 -10 6 -9 9 -5 9 -2 9 2 8 5 
6 9 4 10 2 12 -2 11 -4 11 -6 8 -8 6 -9 1 
-9 -1 -9 -6 -6 -8 -4 -11 5498 2140 21 MP stroke
0.8 sg
2 -16 4 -14 7 -12 8 -7 10 -2 9 2 8 7 7 12 
4 14 2 16 -2 15 -4 14 -7 12 -8 7 -9 2 -10 -2 
-8 -7 -7 -12 -4 -14 6894 1929 20 MP
PP
0 sg
-2 -15 2 -16 4 -14 7 -12 8 -7 10 -2 9 2 8 7 
7 12 4 14 2 16 -2 15 -4 14 -7 12 -8 7 -9 2 
-10 -2 -8 -7 -7 -12 -4 -14 6894 1929 21 MP stroke
0.8 sg
1 -13 5 -11 7 -9 9 -5 10 -2 10 2 9 5 7 9 
4 11 2 13 -2 12 -4 11 -7 9 -9 6 -10 2 -10 -2 
-9 -6 -7 -9 -5 -11 5732 1427 20 MP
PP
0 sg
-1 -12 1 -13 5 -11 7 -9 9 -5 10 -2 10 2 9 5 
7 9 4 11 2 13 -2 12 -4 11 -7 9 -9 6 -10 2 
-10 -2 -9 -6 -7 -9 -5 -11 5732 1427 21 MP stroke
0.8 sg
1 -17 5 -15 7 -12 9 -7 10 -3 11 3 9 7 7 12 
5 15 1 17 -1 16 -5 15 -7 12 -9 7 -11 3 -10 -3 
-9 -7 -7 -12 -5 -15 7136 1346 20 MP
PP
0 sg
-1 -16 1 -17 5 -15 7 -12 9 -7 10 -3 11 3 9 7 
7 12 5 15 1 17 -1 16 -5 15 -7 12 -9 7 -11 3 
-10 -3 -9 -7 -7 -12 -5 -15 7136 1346 21 MP stroke
0.8 sg
1 -13 5 -12 7 -9 8 -7 9 -2 10 2 8 7 7 9 
4 12 2 13 -2 14 -4 12 -7 9 -8 6 -10 2 -9 -2 
-8 -6 -7 -9 -5 -12 6053 2035 20 MP
PP
0 sg
-1 -14 1 -13 5 -12 7 -9 8 -7 9 -2 10 2 8 7 
7 9 4 12 2 13 -2 14 -4 12 -7 9 -8 6 -10 2 
-9 -2 -8 -6 -7 -9 -5 -12 6053 2035 21 MP stroke
0.8 sg
1 -18 5 -16 7 -12 8 -9 10 -2 10 2 9 9 6 12 
5 16 1 18 -1 18 -5 16 -6 13 -9 8 -10 3 -10 -3 
-8 -8 -7 -13 -5 -16 7477 1849 20 MP
PP
0 sg
-1 -18 1 -18 5 -16 7 -12 8 -9 10 -2 10 2 9 9 
6 12 5 16 1 18 -1 18 -5 16 -6 13 -9 8 -10 3 
-10 -3 -8 -8 -7 -13 -5 -16 7477 1849 21 MP stroke
0.8 sg
1 -15 5 -12 8 -10 9 -7 10 -2 10 2 10 7 7 10 
5 12 1 15 -1 14 -5 12 -7 10 -10 7 -10 2 -10 -2 
-9 -7 -8 -10 -5 -12 6295 1357 20 MP
PP
0 sg
-1 -14 1 -15 5 -12 8 -10 9 -7 10 -2 10 2 10 7 
7 10 5 12 1 15 -1 14 -5 12 -7 10 -10 7 -10 2 
-10 -2 -9 -7 -8 -10 -5 -12 6295 1357 21 MP stroke
0.8 sg
1 -19 5 -16 8 -14 9 -8 11 -3 10 3 10 8 7 14 
5 16 2 19 -2 19 -5 16 -7 14 -10 8 -10 3 -11 -3 
-9 -8 -8 -14 -5 -16 7699 1298 20 MP
PP
0 sg
-1 -19 1 -19 5 -16 8 -14 9 -8 11 -3 10 3 10 8 
7 14 5 16 2 19 -2 19 -5 16 -7 14 -10 8 -10 3 
-11 -3 -9 -8 -8 -14 -5 -16 7699 1298 21 MP stroke
0.8 sg
1 -15 5 -14 7 -10 8 -7 10 -3 10 3 9 7 7 10 
4 14 2 15 -2 15 -4 14 -7 11 -9 7 -10 2 -10 -2 
-8 -7 -7 -11 -5 -14 6615 1988 20 MP
PP
0 sg
-1 -15 1 -15 5 -14 7 -10 8 -7 10 -3 10 3 9 7 
7 10 4 14 2 15 -2 15 -4 14 -7 11 -9 7 -10 2 
-10 -2 -8 -7 -7 -11 -5 -14 6615 1988 21 MP stroke
0.8 sg
1 -20 5 -18 7 -14 9 -9 10 -3 10 3 9 9 7 14 
5 18 2 20 -2 19 -5 18 -7 14 -9 9 -10 4 -10 -4 
-9 -9 -7 -14 -5 -18 8003 1816 20 MP
PP
0 sg
-1 -19 1 -20 5 -18 7 -14 9 -9 10 -3 10 3 9 9 
7 14 5 18 2 20 -2 19 -5 18 -7 14 -9 9 -10 4 
-10 -4 -9 -9 -7 -14 -5 -18 8003 1816 21 MP stroke
0.8 sg
2 -16 5 -15 7 -11 10 -7 11 -3 10 3 10 7 7 11 
5 15 2 16 -2 15 -5 15 -7 11 -10 8 -10 2 -11 -2 
-10 -8 -7 -11 -5 -15 6838 1322 20 MP
PP
0 sg
-2 -15 2 -16 5 -15 7 -11 10 -7 11 -3 10 3 10 7 
7 11 5 15 2 16 -2 15 -5 15 -7 11 -10 8 -10 2 
-11 -2 -10 -8 -7 -11 -5 -15 6838 1322 21 MP stroke
0.8 sg
2 -20 5 -19 8 -15 10 -9 11 -4 10 4 10 9 8 15 
5 19 2 20 -2 21 -5 19 -8 15 -10 9 -10 3 -11 -3 
-10 -9 -8 -15 -5 -19 8248 1254 20 MP
PP
0 sg
-2 -21 2 -20 5 -19 8 -15 10 -9 11 -4 10 4 10 9 
8 15 5 19 2 20 -2 21 -5 19 -8 15 -10 9 -10 3 
-11 -3 -10 -9 -8 -15 -5 -19 8248 1254 21 MP stroke
0.8 sg
2 -17 4 -16 7 -12 10 -8 10 -3 10 3 9 8 7 12 
5 16 1 17 -1 17 -5 15 -7 12 -9 8 -10 3 -10 -3 
-10 -8 -7 -12 -4 -15 7150 1952 20 MP
PP
0 sg
-2 -17 2 -17 4 -16 7 -12 10 -8 10 -3 10 3 9 8 
7 12 5 16 1 17 -1 17 -5 15 -7 12 -9 8 -10 3 
-10 -3 -10 -8 -7 -12 -4 -15 7150 1952 21 MP stroke
0.8 sg
2 -22 4 -19 8 -16 9 -10 11 -4 10 4 9 10 8 16 
4 19 2 22 -2 22 -4 20 -8 16 -9 10 -10 3 -11 -3 
-9 -10 -8 -16 -4 -20 8562 1784 20 MP
PP
0 sg
-2 -22 2 -22 4 -19 8 -16 9 -10 11 -4 10 4 9 10 
8 16 4 19 2 22 -2 22 -4 20 -8 16 -9 10 -10 3 
-11 -3 -9 -10 -8 -16 -4 -20 8562 1784 21 MP stroke
0.8 sg
2 -18 5 -16 8 -12 10 -9 11 -2 11 2 10 9 8 12 
5 16 1 18 -1 18 -5 16 -8 13 -10 8 -11 3 -11 -3 
-10 -8 -8 -13 -5 -16 7383 1283 20 MP
PP
0 sg
-2 -18 2 -18 5 -16 8 -12 10 -9 11 -2 11 2 10 9 
8 12 5 16 1 18 -1 18 -5 16 -8 13 -10 8 -11 3 
-11 -3 -10 -8 -8 -13 -5 -16 7383 1283 21 MP stroke
0.8 sg
2 -23 5 -21 8 -16 10 -10 11 -4 12 4 10 10 8 16 
5 21 2 23 -2 23 -5 21 -8 16 -10 10 -12 4 -11 -4 
-10 -10 -8 -16 -5 -21 8799 1226 20 MP
PP
0 sg
-2 -23 2 -23 5 -21 8 -16 10 -10 11 -4 12 4 10 10 
8 16 5 21 2 23 -2 23 -5 21 -8 16 -10 10 -12 4 
-11 -4 -10 -10 -8 -16 -5 -21 8799 1226 21 MP stroke
0.8 sg
2 -19 5 -18 7 -13 10 -9 10 -3 11 3 9 9 7 13 
5 18 2 19 -2 19 -5 17 -7 13 -9 9 -11 3 -10 -3 
-10 -9 -7 -13 -5 -17 7697 1912 20 MP
PP
0 sg
-2 -19 2 -19 5 -18 7 -13 10 -9 10 -3 11 3 9 9 
7 13 5 18 2 19 -2 19 -5 17 -7 13 -9 9 -11 3 
-10 -3 -10 -9 -7 -13 -5 -17 7697 1912 21 MP stroke
0.8 sg
1 -24 5 -22 8 -17 10 -11 10 -4 11 4 10 11 7 17 
5 22 2 24 -2 24 -5 22 -7 17 -10 11 -11 4 -10 -4 
-10 -11 -8 -17 -5 -22 9092 1725 20 MP
PP
0 sg
-1 -24 1 -24 5 -22 8 -17 10 -11 10 -4 11 4 10 11 
7 17 5 22 2 24 -2 24 -5 22 -7 17 -10 11 -11 4 
-10 -4 -10 -11 -8 -17 -5 -22 9092 1725 21 MP stroke
0.8 sg
2 -20 5 -17 8 -15 11 -9 11 -3 11 3 11 9 8 15 
5 17 2 20 -2 20 -5 18 -8 14 -11 9 -11 3 -11 -3 
-11 -9 -8 -14 -5 -18 7928 1227 20 MP
PP
0 sg
-2 -20 2 -20 5 -17 8 -15 11 -9 11 -3 11 3 11 9 
8 15 5 17 2 20 -2 20 -5 18 -8 14 -11 9 -11 3 
-11 -3 -11 -9 -8 -14 -5 -18 7928 1227 21 MP stroke
0.8 sg
2 -25 5 -23 8 -18 11 -11 12 -4 11 4 11 11 8 18 
6 23 1 25 -1 25 -6 23 -8 18 -11 11 -11 4 -12 -4 
-11 -11 -8 -18 -5 -23 9348 1127 20 MP
PP
0 sg
-2 -25 2 -25 5 -23 8 -18 11 -11 12 -4 11 4 11 11 
8 18 6 23 1 25 -1 25 -6 23 -8 18 -11 11 -11 4 
-12 -4 -11 -11 -8 -18 -5 -23 9348 1127 21 MP stroke
0.8 sg
2 -22 5 -19 8 -15 9 -9 11 -4 11 4 10 9 7 15 
5 19 2 22 -2 21 -5 19 -7 15 -10 9 -11 4 -11 -4 
-9 -9 -8 -15 -5 -19 8257 1825 20 MP
PP
0 sg
-2 -21 2 -22 5 -19 8 -15 9 -9 11 -4 11 4 10 9 
7 15 5 19 2 22 -2 21 -5 19 -7 15 -10 9 -11 4 
-11 -4 -9 -9 -8 -15 -5 -19 8257 1825 21 MP stroke
0.8 sg
2 -26 5 -24 8 -19 10 -12 11 -4 12 4 10 12 8 19 
5 24 1 26 -1 27 -5 23 -8 19 -10 12 -12 5 -11 -5 
-10 -12 -8 -19 -5 -23 9650 1596 20 MP
PP
0 sg
-2 -27 2 -26 5 -24 8 -19 10 -12 11 -4 12 4 10 12 
8 19 5 24 1 26 -1 27 -5 23 -8 19 -10 12 -12 5 
-11 -5 -10 -12 -8 -19 -5 -23 9650 1596 21 MP stroke
0.8 sg
2 -22 5 -20 9 -16 10 -10 12 -3 12 3 11 10 8 16 
6 20 2 22 -2 21 -6 20 -8 16 -11 10 -12 3 -12 -3 
-10 -10 -9 -16 -5 -20 8469 1120 20 MP
PP
0 sg
-2 -21 2 -22 5 -20 9 -16 10 -10 12 -3 12 3 11 10 
8 16 6 20 2 22 -2 21 -6 20 -8 16 -11 10 -12 3 
-12 -3 -10 -10 -9 -16 -5 -20 8469 1120 21 MP stroke
0.8 sg
2 -28 6 -25 8 -19 11 -13 13 -4 12 4 11 13 9 19 
5 25 2 28 -2 27 -5 25 -9 19 -11 13 -12 4 -13 -4 
-11 -13 -8 -19 -6 -25 9889 997 20 MP
PP
0 sg
-2 -27 2 -28 6 -25 8 -19 11 -13 13 -4 12 4 11 13 
9 19 5 25 2 28 -2 27 -5 25 -9 19 -11 13 -12 4 
-13 -4 -11 -13 -8 -19 -6 -25 9889 997 21 MP stroke
0.8 sg
2 -23 5 -21 8 -17 10 -10 11 -4 12 4 10 10 8 17 
5 21 1 23 -1 23 -5 21 -8 17 -10 11 -12 3 -11 -3 
-10 -11 -8 -17 -5 -21 8808 1712 20 MP
PP
0 sg
-2 -23 2 -23 5 -21 8 -17 10 -10 11 -4 12 4 10 10 
8 17 5 21 1 23 -1 23 -5 21 -8 17 -10 11 -12 3 
-11 -3 -10 -11 -8 -17 -5 -21 8808 1712 21 MP stroke
0.8 sg
2 -28 6 -26 8 -21 10 -13 12 -5 11 5 11 13 8 21 
5 26 2 28 -2 29 -5 26 -8 21 -11 13 -11 5 -12 -5 
-10 -13 -8 -21 -6 -26 10230 1476 20 MP
PP
0 sg
-2 -29 2 -28 6 -26 8 -21 10 -13 12 -5 11 5 11 13 
8 21 5 26 2 28 -2 29 -5 26 -8 21 -11 13 -11 5 
-12 -5 -10 -13 -8 -21 -6 -26 10230 1476 21 MP stroke
0.8 sg
2 -25 5 -21 9 -18 11 -11 13 -3 12 3 11 11 9 18 
6 21 2 25 -2 24 -6 21 -9 18 -11 11 -12 4 -13 -4 
-11 -11 -9 -18 -5 -21 9021 1013 20 MP
PP
0 sg
-2 -24 2 -25 5 -21 9 -18 11 -11 13 -3 12 3 11 11 
9 18 6 21 2 25 -2 24 -6 21 -9 18 -11 11 -12 4 
-13 -4 -11 -11 -9 -18 -5 -21 9021 1013 21 MP stroke
0.8 sg
2 -29 5 -27 9 -21 12 -14 13 -4 12 4 12 14 9 21 
6 27 2 29 -2 30 -6 27 -9 21 -12 14 -12 4 -13 -4 
-12 -14 -9 -21 -5 -27 10382 912 20 MP
PP
0 sg
-2 -30 2 -29 5 -27 9 -21 12 -14 13 -4 12 4 12 14 
9 21 6 27 2 29 -2 30 -6 27 -9 21 -12 14 -12 4 
-13 -4 -12 -14 -9 -21 -5 -27 10382 912 21 MP stroke
0.8 sg
2 -26 5 -23 8 -18 11 -11 11 -5 12 5 10 11 8 18 
5 23 2 26 -2 25 -5 23 -8 18 -10 12 -12 4 -11 -4 
-11 -12 -8 -18 -5 -23 9336 1632 20 MP
PP
0 sg
-2 -25 2 -26 5 -23 8 -18 11 -11 11 -5 12 5 10 11 
8 18 5 23 2 26 -2 25 -5 23 -8 18 -10 12 -12 4 
-11 -4 -11 -12 -8 -18 -5 -23 9336 1632 21 MP stroke
0.8 sg
2 -31 5 -28 9 -23 11 -14 12 -5 11 5 11 14 9 23 
5 28 2 31 -2 31 -5 29 -9 22 -11 14 -11 5 -12 -5 
-11 -14 -9 -22 -5 -29 10760 1434 20 MP
PP
0 sg
-2 -31 2 -31 5 -28 9 -23 11 -14 12 -5 11 5 11 14 
9 23 5 28 2 31 -2 31 -5 29 -9 22 -11 14 -11 5 
-12 -5 -11 -14 -9 -22 -5 -29 10760 1434 21 MP stroke
0.8 sg
2 -27 6 -24 9 -18 11 -13 13 -4 13 4 11 13 9 18 
6 24 2 27 -2 26 -6 24 -9 19 -11 12 -13 4 -13 -4 
-11 -12 -9 -19 -6 -24 9572 960 20 MP
PP
0 sg
-2 -26 2 -27 6 -24 9 -18 11 -13 13 -4 13 4 11 13 
9 18 6 24 2 27 -2 26 -6 24 -9 19 -11 12 -13 4 
-13 -4 -11 -12 -9 -19 -6 -24 9572 960 21 MP stroke
0.8 sg
2 -32 6 -29 10 -23 11 -15 13 -5 13 5 12 15 9 23 
6 29 2 32 -2 32 -6 29 -9 23 -12 15 -13 5 -13 -5 
-11 -15 -10 -23 -6 -29 10980 888 20 MP
PP
0 sg
-2 -32 2 -32 6 -29 10 -23 11 -15 13 -5 13 5 12 15 
9 23 6 29 2 32 -2 32 -6 29 -9 23 -12 15 -13 5 
-13 -5 -11 -15 -10 -23 -6 -29 10980 888 21 MP stroke
0.8 sg
2 -28 6 -25 8 -20 11 -12 11 -5 12 5 11 12 8 20 
6 25 2 28 -2 27 -6 25 -8 20 -11 13 -12 4 -11 -4 
-11 -13 -8 -20 -6 -25 9890 1588 20 MP
PP
0 sg
-2 -27 2 -28 6 -25 8 -20 11 -12 11 -5 12 5 11 12 
8 20 6 25 2 28 -2 27 -6 25 -8 20 -11 13 -12 4 
-11 -4 -11 -13 -8 -20 -6 -25 9890 1588 21 MP stroke
0.8 sg
2 -34 5 -31 9 -24 11 -15 12 -6 12 6 11 15 9 24 
6 31 2 34 -2 34 -6 30 -9 24 -11 16 -12 5 -12 -5 
-11 -16 -9 -24 -5 -30 11311 1416 20 MP
PP
0 sg
-2 -34 2 -34 5 -31 9 -24 11 -15 12 -6 12 6 11 15 
9 24 6 31 2 34 -2 34 -6 30 -9 24 -11 16 -12 5 
-12 -5 -11 -16 -9 -24 -5 -30 11311 1416 21 MP stroke
0.8 sg
2 -29 6 -26 9 -21 12 -13 13 -5 13 5 12 13 9 21 
6 26 2 29 -2 28 -6 26 -9 21 -12 13 -13 5 -13 -5 
-12 -13 -9 -21 -6 -26 10141 926 20 MP
PP
0 sg
-2 -28 2 -29 6 -26 9 -21 12 -13 13 -5 13 5 12 13 
9 21 6 26 2 29 -2 28 -6 26 -9 21 -12 13 -13 5 
-13 -5 -12 -13 -9 -21 -6 -26 10141 926 21 MP stroke
0.8 sg
2 -35 6 -32 10 -25 12 -16 13 -5 13 5 12 16 10 25 
6 32 2 35 -2 34 -6 32 -10 25 -12 16 -13 5 -13 -5 
-12 -16 -10 -25 -6 -32 11544 863 20 MP
PP
0 sg
-2 -34 2 -35 6 -32 10 -25 12 -16 13 -5 13 5 12 16 
10 25 6 32 2 35 -2 34 -6 32 -10 25 -12 16 -13 5 
-13 -5 -12 -16 -10 -25 -6 -32 11544 863 21 MP stroke
0.8 sg
2 -30 5 -28 9 -21 11 -14 12 -5 12 5 11 14 9 21 
5 28 2 30 -2 30 -5 27 -9 22 -11 14 -12 4 -12 -4 
-11 -14 -9 -22 -5 -27 10455 1555 20 MP
PP
0 sg
-2 -30 2 -30 5 -28 9 -21 11 -14 12 -5 12 5 11 14 
9 21 5 28 2 30 -2 30 -5 27 -9 22 -11 14 -12 4 
-12 -4 -11 -14 -9 -22 -5 -27 10455 1555 21 MP stroke
0.8 sg
2 -36 5 -33 9 -26 11 -17 13 -6 12 6 12 17 9 26 
5 33 2 36 -2 36 -5 33 -9 26 -12 17 -12 6 -13 -6 
-11 -17 -9 -26 -5 -33 11878 1365 20 MP
PP
0 sg
-2 -36 2 -36 5 -33 9 -26 11 -17 13 -6 12 6 12 17 
9 26 5 33 2 36 -2 36 -5 33 -9 26 -12 17 -12 6 
-13 -6 -11 -17 -9 -26 -5 -33 11878 1365 21 MP stroke
0.8 sg
2 -31 6 -28 10 -23 12 -14 13 -5 14 5 12 14 9 23 
6 28 3 31 -3 31 -6 28 -9 23 -12 14 -14 5 -13 -5 
-12 -14 -10 -23 -6 -28 10692 879 20 MP
PP
0 sg
-2 -31 2 -31 6 -28 10 -23 12 -14 13 -5 14 5 12 14 
9 23 6 28 3 31 -3 31 -6 28 -9 23 -12 14 -14 5 
-13 -5 -12 -14 -10 -23 -6 -28 10692 879 21 MP stroke
0.8 sg
2 -37 6 -34 10 -27 12 -18 14 -6 14 6 12 18 10 27 
6 34 2 37 -2 38 -6 34 -10 27 -12 17 -14 6 -14 -6 
-12 -17 -10 -27 -6 -34 12116 800 20 MP
PP
0 sg
-2 -38 2 -37 6 -34 10 -27 12 -18 14 -6 14 6 12 18 
10 27 6 34 2 37 -2 38 -6 34 -10 27 -12 17 -14 6 
-14 -6 -12 -17 -10 -27 -6 -34 12116 800 21 MP stroke
0.8 sg
2 -33 6 -29 8 -24 12 -15 12 -5 12 5 12 15 8 24 
6 29 2 33 -2 33 -6 29 -8 24 -12 15 -12 5 -12 -5 
-12 -15 -8 -24 -6 -29 11031 1496 20 MP
PP
0 sg
-2 -33 2 -33 6 -29 8 -24 12 -15 12 -5 12 5 12 15 
8 24 6 29 2 33 -2 33 -6 29 -8 24 -12 15 -12 5 
-12 -5 -12 -15 -8 -24 -6 -29 11031 1496 21 MP stroke
0.8 sg
2 -39 6 -35 10 -28 11 -18 13 -6 13 6 11 18 9 28 
6 35 2 39 -2 40 -6 35 -9 28 -11 18 -13 6 -13 -6 
-11 -18 -10 -28 -6 -35 12443 1296 20 MP
PP
0 sg
-2 -40 2 -39 6 -35 10 -28 11 -18 13 -6 13 6 11 18 
9 28 6 35 2 39 -2 40 -6 35 -9 28 -11 18 -13 6 
-13 -6 -11 -18 -10 -28 -6 -35 12443 1296 21 MP stroke
0.8 sg
3 -34 6 -30 10 -24 12 -16 14 -5 14 5 12 16 10 24 
6 30 2 34 -2 34 -6 30 -10 24 -12 16 -14 5 -14 -5 
-12 -16 -10 -24 -6 -30 11259 813 20 MP
PP
0 sg
-3 -34 3 -34 6 -30 10 -24 12 -16 14 -5 14 5 12 16 
10 24 6 30 2 34 -2 34 -6 30 -10 24 -12 16 -14 5 
-14 -5 -12 -16 -10 -24 -6 -30 11259 813 21 MP stroke
0.8 sg
3 -40 6 -36 10 -29 13 -19 14 -6 14 6 12 19 11 29 
6 36 2 40 -2 41 -6 36 -11 29 -12 18 -14 7 -14 -7 
-13 -18 -10 -29 -6 -36 12675 726 20 MP
PP
0 sg
-3 -41 3 -40 6 -36 10 -29 13 -19 14 -6 14 6 12 19 
11 29 6 36 2 40 -2 41 -6 36 -11 29 -12 18 -14 7 
-14 -7 -13 -18 -10 -29 -6 -36 12675 726 21 MP stroke
0.8 sg
2 -35 6 -32 9 -25 11 -16 13 -6 13 6 11 16 9 25 
6 32 2 35 -2 36 -6 32 -9 25 -11 16 -13 6 -13 -6 
-11 -16 -9 -25 -6 -32 11590 1431 20 MP
PP
0 sg
-2 -36 2 -35 6 -32 9 -25 11 -16 13 -6 13 6 11 16 
9 25 6 32 2 35 -2 36 -6 32 -9 25 -11 16 -13 6 
-13 -6 -11 -16 -9 -25 -6 -32 11590 1431 21 MP stroke
0.8 sg
2 -42 6 -38 10 -30 12 -19 13 -7 13 7 12 19 9 30 
6 38 2 42 -2 42 -6 38 -9 30 -12 19 -13 7 -13 -7 
-12 -19 -10 -30 -6 -38 13011 1229 20 MP
PP
0 sg
-2 -42 2 -42 6 -38 10 -30 12 -19 13 -7 13 7 12 19 
9 30 6 38 2 42 -2 42 -6 38 -9 30 -12 19 -13 7 
-13 -7 -12 -19 -10 -30 -6 -38 13011 1229 21 MP stroke
0.8 sg
2 -37 6 -33 11 -26 12 -16 14 -6 14 6 13 16 10 26 
7 33 2 37 -2 36 -7 33 -10 26 -13 17 -14 6 -14 -6 
-12 -17 -11 -26 -6 -33 11837 750 20 MP
PP
0 sg
-2 -36 2 -37 6 -33 11 -26 12 -16 14 -6 14 6 13 16 
10 26 7 33 2 37 -2 36 -7 33 -10 26 -13 17 -14 6 
-14 -6 -12 -17 -11 -26 -6 -33 11837 750 21 MP stroke
0.8 sg
2 -43 7 -39 10 -31 13 -20 15 -7 14 7 13 20 10 31 
7 39 2 43 -2 43 -7 39 -10 31 -13 20 -14 7 -15 -7 
-13 -20 -10 -31 -7 -39 13265 666 20 MP
PP
0 sg
-2 -43 2 -43 7 -39 10 -31 13 -20 15 -7 14 7 13 20 
10 31 7 39 2 43 -2 43 -7 39 -10 31 -13 20 -14 7 
-15 -7 -13 -20 -10 -31 -7 -39 13265 666 21 MP stroke
0.8 sg
2 -38 6 -34 10 -27 11 -18 13 -6 13 6 12 18 9 27 
6 34 2 38 -2 38 -6 35 -9 27 -12 18 -13 6 -13 -6 
-11 -18 -10 -27 -6 -35 12178 1374 20 MP
PP
0 sg
-2 -38 2 -38 6 -34 10 -27 11 -18 13 -6 13 6 12 18 
9 27 6 34 2 38 -2 38 -6 35 -9 27 -12 18 -13 6 
-13 -6 -11 -18 -10 -27 -6 -35 12178 1374 21 MP stroke
0.8 sg
2 -45 7 -41 9 -32 12 -20 14 -8 13 8 13 20 9 32 
6 41 2 45 -2 45 -6 40 -9 32 -13 21 -13 7 -14 -7 
-12 -21 -9 -32 -7 -40 13599 1168 20 MP
PP
0 sg
-2 -45 2 -45 7 -41 9 -32 12 -20 14 -8 13 8 13 20 
9 32 6 41 2 45 -2 45 -6 40 -9 32 -13 21 -13 7 
-14 -7 -12 -21 -9 -32 -7 -40 13599 1168 21 MP stroke
0.8 sg
2 -39 7 -36 10 -28 13 -18 15 -6 14 6 13 18 11 28 
6 36 3 39 -3 39 -6 35 -11 28 -13 18 -14 6 -15 -6 
-13 -18 -10 -28 -7 -35 12410 697 20 MP
PP
0 sg
-2 -39 2 -39 7 -36 10 -28 13 -18 15 -6 14 6 13 18 
11 28 6 36 3 39 -3 39 -6 35 -11 28 -13 18 -14 6 
-15 -6 -13 -18 -10 -28 -7 -35 12410 697 21 MP stroke
0.8 sg
2 -46 7 -41 11 -33 13 -22 15 -7 15 7 13 22 11 33 
7 41 2 46 -2 47 -7 41 -11 33 -13 21 -15 8 -15 -8 
-13 -21 -11 -33 -7 -41 13826 608 20 MP
PP
0 sg
-2 -47 2 -46 7 -41 11 -33 13 -22 15 -7 15 7 13 22 
11 33 7 41 2 46 -2 47 -7 41 -11 33 -13 21 -15 8 
-15 -8 -13 -21 -11 -33 -7 -41 13826 608 21 MP stroke
0.8 sg
2 -41 6 -37 10 -29 12 -19 13 -6 14 6 12 19 9 29 
6 37 2 41 -2 41 -6 37 -9 29 -12 19 -14 6 -13 -6 
-12 -19 -10 -29 -6 -37 12748 1312 20 MP
PP
0 sg
-2 -41 2 -41 6 -37 10 -29 12 -19 13 -6 14 6 12 19 
9 29 6 37 2 41 -2 41 -6 37 -9 29 -12 19 -14 6 
-13 -6 -12 -19 -10 -29 -6 -37 12748 1312 21 MP stroke
0.8 sg
2 -48 6 -43 10 -34 13 -23 14 -7 13 7 13 23 10 34 
6 43 2 48 -2 48 -6 43 -10 35 -13 22 -13 7 -14 -7 
-13 -22 -10 -35 -6 -43 14173 1114 20 MP
PP
0 sg
-2 -48 2 -48 6 -43 10 -34 13 -23 14 -7 13 7 13 23 
10 34 6 43 2 48 -2 48 -6 43 -10 35 -13 22 -13 7 
-14 -7 -13 -22 -10 -35 -6 -43 14173 1114 21 MP stroke
0.8 sg
3 -42 7 -38 10 -30 14 -19 14 -7 15 7 14 19 10 30 
7 38 3 42 -3 42 -7 38 -10 30 -14 19 -15 7 -14 -7 
-14 -19 -10 -30 -7 -38 12989 636 20 MP
PP
0 sg
-3 -42 3 -42 7 -38 10 -30 14 -19 14 -7 15 7 14 19 
10 30 7 38 3 42 -3 42 -7 38 -10 30 -14 19 -15 7 
-14 -7 -14 -19 -10 -30 -7 -38 12989 636 21 MP stroke
0.8 sg
2 -49 7 -45 11 -35 14 -22 15 -8 15 8 14 22 11 35 
7 45 2 49 -2 49 -7 45 -11 35 -14 23 -15 8 -15 -8 
-14 -23 -11 -35 -7 -45 14424 558 20 MP
PP
0 sg
-2 -49 2 -49 7 -45 11 -35 14 -22 15 -8 15 8 14 22 
11 35 7 45 2 49 -2 49 -7 45 -11 35 -14 23 -15 8 
-15 -8 -14 -23 -11 -35 -7 -45 14424 558 21 MP stroke
0.8 sg
2 -44 6 -39 10 -32 12 -20 14 -7 13 7 13 20 9 32 
7 39 2 44 -2 44 -7 39 -9 32 -13 20 -13 7 -14 -7 
-12 -20 -10 -32 -6 -39 13341 1257 20 MP
PP
0 sg
-2 -44 2 -44 6 -39 10 -32 12 -20 14 -7 13 7 13 20 
9 32 7 39 2 44 -2 44 -7 39 -9 32 -13 20 -13 7 
-14 -7 -12 -20 -10 -32 -6 -39 13341 1257 21 MP stroke
0.8 sg
2 -51 6 -46 10 -37 13 -23 14 -8 14 8 13 23 10 37 
6 46 3 51 -3 51 -6 45 -10 37 -13 23 -14 8 -14 -8 
-13 -23 -10 -37 -6 -45 14745 1067 20 MP
PP
0 sg
-2 -51 2 -51 6 -46 10 -37 13 -23 14 -8 14 8 13 23 
10 37 6 46 3 51 -3 51 -6 45 -10 37 -13 23 -14 8 
-14 -8 -13 -23 -10 -37 -6 -45 14745 1067 21 MP stroke
0.8 sg
2 -45 7 -41 11 -32 14 -20 15 -8 15 8 14 20 11 32 
7 41 2 45 -2 45 -7 40 -11 32 -14 21 -15 7 -15 -7 
-14 -21 -11 -32 -7 -40 13564 587 20 MP
PP
0 sg
-2 -45 2 -45 7 -41 11 -32 14 -20 15 -8 15 8 14 20 
11 32 7 41 2 45 -2 45 -7 40 -11 32 -14 21 -15 7 
-15 -7 -14 -21 -11 -32 -7 -40 13564 587 21 MP stroke
0.8 sg
2 -53 7 -47 11 -37 14 -24 16 -8 15 8 14 24 11 37 
8 47 2 53 -2 52 -8 47 -11 37 -14 24 -15 9 -16 -9 
-14 -24 -11 -37 -7 -47 14974 499 20 MP
PP
0 sg
-2 -52 2 -53 7 -47 11 -37 14 -24 16 -8 15 8 14 24 
11 37 8 47 2 53 -2 52 -8 47 -11 37 -14 24 -15 9 
-16 -9 -14 -24 -11 -37 -7 -47 14974 499 21 MP stroke
0.8 sg
2 -47 6 -42 10 -33 13 -21 14 -8 14 8 12 21 10 33 
7 42 2 47 -2 47 -7 42 -10 33 -12 22 -14 7 -14 -7 
-13 -22 -10 -33 -6 -42 13899 1200 20 MP
PP
0 sg
-2 -47 2 -47 6 -42 10 -33 13 -21 14 -8 14 8 12 21 
10 33 7 42 2 47 -2 47 -7 42 -10 33 -12 22 -14 7 
-14 -7 -13 -22 -10 -33 -6 -42 13899 1200 21 MP stroke
0.8 sg
2 -54 7 -49 10 -39 13 -24 14 -9 15 9 13 24 10 39 
7 49 2 54 -2 54 -7 49 -10 38 -13 25 -15 9 -14 -9 
-13 -25 -10 -38 -7 -49 15308 994 20 MP
PP
0 sg
-2 -54 2 -54 7 -49 10 -39 13 -24 14 -9 15 9 13 24 
10 39 7 49 2 54 -2 54 -7 49 -10 38 -13 25 -15 9 
-14 -9 -13 -25 -10 -38 -7 -49 15308 994 21 MP stroke
0.8 sg
2 -48 7 -43 11 -35 14 -22 16 -7 16 7 14 22 11 35 
7 43 3 48 -3 47 -7 44 -11 34 -14 22 -16 7 -16 -7 
-14 -22 -11 -34 -7 -44 14136 516 20 MP
PP
0 sg
-2 -47 2 -48 7 -43 11 -35 14 -22 16 -7 16 7 14 22 
11 35 7 43 3 48 -3 47 -7 44 -11 34 -14 22 -16 7 
-16 -7 -14 -22 -11 -34 -7 -44 14136 516 21 MP stroke
0.8 sg
3 -55 7 -50 11 -40 15 -25 16 -9 16 9 14 25 12 40 
7 50 3 55 -3 56 -7 50 -12 39 -14 26 -16 9 -16 -9 
-15 -26 -11 -39 -7 -50 15551 419 20 MP
PP
0 sg
-3 -56 3 -55 7 -50 11 -40 15 -25 16 -9 16 9 14 25 
12 40 7 50 3 55 -3 56 -7 50 -12 39 -14 26 -16 9 
-16 -9 -15 -26 -11 -39 -7 -50 15551 419 21 MP stroke
0.8 sg
2 -50 7 -45 10 -35 13 -23 14 -8 15 8 13 23 10 35 
6 45 3 50 -3 49 -6 45 -10 36 -13 22 -15 8 -14 -8 
-13 -22 -10 -36 -7 -45 14471 1129 20 MP
PP
0 sg
-2 -49 2 -50 7 -45 10 -35 13 -23 14 -8 15 8 13 23 
10 35 6 45 3 50 -3 49 -6 45 -10 36 -13 22 -15 8 
-14 -8 -13 -22 -10 -36 -7 -45 14471 1129 21 MP stroke
36 w
/c9 { 1.000000 0.000000 0.000000 sr} bdef
c9
57 -3 28 1 261 -13 13 -3 276 -58 15 1 262 -3 28 -7 
251 -42 15 0 281 2 26 -5 266 -47 29 0 263 -6 14 -3 
263 -45 27 -1 270 -4 12 -4 275 -53 15 1 265 -9 28 -8 
254 -48 14 0 278 -7 16 -4 256 -40 29 1 251 2 15 -2 
265 -29 28 2 253 4 12 -1 268 -41 17 0 251 -20 16 -5 
253 -71 14 -2 254 -31 26 -10 250 -73 29 -2 250 -22 15 -4 
248 -46 26 0 245 2 12 -1 265 -32 16 0 258 -2 28 -5 
242 -34 14 0 269 -1 16 -4 262 -51 29 -3 253 -30 14 -5 
275 -87 17 -3 250 -58 13 -5 276 -101 14 -2 256 -49 13 -4 
225 -64 15 -2 264 -35 24 -9 244 -77 31 -7 252 -35 19 -8 
248 -79 27 -6 236 -45 91 -53 3369 2473 85 MP stroke
1 -7 3 -6 6 -5 6 -4 7 -1 7 1 7 4 5 5 
3 6 1 7 -1 8 -3 6 -5 5 -7 3 -7 2 -7 -2 
-6 -3 -6 -5 -3 -6 3391 2465 20 MP
PP
6 w
0 sg
-1 -8 1 -7 3 -6 6 -5 6 -4 7 -1 7 1 7 4 
5 5 3 6 1 7 -1 8 -3 6 -5 5 -7 3 -7 2 
-7 -2 -6 -3 -6 -5 -3 -6 3391 2465 21 MP stroke
c9
1 -7 3 -6 6 -5 6 -4 7 -1 7 1 7 4 5 5 
3 6 1 7 -1 8 -3 6 -5 5 -7 3 -7 2 -7 -2 
-6 -3 -6 -5 -3 -6 3391 2465 20 MP
PP
0 sg
-1 -8 1 -7 3 -6 6 -5 6 -4 7 -1 7 1 7 4 
5 5 3 6 1 7 -1 8 -3 6 -5 5 -7 3 -7 2 
-7 -2 -6 -3 -6 -5 -3 -6 3391 2465 21 MP stroke
c9
1 -7 4 -7 5 -5 6 -3 8 -2 7 2 6 3 6 5 
3 7 1 7 -1 7 -3 7 -6 5 -6 3 -7 1 -8 -1 
-6 -3 -5 -5 -4 -7 3483 2413 20 MP
PP
0 sg
-1 -7 1 -7 4 -7 5 -5 6 -3 8 -2 7 2 6 3 
6 5 3 7 1 7 -1 7 -3 7 -6 5 -6 3 -7 1 
-8 -1 -6 -3 -5 -5 -4 -7 3483 2413 21 MP stroke
c9
1 -7 4 -7 5 -5 6 -3 8 -2 7 2 6 3 6 5 
3 7 1 7 -1 7 -3 7 -6 5 -6 3 -7 1 -8 -1 
-6 -3 -5 -5 -4 -7 3483 2413 20 MP
PP
0 sg
-1 -7 1 -7 4 -7 5 -5 6 -3 8 -2 7 2 6 3 
6 5 3 7 1 7 -1 7 -3 7 -6 5 -6 3 -7 1 
-8 -1 -6 -3 -5 -5 -4 -7 3483 2413 21 MP stroke
c9
1 -7 3 -7 6 -5 6 -4 8 -1 7 1 7 4 5 5 
4 7 1 7 -1 8 -4 7 -5 5 -7 4 -7 1 -8 -1 
-6 -4 -6 -5 -3 -7 3719 2367 20 MP
PP
0 sg
-1 -8 1 -7 3 -7 6 -5 6 -4 8 -1 7 1 7 4 
5 5 4 7 1 7 -1 8 -4 7 -5 5 -7 4 -7 1 
-8 -1 -6 -4 -6 -5 -3 -7 3719 2367 21 MP stroke
c9
1 -8 3 -7 6 -5 6 -4 8 -1 7 1 7 4 6 5 
3 7 1 8 -1 7 -3 7 -6 6 -7 3 -7 1 -8 -1 
-6 -3 -6 -6 -3 -7 3746 2362 20 MP
PP
0 sg
-1 -7 1 -8 3 -7 6 -5 6 -4 8 -1 7 1 7 4 
6 5 3 7 1 8 -1 7 -3 7 -6 6 -7 3 -7 1 
-8 -1 -6 -3 -6 -6 -3 -7 3746 2362 21 MP stroke
c9
2 -8 3 -7 6 -6 7 -3 7 -2 8 2 7 3 5 6 
4 7 1 8 -1 8 -4 7 -5 6 -7 4 -8 1 -7 -1 
-7 -4 -6 -6 -3 -7 3994 2282 20 MP
PP
0 sg
-2 -8 2 -8 3 -7 6 -6 7 -3 7 -2 8 2 7 3 
5 6 4 7 1 8 -1 8 -4 7 -5 6 -7 4 -8 1 
-7 -1 -7 -4 -6 -6 -3 -7 3994 2282 21 MP stroke
c9
1 -8 3 -8 6 -5 7 -4 8 -1 7 1 7 4 6 5 
3 8 2 8 -2 8 -3 7 -6 6 -7 3 -7 2 -8 -2 
-7 -3 -6 -6 -3 -7 4014 2274 20 MP
PP
0 sg
-1 -8 1 -8 3 -8 6 -5 7 -4 8 -1 7 1 7 4 
6 5 3 8 2 8 -2 8 -3 7 -6 6 -7 3 -7 2 
-8 -2 -7 -3 -6 -6 -3 -7 4014 2274 21 MP stroke
c9
1 -8 3 -8 6 -6 7 -4 8 -1 8 1 7 4 6 6 
4 8 1 8 -1 9 -4 7 -6 6 -7 4 -8 2 -8 -2 
-7 -4 -6 -6 -3 -7 4266 2238 20 MP
PP
0 sg
-1 -9 1 -8 3 -8 6 -6 7 -4 8 -1 8 1 7 4 
6 6 4 8 1 8 -1 9 -4 7 -6 6 -7 4 -8 2 
-8 -2 -7 -4 -6 -6 -3 -7 4266 2238 21 MP stroke
c9
1 -9 4 -7 6 -7 7 -3 8 -2 8 2 7 3 5 7 
4 7 1 9 -1 8 -4 8 -5 6 -7 4 -8 1 -8 -1 
-7 -4 -6 -6 -4 -8 4298 2232 20 MP
PP
0 sg
-1 -8 1 -9 4 -7 6 -7 7 -3 8 -2 8 2 7 3 
5 7 4 7 1 9 -1 8 -4 8 -5 6 -7 4 -8 1 
-8 -1 -7 -4 -6 -6 -4 -8 4298 2232 21 MP stroke
c9
1 -9 4 -8 6 -7 7 -4 8 -1 8 1 8 4 5 7 
4 8 1 9 -1 9 -4 8 -5 6 -8 5 -8 1 -8 -1 
-7 -5 -6 -6 -4 -8 4542 2154 20 MP
PP
0 sg
-1 -9 1 -9 4 -8 6 -7 7 -4 8 -1 8 1 8 4 
5 7 4 8 1 9 -1 9 -4 8 -5 6 -8 5 -8 1 
-8 -1 -7 -5 -6 -6 -4 -8 4542 2154 21 MP stroke
c9
1 -9 4 -8 6 -7 7 -4 8 -1 9 1 7 4 6 7 
4 8 1 9 -1 9 -4 8 -6 7 -7 4 -9 1 -8 -1 
-7 -4 -6 -7 -4 -8 4566 2145 20 MP
PP
0 sg
-1 -9 1 -9 4 -8 6 -7 7 -4 8 -1 9 1 7 4 
6 7 4 8 1 9 -1 9 -4 8 -6 7 -7 4 -9 1 
-8 -1 -7 -4 -6 -7 -4 -8 4566 2145 21 MP stroke
c9
1 -9 4 -9 6 -7 8 -5 8 -1 8 1 8 5 6 7 
4 9 1 9 -1 10 -4 9 -6 7 -8 4 -8 2 -8 -2 
-8 -4 -6 -7 -4 -9 4831 2109 20 MP
PP
0 sg
-1 -10 1 -9 4 -9 6 -7 8 -5 8 -1 8 1 8 5 
6 7 4 9 1 9 -1 10 -4 9 -6 7 -8 4 -8 2 
-8 -2 -8 -4 -6 -7 -4 -9 4831 2109 21 MP stroke
c9
1 -9 4 -9 6 -7 8 -5 8 -1 8 1 8 5 6 7 
4 9 1 9 -1 10 -4 9 -6 7 -8 4 -8 2 -8 -2 
-8 -4 -6 -7 -4 -9 4846 2107 20 MP
PP
0 sg
-1 -10 1 -9 4 -9 6 -7 8 -5 8 -1 8 1 8 5 
6 7 4 9 1 9 -1 10 -4 9 -6 7 -8 4 -8 2 
-8 -2 -8 -4 -6 -7 -4 -9 4846 2107 21 MP stroke
c9
1 -11 4 -9 6 -7 8 -5 8 -2 9 2 8 5 6 7 
4 9 1 11 -1 10 -4 9 -6 8 -8 4 -9 2 -8 -2 
-8 -4 -6 -8 -4 -9 5071 2043 20 MP
PP
0 sg
-1 -10 1 -11 4 -9 6 -7 8 -5 8 -2 9 2 8 5 
6 7 4 9 1 11 -1 10 -4 9 -6 8 -8 4 -9 2 
-8 -2 -8 -4 -6 -8 -4 -9 5071 2043 21 MP stroke
c9
1 -10 4 -9 6 -8 8 -4 9 -2 8 2 8 4 6 8 
4 9 2 10 -2 11 -4 9 -6 7 -8 5 -8 2 -9 -2 
-8 -5 -6 -7 -4 -9 5085 2038 20 MP
PP
0 sg
-1 -11 1 -10 4 -9 6 -8 8 -4 9 -2 8 2 8 4 
6 8 4 9 2 10 -2 11 -4 9 -6 7 -8 5 -8 2 
-9 -2 -8 -5 -6 -7 -4 -9 5085 2038 21 MP stroke
c9
1 -11 4 -10 7 -8 7 -5 9 -2 9 2 8 5 6 8 
4 10 2 11 -2 11 -4 10 -6 8 -8 5 -9 2 -9 -2 
-7 -5 -7 -8 -4 -10 5341 1989 20 MP
PP
0 sg
-1 -11 1 -11 4 -10 7 -8 7 -5 9 -2 9 2 8 5 
6 8 4 10 2 11 -2 11 -4 10 -6 8 -8 5 -9 2 
-9 -2 -7 -5 -7 -8 -4 -10 5341 1989 21 MP stroke
c9
2 -11 4 -10 6 -8 8 -5 9 -2 9 2 8 5 6 8 
4 10 1 11 -1 11 -4 10 -6 8 -8 5 -9 2 -9 -2 
-8 -5 -6 -8 -4 -10 5355 1987 20 MP
PP
0 sg
-2 -11 2 -11 4 -10 6 -8 8 -5 9 -2 9 2 8 5 
6 8 4 10 1 11 -1 11 -4 10 -6 8 -8 5 -9 2 
-9 -2 -8 -5 -6 -8 -4 -10 5355 1987 21 MP stroke
c9
2 -12 4 -11 6 -8 8 -6 9 -2 10 2 8 6 6 8 
4 11 2 12 -2 12 -4 10 -6 9 -8 5 -10 2 -9 -2 
-8 -5 -6 -9 -4 -10 5631 1885 20 MP
PP
0 sg
-2 -12 2 -12 4 -11 6 -8 8 -6 9 -2 10 2 8 6 
6 8 4 11 2 12 -2 12 -4 10 -6 9 -8 5 -10 2 
-9 -2 -8 -5 -6 -9 -4 -10 5631 1885 21 MP stroke
c9
1 -12 5 -10 6 -9 8 -5 9 -2 9 2 9 5 6 9 
4 10 2 12 -2 12 -4 11 -6 8 -9 6 -9 2 -9 -2 
-8 -6 -6 -8 -5 -11 5645 1880 20 MP
PP
0 sg
-1 -12 1 -12 5 -10 6 -9 8 -5 9 -2 9 2 9 5 
6 9 4 10 2 12 -2 12 -4 11 -6 8 -9 6 -9 2 
-9 -2 -8 -6 -6 -8 -5 -11 5645 1880 21 MP stroke
c9
1 -13 5 -11 6 -9 9 -6 9 -2 9 2 8 6 7 9 
4 11 2 13 -2 12 -4 12 -7 9 -8 6 -9 2 -9 -2 
-9 -6 -6 -9 -5 -12 5896 1822 20 MP
PP
0 sg
-1 -12 1 -13 5 -11 6 -9 9 -6 9 -2 9 2 8 6 
7 9 4 11 2 13 -2 12 -4 12 -7 9 -8 6 -9 2 
-9 -2 -9 -6 -6 -9 -5 -12 5896 1822 21 MP stroke
c9
2 -13 4 -12 7 -9 8 -5 9 -2 10 2 8 5 7 9 
4 12 1 13 -1 12 -4 12 -7 9 -8 6 -10 2 -9 -2 
-8 -6 -7 -9 -4 -12 5912 1819 20 MP
PP
0 sg
-2 -12 2 -13 4 -12 7 -9 8 -5 9 -2 10 2 8 5 
7 9 4 12 1 13 -1 12 -4 12 -7 9 -8 6 -10 2 
-9 -2 -8 -6 -7 -9 -4 -12 5912 1819 21 MP stroke
c9
2 -14 4 -12 7 -10 9 -6 9 -2 10 2 8 6 7 10 
5 12 1 14 -1 13 -5 12 -7 10 -8 6 -10 3 -9 -3 
-9 -6 -7 -10 -4 -12 6188 1731 20 MP
PP
0 sg
-2 -13 2 -14 4 -12 7 -10 9 -6 9 -2 10 2 8 6 
7 10 5 12 1 14 -1 13 -5 12 -7 10 -8 6 -10 3 
-9 -3 -9 -6 -7 -10 -4 -12 6188 1731 21 MP stroke
c9
1 -14 5 -12 7 -10 8 -6 10 -2 9 2 9 6 7 10 
4 12 2 14 -2 14 -4 12 -7 10 -9 6 -9 2 -10 -2 
-8 -6 -7 -10 -5 -12 6203 1725 20 MP
PP
0 sg
-1 -14 1 -14 5 -12 7 -10 8 -6 10 -2 9 2 9 6 
7 10 4 12 2 14 -2 14 -4 12 -7 10 -9 6 -9 2 
-10 -2 -8 -6 -7 -10 -5 -12 6203 1725 21 MP stroke
c9
2 -15 4 -13 7 -10 9 -7 10 -2 10 2 8 7 7 10 
5 13 1 15 -1 14 -5 13 -7 11 -8 6 -10 2 -10 -2 
-9 -6 -7 -11 -4 -13 6456 1695 20 MP
PP
0 sg
-2 -14 2 -15 4 -13 7 -10 9 -7 10 -2 10 2 8 7 
7 10 5 13 1 15 -1 14 -5 13 -7 11 -8 6 -10 2 
-10 -2 -9 -6 -7 -11 -4 -13 6456 1695 21 MP stroke
c9
2 -15 4 -13 7 -10 9 -7 10 -2 9 2 9 7 7 10 
5 13 1 15 -1 14 -5 13 -7 11 -9 7 -9 2 -10 -2 
-9 -7 -7 -11 -4 -13 6485 1692 20 MP
PP
0 sg
-2 -14 2 -15 4 -13 7 -10 9 -7 10 -2 9 2 9 7 
7 10 5 13 1 15 -1 14 -5 13 -7 11 -9 7 -9 2 
-10 -2 -9 -7 -7 -11 -4 -13 6485 1692 21 MP stroke
c9
1 -15 5 -14 7 -11 9 -7 10 -3 10 3 9 7 7 11 
4 14 2 15 -2 15 -4 14 -7 11 -9 8 -10 2 -10 -2 
-9 -8 -7 -11 -5 -14 6748 1640 20 MP
PP
0 sg
-1 -15 1 -15 5 -14 7 -11 9 -7 10 -3 10 3 9 7 
7 11 4 14 2 15 -2 15 -4 14 -7 11 -9 8 -10 2 
-10 -2 -9 -8 -7 -11 -5 -14 6748 1640 21 MP stroke
c9
1 -16 5 -14 7 -11 9 -7 10 -2 10 2 9 7 7 11 
4 14 2 16 -2 15 -4 14 -7 11 -9 8 -10 2 -10 -2 
-9 -8 -7 -11 -5 -14 6764 1636 20 MP
PP
0 sg
-1 -15 1 -16 5 -14 7 -11 9 -7 10 -2 10 2 9 7 
7 11 4 14 2 16 -2 15 -4 14 -7 11 -9 8 -10 2 
-10 -2 -9 -8 -7 -11 -5 -14 6764 1636 21 MP stroke
c9
2 -16 4 -15 7 -12 9 -7 11 -3 10 3 9 7 7 12 
5 15 1 16 -1 17 -5 14 -7 12 -9 8 -10 2 -11 -2 
-9 -8 -7 -12 -4 -14 7033 1633 20 MP
PP
0 sg
-2 -17 2 -16 4 -15 7 -12 9 -7 11 -3 10 3 9 7 
7 12 5 15 1 16 -1 17 -5 14 -7 12 -9 8 -10 2 
-11 -2 -9 -8 -7 -12 -4 -14 7033 1633 21 MP stroke
c9
1 -17 5 -15 7 -12 9 -7 11 -3 10 3 9 7 7 12 
5 15 1 17 -1 16 -5 15 -7 12 -9 7 -10 3 -11 -3 
-9 -7 -7 -12 -5 -15 7048 1634 20 MP
PP
0 sg
-1 -16 1 -17 5 -15 7 -12 9 -7 11 -3 10 3 9 7 
7 12 5 15 1 17 -1 16 -5 15 -7 12 -9 7 -10 3 
-11 -3 -9 -7 -7 -12 -5 -15 7048 1634 21 MP stroke
c9
2 -18 5 -15 7 -13 9 -8 11 -2 10 2 9 8 7 13 
5 15 2 18 -2 17 -5 16 -7 12 -9 8 -10 3 -11 -3 
-9 -8 -7 -12 -5 -16 7290 1599 20 MP
PP
0 sg
-2 -17 2 -18 5 -15 7 -13 9 -8 11 -2 10 2 9 8 
7 13 5 15 2 18 -2 17 -5 16 -7 12 -9 8 -10 3 
-11 -3 -9 -8 -7 -12 -5 -16 7290 1599 21 MP stroke
c9
2 -18 5 -16 7 -12 9 -8 10 -3 11 3 9 8 7 12 
5 16 2 18 -2 17 -5 16 -7 12 -9 8 -11 3 -10 -3 
-9 -8 -7 -12 -5 -16 7317 1594 20 MP
PP
0 sg
-2 -17 2 -18 5 -16 7 -12 9 -8 10 -3 11 3 9 8 
7 12 5 16 2 18 -2 17 -5 16 -7 12 -9 8 -11 3 
-10 -3 -9 -8 -7 -12 -5 -16 7317 1594 21 MP stroke
c9
2 -18 5 -17 7 -13 10 -8 10 -3 10 3 10 8 7 13 
5 17 2 18 -2 19 -5 16 -7 13 -10 9 -10 3 -10 -3 
-10 -9 -7 -13 -5 -16 7576 1590 20 MP
PP
0 sg
-2 -19 2 -18 5 -17 7 -13 10 -8 10 -3 10 3 10 8 
7 13 5 17 2 18 -2 19 -5 16 -7 13 -10 9 -10 3 
-10 -3 -10 -9 -7 -13 -5 -16 7576 1590 21 MP stroke
c9
2 -19 4 -16 8 -13 9 -9 11 -3 10 3 10 9 7 13 
5 16 1 19 -1 18 -5 17 -7 13 -10 9 -10 3 -11 -3 
-9 -9 -8 -13 -4 -17 7592 1591 20 MP
PP
0 sg
-2 -18 2 -19 4 -16 8 -13 9 -9 11 -3 10 3 10 9 
7 13 5 16 1 19 -1 18 -5 17 -7 13 -10 9 -10 3 
-11 -3 -9 -9 -8 -13 -4 -17 7592 1591 21 MP stroke
c9
2 -19 5 -18 7 -14 10 -9 10 -3 11 3 10 9 7 14 
5 18 2 19 -2 20 -5 17 -7 14 -10 9 -11 3 -10 -3 
-10 -9 -7 -14 -5 -17 7857 1557 20 MP
PP
0 sg
-2 -20 2 -19 5 -18 7 -14 10 -9 10 -3 11 3 10 9 
7 14 5 18 2 19 -2 20 -5 17 -7 14 -10 9 -11 3 
-10 -3 -10 -9 -7 -14 -5 -17 7857 1557 21 MP stroke
c9
2 -19 4 -18 8 -14 10 -9 10 -3 11 3 9 9 8 14 
5 18 2 19 -2 19 -5 18 -8 14 -9 9 -11 3 -10 -3 
-10 -9 -8 -14 -4 -18 7869 1557 20 MP
PP
0 sg
-2 -19 2 -19 4 -18 8 -14 10 -9 10 -3 11 3 9 9 
8 14 5 18 2 19 -2 19 -5 18 -8 14 -9 9 -11 3 
-10 -3 -10 -9 -8 -14 -4 -18 7869 1557 21 MP stroke
c9
1 -20 5 -19 8 -14 10 -10 10 -3 11 3 10 10 8 14 
5 19 1 20 -1 20 -5 19 -8 14 -10 10 -11 3 -10 -3 
-10 -10 -8 -14 -5 -19 8115 1558 20 MP
PP
0 sg
-1 -20 1 -20 5 -19 8 -14 10 -10 10 -3 11 3 10 10 
8 14 5 19 1 20 -1 20 -5 19 -8 14 -10 10 -11 3 
-10 -3 -10 -10 -8 -14 -5 -19 8115 1558 21 MP stroke
c9
2 -21 5 -18 7 -15 10 -9 11 -4 11 4 9 9 8 15 
5 18 2 21 -2 20 -5 19 -8 14 -9 10 -11 3 -11 -3 
-10 -10 -7 -14 -5 -19 8141 1558 20 MP
PP
0 sg
-2 -20 2 -21 5 -18 7 -15 10 -9 11 -4 11 4 9 9 
8 15 5 18 2 21 -2 20 -5 19 -8 14 -9 10 -11 3 
-11 -3 -10 -10 -7 -14 -5 -19 8141 1558 21 MP stroke
c9
2 -22 5 -19 8 -16 10 -9 11 -4 11 4 9 9 8 16 
5 19 2 22 -2 21 -5 20 -8 15 -9 10 -11 3 -11 -3 
-10 -10 -8 -15 -5 -20 8390 1511 20 MP
PP
0 sg
-2 -21 2 -22 5 -19 8 -16 10 -9 11 -4 11 4 9 9 
8 16 5 19 2 22 -2 21 -5 20 -8 15 -9 10 -11 3 
-11 -3 -10 -10 -8 -15 -5 -20 8390 1511 21 MP stroke
c9
2 -22 5 -19 8 -16 10 -10 11 -3 11 3 9 10 8 16 
5 19 2 22 -2 21 -5 19 -8 16 -9 10 -11 3 -11 -3 
-10 -10 -8 -16 -5 -19 8405 1507 20 MP
PP
0 sg
-2 -21 2 -22 5 -19 8 -16 10 -10 11 -3 11 3 9 10 
8 16 5 19 2 22 -2 21 -5 19 -8 16 -9 10 -11 3 
-11 -3 -10 -10 -8 -16 -5 -19 8405 1507 21 MP stroke
c9
2 -22 5 -21 8 -16 10 -10 11 -4 11 4 10 10 8 16 
5 21 2 22 -2 23 -5 20 -8 16 -10 11 -11 3 -11 -3 
-10 -11 -8 -16 -5 -20 8655 1483 20 MP
PP
0 sg
-2 -23 2 -22 5 -21 8 -16 10 -10 11 -4 11 4 10 10 
8 16 5 21 2 22 -2 23 -5 20 -8 16 -10 11 -11 3 
-11 -3 -10 -11 -8 -16 -5 -20 8655 1483 21 MP stroke
c9
2 -22 5 -21 8 -16 10 -10 11 -4 11 4 10 10 8 16 
5 21 2 22 -2 23 -5 20 -8 17 -10 10 -11 4 -11 -4 
-10 -10 -8 -17 -5 -20 8684 1481 20 MP
PP
0 sg
-2 -23 2 -22 5 -21 8 -16 10 -10 11 -4 11 4 10 10 
8 16 5 21 2 22 -2 23 -5 20 -8 17 -10 10 -11 4 
-11 -4 -10 -10 -8 -17 -5 -20 8684 1481 21 MP stroke
c9
2 -23 5 -22 8 -17 11 -10 11 -4 11 4 11 10 8 17 
5 22 2 23 -2 24 -5 21 -8 17 -11 11 -11 4 -11 -4 
-11 -11 -8 -17 -5 -21 8935 1407 20 MP
PP
0 sg
-2 -24 2 -23 5 -22 8 -17 11 -10 11 -4 11 4 11 10 
8 17 5 22 2 23 -2 24 -5 21 -8 17 -11 11 -11 4 
-11 -4 -11 -11 -8 -17 -5 -21 8935 1407 21 MP stroke
c9
2 -24 5 -22 8 -17 10 -10 12 -4 11 4 10 10 9 17 
5 22 2 24 -2 23 -5 22 -9 17 -10 11 -11 4 -12 -4 
-10 -11 -8 -17 -5 -22 8961 1398 20 MP
PP
0 sg
-2 -23 2 -24 5 -22 8 -17 10 -10 12 -4 11 4 10 10 
9 17 5 22 2 24 -2 23 -5 22 -9 17 -10 11 -11 4 
-12 -4 -10 -11 -8 -17 -5 -22 8961 1398 21 MP stroke
c9
2 -24 5 -23 8 -17 11 -12 11 -4 12 4 10 12 8 17 
6 23 2 24 -2 25 -6 23 -8 17 -10 12 -12 4 -11 -4 
-11 -12 -8 -17 -5 -23 9215 1365 20 MP
PP
0 sg
-2 -25 2 -24 5 -23 8 -17 11 -12 11 -4 12 4 10 12 
8 17 6 23 2 24 -2 25 -6 23 -8 17 -10 12 -12 4 
-11 -4 -11 -12 -8 -17 -5 -23 9215 1365 21 MP stroke
c9
2 -25 5 -23 9 -17 10 -12 12 -4 11 4 11 12 8 17 
5 23 2 25 -2 25 -5 22 -8 18 -11 11 -11 4 -12 -4 
-10 -11 -9 -18 -5 -22 9230 1363 20 MP
PP
0 sg
-2 -25 2 -25 5 -23 9 -17 10 -12 12 -4 11 4 11 12 
8 17 5 23 2 25 -2 25 -5 22 -8 18 -11 11 -11 4 
-12 -4 -10 -11 -9 -18 -5 -22 9230 1363 21 MP stroke
c9
2 -26 5 -24 9 -18 10 -12 12 -4 12 4 11 12 8 18 
6 24 1 26 -1 26 -6 23 -8 18 -11 12 -12 4 -12 -4 
-10 -12 -9 -18 -5 -23 9483 1291 20 MP
PP
0 sg
-2 -26 2 -26 5 -24 9 -18 10 -12 12 -4 12 4 11 12 
8 18 6 24 1 26 -1 26 -6 23 -8 18 -11 12 -12 4 
-12 -4 -10 -12 -9 -18 -5 -23 9483 1291 21 MP stroke
c9
2 -26 6 -23 8 -19 11 -12 12 -4 11 4 11 12 8 19 
6 23 2 26 -2 26 -6 23 -8 19 -11 12 -11 4 -12 -4 
-11 -12 -8 -19 -6 -23 9500 1286 20 MP
PP
0 sg
-2 -26 2 -26 6 -23 8 -19 11 -12 12 -4 11 4 11 12 
8 19 6 23 2 26 -2 26 -6 23 -8 19 -11 12 -11 4 
-12 -4 -11 -12 -8 -19 -6 -23 9500 1286 21 MP stroke
c9
2 -27 5 -25 9 -19 11 -12 12 -5 12 5 11 12 8 19 
6 25 2 27 -2 27 -6 24 -8 20 -11 12 -12 4 -12 -4 
-11 -12 -9 -20 -5 -24 9751 1265 20 MP
PP
0 sg
-2 -27 2 -27 5 -25 9 -19 11 -12 12 -5 12 5 11 12 
8 19 6 25 2 27 -2 27 -6 24 -8 20 -11 12 -12 4 
-12 -4 -11 -12 -9 -20 -5 -24 9751 1265 21 MP stroke
c9
2 -27 6 -24 8 -20 11 -12 12 -5 12 5 11 12 9 20 
5 24 2 27 -2 27 -5 25 -9 19 -11 13 -12 4 -12 -4 
-11 -13 -8 -19 -6 -25 9768 1265 20 MP
PP
0 sg
-2 -27 2 -27 6 -24 8 -20 11 -12 12 -5 12 5 11 12 
9 20 5 24 2 27 -2 27 -5 25 -9 19 -11 13 -12 4 
-12 -4 -11 -13 -8 -19 -6 -25 9768 1265 21 MP stroke
c9
1 -28 6 -26 9 -20 11 -13 12 -4 12 4 11 13 9 20 
6 26 1 28 -1 28 -6 26 -9 20 -11 13 -12 5 -12 -5 
-11 -13 -9 -20 -6 -26 10037 1223 20 MP
PP
0 sg
-1 -28 1 -28 6 -26 9 -20 11 -13 12 -4 12 4 11 13 
9 20 6 26 1 28 -1 28 -6 26 -9 20 -11 13 -12 5 
-12 -5 -11 -13 -9 -20 -6 -26 10037 1223 21 MP stroke
c9
2 -28 6 -26 8 -20 11 -13 13 -4 12 4 11 13 9 20 
5 26 2 28 -2 29 -5 25 -9 20 -11 13 -12 5 -13 -5 
-11 -13 -8 -20 -6 -25 10049 1221 20 MP
PP
0 sg
-2 -29 2 -28 6 -26 8 -20 11 -13 13 -4 12 4 11 13 
9 20 5 26 2 28 -2 29 -5 25 -9 20 -11 13 -12 5 
-13 -5 -11 -13 -8 -20 -6 -25 10049 1221 21 MP stroke
c9
2 -29 5 -27 9 -21 11 -14 12 -4 13 4 11 14 9 21 
5 27 2 29 -2 29 -5 27 -9 21 -11 13 -13 5 -12 -5 
-11 -13 -9 -21 -5 -27 10301 1225 20 MP
PP
0 sg
-2 -29 2 -29 5 -27 9 -21 11 -14 12 -4 13 4 11 14 
9 21 5 27 2 29 -2 29 -5 27 -9 21 -11 13 -13 5 
-12 -5 -11 -13 -9 -21 -5 -27 10301 1225 21 MP stroke
c9
1 -30 6 -26 9 -22 11 -13 12 -5 13 5 11 13 9 22 
5 26 2 30 -2 29 -5 27 -9 21 -11 14 -13 4 -12 -4 
-11 -14 -9 -21 -6 -27 10330 1227 20 MP
PP
0 sg
-1 -29 1 -30 6 -26 9 -22 11 -13 12 -5 13 5 11 13 
9 22 5 26 2 30 -2 29 -5 27 -9 21 -11 14 -13 4 
-12 -4 -11 -14 -9 -21 -6 -27 10330 1227 21 MP stroke
c9
2 -31 6 -28 9 -22 11 -14 12 -5 13 5 11 14 9 22 
6 28 2 31 -2 30 -6 28 -9 22 -11 14 -13 5 -12 -5 
-11 -14 -9 -22 -6 -28 10595 1197 20 MP
PP
0 sg
-2 -30 2 -31 6 -28 9 -22 11 -14 12 -5 13 5 11 14 
9 22 6 28 2 31 -2 30 -6 28 -9 22 -11 14 -13 5 
-12 -5 -11 -14 -9 -22 -6 -28 10595 1197 21 MP stroke
c9
2 -31 6 -28 9 -22 11 -14 12 -5 13 5 11 14 9 22 
6 28 2 31 -2 30 -6 28 -9 22 -11 14 -13 5 -12 -5 
-11 -14 -9 -22 -6 -28 10610 1195 20 MP
PP
0 sg
-2 -30 2 -31 6 -28 9 -22 11 -14 12 -5 13 5 11 14 
9 22 6 28 2 31 -2 30 -6 28 -9 22 -11 14 -13 5 
-12 -5 -11 -14 -9 -22 -6 -28 10610 1195 21 MP stroke
c9
2 -32 5 -29 9 -23 12 -14 12 -5 13 5 11 14 9 23 
6 29 2 32 -2 32 -6 29 -9 22 -11 15 -13 5 -12 -5 
-12 -15 -9 -22 -5 -29 10861 1195 20 MP
PP
0 sg
-2 -32 2 -32 5 -29 9 -23 12 -14 12 -5 13 5 11 14 
9 23 6 29 2 32 -2 32 -6 29 -9 22 -11 15 -13 5 
-12 -5 -12 -15 -9 -22 -5 -29 10861 1195 21 MP stroke
c9
2 -32 6 -29 9 -23 11 -15 13 -5 13 5 11 15 9 23 
6 29 2 32 -2 32 -6 29 -9 22 -11 15 -13 5 -13 -5 
-11 -15 -9 -22 -6 -29 10891 1196 20 MP
PP
0 sg
-2 -32 2 -32 6 -29 9 -23 11 -15 13 -5 13 5 11 15 
9 23 6 29 2 32 -2 32 -6 29 -9 22 -11 15 -13 5 
-13 -5 -11 -15 -9 -22 -6 -29 10891 1196 21 MP stroke
c9
2 -33 6 -30 10 -24 11 -15 13 -6 13 6 11 15 9 24 
6 30 2 33 -2 33 -6 30 -9 24 -11 15 -13 5 -13 -5 
-11 -15 -10 -24 -6 -30 11148 1155 20 MP
PP
0 sg
-2 -33 2 -33 6 -30 10 -24 11 -15 13 -6 13 6 11 15 
9 24 6 30 2 33 -2 33 -6 30 -9 24 -11 15 -13 5 
-13 -5 -11 -15 -10 -24 -6 -30 11148 1155 21 MP stroke
c9
2 -34 6 -30 9 -23 11 -16 13 -5 13 5 11 16 10 23 
5 30 3 34 -3 33 -5 30 -10 24 -11 15 -13 5 -13 -5 
-11 -15 -9 -24 -6 -30 11163 1151 20 MP
PP
0 sg
-2 -33 2 -34 6 -30 9 -23 11 -16 13 -5 13 5 11 16 
10 23 5 30 3 34 -3 33 -5 30 -10 24 -11 15 -13 5 
-13 -5 -11 -15 -9 -24 -6 -30 11163 1151 21 MP stroke
c9
2 -35 6 -31 10 -25 11 -16 13 -5 13 5 12 16 9 25 
6 31 2 35 -2 34 -6 31 -9 25 -12 16 -13 5 -13 -5 
-11 -16 -10 -25 -6 -31 11442 1143 20 MP
PP
0 sg
-2 -34 2 -35 6 -31 10 -25 11 -16 13 -5 13 5 12 16 
9 25 6 31 2 35 -2 34 -6 31 -9 25 -12 16 -13 5 
-13 -5 -11 -16 -10 -25 -6 -31 11442 1143 21 MP stroke
c9
2 -35 6 -31 9 -25 12 -16 12 -5 13 5 12 16 9 25 
6 31 2 35 -2 34 -6 31 -9 25 -12 16 -13 6 -12 -6 
-12 -16 -9 -25 -6 -31 11455 1143 20 MP
PP
0 sg
-2 -34 2 -35 6 -31 9 -25 12 -16 12 -5 13 5 12 16 
9 25 6 31 2 35 -2 34 -6 31 -9 25 -12 16 -13 6 
-12 -6 -12 -16 -9 -25 -6 -31 11455 1143 21 MP stroke
c9
2 -35 6 -33 10 -25 12 -17 13 -5 13 5 12 17 9 25 
6 33 2 35 -2 36 -6 33 -9 25 -12 17 -13 5 -13 -5 
-12 -17 -10 -25 -6 -33 11711 1093 20 MP
PP
0 sg
-2 -36 2 -35 6 -33 10 -25 12 -17 13 -5 13 5 12 17 
9 25 6 33 2 35 -2 36 -6 33 -9 25 -12 17 -13 5 
-13 -5 -12 -17 -10 -25 -6 -33 11711 1093 21 MP stroke
c9
2 -36 6 -33 10 -25 12 -17 13 -6 13 6 12 17 9 25 
6 33 3 36 -3 36 -6 32 -9 26 -12 16 -13 6 -13 -6 
-12 -16 -10 -26 -6 -32 11739 1085 20 MP
PP
0 sg
-2 -36 2 -36 6 -33 10 -25 12 -17 13 -6 13 6 12 17 
9 25 6 33 3 36 -3 36 -6 32 -9 26 -12 16 -13 6 
-13 -6 -12 -16 -10 -26 -6 -32 11739 1085 21 MP stroke
c9
3 -37 6 -34 9 -26 12 -18 13 -5 14 5 12 18 9 26 
6 34 2 37 -2 37 -6 34 -9 26 -12 17 -14 6 -13 -6 
-12 -17 -9 -26 -6 -34 12003 1075 20 MP
PP
0 sg
-3 -37 3 -37 6 -34 9 -26 12 -18 13 -5 14 5 12 18 
9 26 6 34 2 37 -2 37 -6 34 -9 26 -12 17 -14 6 
-13 -6 -12 -17 -9 -26 -6 -34 12003 1075 21 MP stroke
c9
2 -37 6 -34 9 -26 12 -17 14 -6 13 6 12 17 10 26 
6 34 2 37 -2 38 -6 33 -10 27 -12 17 -13 6 -14 -6 
-12 -17 -9 -27 -6 -33 12019 1075 20 MP
PP
0 sg
-2 -38 2 -37 6 -34 9 -26 12 -17 14 -6 13 6 12 17 
10 26 6 34 2 37 -2 38 -6 33 -10 27 -12 17 -13 6 
-14 -6 -12 -17 -9 -27 -6 -33 12019 1075 21 MP stroke
c9
2 -38 7 -35 9 -28 12 -17 14 -6 13 6 13 17 9 28 
7 35 2 38 -2 39 -7 35 -9 27 -13 18 -13 6 -14 -6 
-12 -18 -9 -27 -7 -35 12295 1021 20 MP
PP
0 sg
-2 -39 2 -38 7 -35 9 -28 12 -17 14 -6 13 6 13 17 
9 28 7 35 2 38 -2 39 -7 35 -9 27 -13 18 -13 6 
-14 -6 -12 -18 -9 -27 -7 -35 12295 1021 21 MP stroke
c9
2 -39 6 -35 10 -28 12 -17 14 -6 13 6 12 17 10 28 
6 35 2 39 -2 38 -6 35 -10 28 -12 17 -13 7 -14 -7 
-12 -17 -10 -28 -6 -35 12307 1018 20 MP
PP
0 sg
-2 -38 2 -39 6 -35 10 -28 12 -17 14 -6 13 6 12 17 
10 28 6 35 2 39 -2 38 -6 35 -10 28 -12 17 -13 7 
-14 -7 -12 -17 -10 -28 -6 -35 12307 1018 21 MP stroke
c9
2 -40 7 -36 9 -29 13 -18 13 -6 14 6 12 18 10 29 
6 36 2 40 -2 40 -6 36 -10 29 -12 18 -14 6 -13 -6 
-13 -18 -9 -29 -7 -36 12577 1012 20 MP
PP
0 sg
-2 -40 2 -40 7 -36 9 -29 13 -18 13 -6 14 6 12 18 
10 29 6 36 2 40 -2 40 -6 36 -10 29 -12 18 -14 6 
-13 -6 -13 -18 -9 -29 -7 -36 12577 1012 21 MP stroke
c9
2 -40 6 -36 10 -29 12 -18 14 -6 13 6 13 18 9 29 
7 36 2 40 -2 40 -7 36 -9 29 -13 19 -13 6 -14 -6 
-12 -19 -10 -29 -6 -36 12604 1011 20 MP
PP
0 sg
-2 -40 2 -40 6 -36 10 -29 12 -18 14 -6 13 6 13 18 
9 29 7 36 2 40 -2 40 -7 36 -9 29 -13 19 -13 6 
-14 -6 -12 -19 -10 -29 -6 -36 12604 1011 21 MP stroke
c9
2 -42 7 -37 10 -30 12 -19 14 -6 14 6 12 19 10 30 
6 37 3 42 -3 41 -6 37 -10 30 -12 19 -14 7 -14 -7 
-12 -19 -10 -30 -7 -37 12868 965 20 MP
PP
0 sg
-2 -41 2 -42 7 -37 10 -30 12 -19 14 -6 14 6 12 19 
10 30 6 37 3 42 -3 41 -6 37 -10 30 -12 19 -14 7 
-14 -7 -12 -19 -10 -30 -7 -37 12868 965 21 MP stroke
c9
2 -41 7 -38 10 -29 12 -19 14 -7 14 7 12 19 10 29 
7 38 2 41 -2 42 -7 37 -10 30 -12 19 -14 6 -14 -6 
-12 -19 -10 -30 -7 -37 12882 961 20 MP
PP
0 sg
-2 -42 2 -41 7 -38 10 -29 12 -19 14 -7 14 7 12 19 
10 29 7 38 2 41 -2 42 -7 37 -10 30 -12 19 -14 6 
-14 -6 -12 -19 -10 -30 -7 -37 12882 961 21 MP stroke
c9
2 -43 7 -38 10 -31 12 -20 14 -6 14 6 13 20 10 31 
6 38 2 43 -2 43 -6 38 -10 31 -13 20 -14 6 -14 -6 
-12 -20 -10 -31 -7 -38 13145 954 20 MP
PP
0 sg
-2 -43 2 -43 7 -38 10 -31 12 -20 14 -6 14 6 13 20 
10 31 6 38 2 43 -2 43 -6 38 -10 31 -13 20 -14 6 
-14 -6 -12 -20 -10 -31 -7 -38 13145 954 21 MP stroke
c9
3 -43 6 -39 10 -31 13 -19 14 -7 14 7 12 19 10 31 
7 39 2 43 -2 43 -7 38 -10 31 -12 20 -14 6 -14 -6 
-13 -20 -10 -31 -6 -38 13174 954 20 MP
PP
0 sg
-3 -43 3 -43 6 -39 10 -31 13 -19 14 -7 14 7 12 19 
10 31 7 39 2 43 -2 43 -7 38 -10 31 -12 20 -14 6 
-14 -6 -13 -20 -10 -31 -6 -38 13174 954 21 MP stroke
c9
2 -45 7 -39 10 -32 13 -20 14 -7 14 7 13 20 10 32 
6 39 3 45 -3 44 -6 40 -10 32 -13 20 -14 7 -14 -7 
-13 -20 -10 -32 -7 -40 13441 906 20 MP
PP
0 sg
-2 -44 2 -45 7 -39 10 -32 13 -20 14 -7 14 7 13 20 
10 32 6 39 3 45 -3 44 -6 40 -10 32 -13 20 -14 7 
-14 -7 -13 -20 -10 -32 -7 -40 13441 906 21 MP stroke
c9
2 -45 7 -40 10 -31 13 -21 14 -7 14 7 13 21 10 31 
7 40 2 45 -2 44 -7 40 -10 32 -13 20 -14 7 -14 -7 
-13 -20 -10 -32 -7 -40 13467 901 20 MP
PP
0 sg
-2 -44 2 -45 7 -40 10 -31 13 -21 14 -7 14 7 13 21 
10 31 7 40 2 45 -2 44 -7 40 -10 32 -13 20 -14 7 
-14 -7 -13 -20 -10 -32 -7 -40 13467 901 21 MP stroke
c9
2 -46 6 -41 11 -33 13 -21 14 -7 14 7 13 21 10 33 
7 41 2 46 -2 46 -7 41 -10 33 -13 21 -14 7 -14 -7 
-13 -21 -11 -33 -6 -41 13748 901 20 MP
PP
0 sg
-2 -46 2 -46 6 -41 11 -33 13 -21 14 -7 14 7 13 21 
10 33 7 41 2 46 -2 46 -7 41 -10 33 -13 21 -14 7 
-14 -7 -13 -21 -11 -33 -6 -41 13748 901 21 MP stroke
c9
3 -46 6 -42 11 -33 12 -21 15 -7 14 7 13 21 10 33 
7 42 2 46 -2 45 -7 42 -10 33 -13 21 -14 7 -15 -7 
-12 -21 -11 -33 -6 -42 13763 902 20 MP
PP
0 sg
-3 -45 3 -46 6 -42 11 -33 12 -21 15 -7 14 7 13 21 
10 33 7 42 2 46 -2 45 -7 42 -10 33 -13 21 -14 7 
-15 -7 -12 -21 -11 -33 -6 -42 13763 902 21 MP stroke
c9
2 -47 7 -43 10 -34 13 -21 15 -8 14 8 13 21 11 34 
6 43 3 47 -3 47 -6 43 -11 33 -13 22 -14 8 -15 -8 
-13 -22 -10 -33 -7 -43 14015 858 20 MP
PP
0 sg
-2 -47 2 -47 7 -43 10 -34 13 -21 15 -8 14 8 13 21 
11 34 6 43 3 47 -3 47 -6 43 -11 33 -13 22 -14 8 
-15 -8 -13 -22 -10 -33 -7 -43 14015 858 21 MP stroke
c9
2 -48 7 -43 10 -33 14 -22 14 -8 15 8 13 22 10 33 
7 43 2 48 -2 47 -7 43 -10 33 -13 22 -15 8 -14 -8 
-14 -22 -10 -33 -7 -43 14043 851 20 MP
PP
0 sg
-2 -47 2 -48 7 -43 10 -33 14 -22 14 -8 15 8 13 22 
10 33 7 43 2 48 -2 47 -7 43 -10 33 -13 22 -15 8 
-14 -8 -14 -22 -10 -33 -7 -43 14043 851 21 MP stroke
c9
2 -48 7 -44 10 -35 13 -23 15 -7 14 7 14 23 10 35 
7 44 2 48 -2 49 -7 44 -10 35 -14 22 -14 8 -15 -8 
-13 -22 -10 -35 -7 -44 14305 846 20 MP
PP
0 sg
-2 -49 2 -48 7 -44 10 -35 13 -23 15 -7 14 7 14 23 
10 35 7 44 2 48 -2 49 -7 44 -10 35 -14 22 -14 8 
-15 -8 -13 -22 -10 -35 -7 -44 14305 846 21 MP stroke
c9
3 -48 6 -44 11 -35 13 -23 15 -7 14 7 14 23 10 35 
7 44 2 48 -2 49 -7 44 -10 35 -14 23 -14 7 -15 -7 
-13 -23 -11 -35 -6 -44 14320 847 20 MP
PP
0 sg
-3 -49 3 -48 6 -44 11 -35 13 -23 15 -7 14 7 14 23 
10 35 7 44 2 48 -2 49 -7 44 -10 35 -14 23 -14 7 
-15 -7 -13 -23 -11 -35 -6 -44 14320 847 21 MP stroke
c9
2 -50 7 -46 11 -36 13 -23 15 -8 15 8 13 23 11 36 
7 46 2 50 -2 50 -7 45 -11 36 -13 24 -15 7 -15 -7 
-13 -24 -11 -36 -7 -45 14597 788 20 MP
PP
0 sg
-2 -50 2 -50 7 -46 11 -36 13 -23 15 -8 15 8 13 23 
11 36 7 46 2 50 -2 50 -7 45 -11 36 -13 24 -15 7 
-15 -7 -13 -24 -11 -36 -7 -45 14597 788 21 MP stroke
c9
2 -50 7 -45 11 -37 13 -23 15 -8 15 8 13 23 11 37 
7 45 2 50 -2 51 -7 45 -11 36 -13 23 -15 8 -15 -8 
-13 -23 -11 -36 -7 -45 14610 784 20 MP
PP
0 sg
-2 -51 2 -50 7 -45 11 -37 13 -23 15 -8 15 8 13 23 
11 37 7 45 2 50 -2 51 -7 45 -11 36 -13 23 -15 8 
-15 -8 -13 -23 -11 -36 -7 -45 14610 784 21 MP stroke
c9
3 -52 6 -46 11 -38 14 -23 15 -8 15 8 13 23 11 38 
7 46 2 52 -2 52 -7 46 -11 37 -13 24 -15 8 -15 -8 
-14 -24 -11 -37 -6 -46 14871 770 20 MP
PP
0 sg
-3 -52 3 -52 6 -46 11 -38 14 -23 15 -8 15 8 13 23 
11 38 7 46 2 52 -2 52 -7 46 -11 37 -13 24 -15 8 
-15 -8 -14 -24 -11 -37 -6 -46 14871 770 21 MP stroke
c9
2 -52 7 -47 11 -37 13 -24 15 -8 15 8 14 24 10 37 
7 47 3 52 -3 52 -7 47 -10 37 -14 24 -15 8 -15 -8 
-13 -24 -11 -37 -7 -47 14899 771 20 MP
PP
0 sg
-2 -52 2 -52 7 -47 11 -37 13 -24 15 -8 15 8 14 24 
10 37 7 47 3 52 -3 52 -7 47 -10 37 -14 24 -15 8 
-15 -8 -13 -24 -11 -37 -7 -47 14899 771 21 MP stroke
c9
3 -52 6 -47 11 -38 14 -24 15 -8 15 8 14 24 11 38 
7 47 2 52 -2 52 -7 47 -11 38 -14 24 -15 8 -15 -8 
-14 -24 -11 -38 -6 -47 14956 768 20 MP
PP
0 sg
-3 -52 3 -52 6 -47 11 -38 14 -24 15 -8 15 8 14 24 
11 38 7 47 2 52 -2 52 -7 47 -11 38 -14 24 -15 8 
-15 -8 -14 -24 -11 -38 -6 -47 14956 768 21 MP stroke
c9
3 -52 6 -47 11 -38 14 -24 15 -8 15 8 14 24 11 38 
7 47 2 52 -2 52 -7 47 -11 38 -14 24 -15 8 -15 -8 
-14 -24 -11 -38 -6 -47 14956 768 20 MP
PP
0 sg
-3 -52 3 -52 6 -47 11 -38 14 -24 15 -8 15 8 14 24 
11 38 7 47 2 52 -2 52 -7 47 -11 38 -14 24 -15 8 
-15 -8 -14 -24 -11 -38 -6 -47 14956 768 21 MP stroke
gr

8832 3729 mt 
(x [m]) s
1904 1963 mt  -90 rotate
(y [m]) s
90 rotate

end %%Color Dict

eplot
%%EndObject

epage
end

showpage

%%Trailer
%%EOF
