%!PS-Adobe-3.0 EPSF-3.0
%%Title: /home/michael/latex/ijrr2016_rovio/figures/motionDefficiencyDis.eps
%%Creator: matplotlib version 1.3.1, http://matplotlib.org/
%%CreationDate: Tue Feb 16 15:11:28 2016
%%Orientation: portrait
%%BoundingBox: 13 249 598 542
%%EndComments
%%BeginProlog
/mpldict 8 dict def
mpldict begin
/m { moveto } bind def
/l { lineto } bind def
/r { rlineto } bind def
/c { curveto } bind def
/cl { closepath } bind def
/box {
m
1 index 0 r
0 exch r
neg 0 r
cl
} bind def
/clipbox {
box
clip
newpath
} bind def
%!PS-Adobe-3.0 Resource-Font
%%Title: DejaVu Sans
%%Copyright: Copyright (c) 2003 by Bitstream, Inc. All Rights Reserved. Copyright (c) 2006 by Tavmjong Bah. All Rights Reserved. DejaVu changes are in public domain 
%%Creator: Converted from TrueType to type 3 by PPR
25 dict begin
/_d{bind def}bind def
/_m{moveto}_d
/_l{lineto}_d
/_cl{closepath eofill}_d
/_c{curveto}_d
/_sc{7 -1 roll{setcachedevice}{pop pop pop pop pop pop}ifelse}_d
/_e{exec}_d
/FontName /DejaVuSans def
/PaintType 0 def
/FontMatrix[.001 0 0 .001 0 0]def
/FontBBox[-1021 -415 1681 1167]def
/FontType 3 def
/Encoding [ /space /zero /one /two /four /six /eight /D /L /T /bracketleft /bracketright /a /c /d /e /i /k /m /n /r /s /t ] def
/FontInfo 10 dict dup begin
/FamilyName (DejaVu Sans) def
/FullName (DejaVu Sans) def
/Notice (Copyright (c) 2003 by Bitstream, Inc. All Rights Reserved. Copyright (c) 2006 by Tavmjong Bah. All Rights Reserved. DejaVu changes are in public domain ) def
/Weight (Book) def
/Version (Version 2.34) def
/ItalicAngle 0.0 def
/isFixedPitch false def
/UnderlinePosition -130 def
/UnderlineThickness 90 def
end readonly def
/CharStrings 23 dict dup begin
/space{318 0 0 0 0 0 _sc
}_d
/zero{636 0 66 -13 570 742 _sc
318 664 _m
267 664 229 639 203 589 _c
177 539 165 464 165 364 _c
165 264 177 189 203 139 _c
229 89 267 64 318 64 _c
369 64 407 89 433 139 _c
458 189 471 264 471 364 _c
471 464 458 539 433 589 _c
407 639 369 664 318 664 _c
318 742 _m
399 742 461 709 505 645 _c
548 580 570 486 570 364 _c
570 241 548 147 505 83 _c
461 19 399 -13 318 -13 _c
236 -13 173 19 130 83 _c
87 147 66 241 66 364 _c
66 486 87 580 130 645 _c
173 709 236 742 318 742 _c
_cl}_d
/one{636 0 110 0 544 729 _sc
124 83 _m
285 83 _l
285 639 _l
110 604 _l
110 694 _l
284 729 _l
383 729 _l
383 83 _l
544 83 _l
544 0 _l
124 0 _l
124 83 _l
_cl}_d
/two{{636 0 73 0 536 742 _sc
192 83 _m
536 83 _l
536 0 _l
73 0 _l
73 83 _l
110 121 161 173 226 239 _c
290 304 331 346 348 365 _c
380 400 402 430 414 455 _c
426 479 433 504 433 528 _c
433 566 419 598 392 622 _c
365 646 330 659 286 659 _c
255 659 222 653 188 643 _c
154 632 117 616 78 594 _c
78 694 _l
118 710 155 722 189 730 _c
223 738 255 742 284 742 _c
}_e{359 742 419 723 464 685 _c
509 647 532 597 532 534 _c
532 504 526 475 515 449 _c
504 422 484 390 454 354 _c
446 344 420 317 376 272 _c
332 227 271 164 192 83 _c
_cl}_e}_d
/four{636 0 49 0 580 729 _sc
378 643 _m
129 254 _l
378 254 _l
378 643 _l
352 729 _m
476 729 _l
476 254 _l
580 254 _l
580 172 _l
476 172 _l
476 0 _l
378 0 _l
378 172 _l
49 172 _l
49 267 _l
352 729 _l
_cl}_d
/six{{636 0 70 -13 573 742 _sc
330 404 _m
286 404 251 388 225 358 _c
199 328 186 286 186 234 _c
186 181 199 139 225 109 _c
251 79 286 64 330 64 _c
374 64 409 79 435 109 _c
461 139 474 181 474 234 _c
474 286 461 328 435 358 _c
409 388 374 404 330 404 _c
526 713 _m
526 623 _l
501 635 476 644 451 650 _c
425 656 400 659 376 659 _c
310 659 260 637 226 593 _c
}_e{192 549 172 482 168 394 _c
187 422 211 444 240 459 _c
269 474 301 482 336 482 _c
409 482 467 459 509 415 _c
551 371 573 310 573 234 _c
573 159 550 99 506 54 _c
462 9 403 -13 330 -13 _c
246 -13 181 19 137 83 _c
92 147 70 241 70 364 _c
70 479 97 571 152 639 _c
206 707 280 742 372 742 _c
396 742 421 739 447 735 _c
472 730 498 723 526 713 _c
_cl}_e}_d
/eight{{636 0 68 -13 568 742 _sc
318 346 _m
271 346 234 333 207 308 _c
180 283 167 249 167 205 _c
167 161 180 126 207 101 _c
234 76 271 64 318 64 _c
364 64 401 76 428 102 _c
455 127 469 161 469 205 _c
469 249 455 283 429 308 _c
402 333 365 346 318 346 _c
219 388 _m
177 398 144 418 120 447 _c
96 476 85 511 85 553 _c
85 611 105 657 147 691 _c
188 725 245 742 318 742 _c
}_e{390 742 447 725 489 691 _c
530 657 551 611 551 553 _c
551 511 539 476 515 447 _c
491 418 459 398 417 388 _c
464 377 501 355 528 323 _c
554 291 568 251 568 205 _c
568 134 546 80 503 43 _c
459 5 398 -13 318 -13 _c
237 -13 175 5 132 43 _c
89 80 68 134 68 205 _c
68 251 81 291 108 323 _c
134 355 171 377 219 388 _c
183 544 _m
183 506 194 476 218 455 _c
}_e{242 434 275 424 318 424 _c
360 424 393 434 417 455 _c
441 476 453 506 453 544 _c
453 582 441 611 417 632 _c
393 653 360 664 318 664 _c
275 664 242 653 218 632 _c
194 611 183 582 183 544 _c
_cl}_e}_d
/D{770 0 98 0 711 729 _sc
197 648 _m
197 81 _l
316 81 _l
416 81 490 103 537 149 _c
583 195 607 267 607 365 _c
607 463 583 534 537 580 _c
490 625 416 648 316 648 _c
197 648 _l
98 729 _m
301 729 _l
442 729 546 699 612 641 _c
678 582 711 490 711 365 _c
711 239 677 147 611 88 _c
545 29 441 0 301 0 _c
98 0 _l
98 729 _l
_cl}_d
/L{557 0 98 0 552 729 _sc
98 729 _m
197 729 _l
197 83 _l
552 83 _l
552 0 _l
98 0 _l
98 729 _l
_cl}_d
/T{611 0 -2 0 614 729 _sc
-2 729 _m
614 729 _l
614 646 _l
355 646 _l
355 0 _l
256 0 _l
256 646 _l
-2 646 _l
-2 729 _l
_cl}_d
/bracketleft{390 0 86 -131 293 760 _sc
86 760 _m
293 760 _l
293 690 _l
176 690 _l
176 -61 _l
293 -61 _l
293 -131 _l
86 -131 _l
86 760 _l
_cl}_d
/bracketright{390 0 97 -131 304 760 _sc
304 760 _m
304 -131 _l
97 -131 _l
97 -61 _l
214 -61 _l
214 690 _l
97 690 _l
97 760 _l
304 760 _l
_cl}_d
/a{{613 0 60 -13 522 560 _sc
343 275 _m
270 275 220 266 192 250 _c
164 233 150 205 150 165 _c
150 133 160 107 181 89 _c
202 70 231 61 267 61 _c
317 61 357 78 387 114 _c
417 149 432 196 432 255 _c
432 275 _l
343 275 _l
522 312 _m
522 0 _l
432 0 _l
432 83 _l
411 49 385 25 355 10 _c
325 -5 287 -13 243 -13 _c
187 -13 142 2 109 33 _c
76 64 60 106 60 159 _c
}_e{60 220 80 266 122 298 _c
163 329 224 345 306 345 _c
432 345 _l
432 354 _l
432 395 418 427 391 450 _c
364 472 326 484 277 484 _c
245 484 215 480 185 472 _c
155 464 127 453 100 439 _c
100 522 _l
132 534 164 544 195 550 _c
226 556 256 560 286 560 _c
365 560 424 539 463 498 _c
502 457 522 395 522 312 _c
_cl}_e}_d
/c{{550 0 55 -13 488 560 _sc
488 526 _m
488 442 _l
462 456 437 466 411 473 _c
385 480 360 484 334 484 _c
276 484 230 465 198 428 _c
166 391 150 339 150 273 _c
150 206 166 154 198 117 _c
230 80 276 62 334 62 _c
360 62 385 65 411 72 _c
437 79 462 90 488 104 _c
488 21 _l
462 9 436 0 410 -5 _c
383 -10 354 -13 324 -13 _c
242 -13 176 12 128 64 _c
}_e{79 115 55 185 55 273 _c
55 362 79 432 128 483 _c
177 534 244 560 330 560 _c
358 560 385 557 411 551 _c
437 545 463 537 488 526 _c
_cl}_e}_d
/d{{635 0 55 -13 544 760 _sc
454 464 _m
454 760 _l
544 760 _l
544 0 _l
454 0 _l
454 82 _l
435 49 411 25 382 10 _c
353 -5 319 -13 279 -13 _c
213 -13 159 13 117 65 _c
75 117 55 187 55 273 _c
55 359 75 428 117 481 _c
159 533 213 560 279 560 _c
319 560 353 552 382 536 _c
411 520 435 496 454 464 _c
148 273 _m
148 207 161 155 188 117 _c
215 79 253 61 301 61 _c
}_e{348 61 385 79 413 117 _c
440 155 454 207 454 273 _c
454 339 440 390 413 428 _c
385 466 348 485 301 485 _c
253 485 215 466 188 428 _c
161 390 148 339 148 273 _c
_cl}_e}_d
/e{{615 0 55 -13 562 560 _sc
562 296 _m
562 252 _l
149 252 _l
153 190 171 142 205 110 _c
238 78 284 62 344 62 _c
378 62 412 66 444 74 _c
476 82 509 95 541 113 _c
541 28 _l
509 14 476 3 442 -3 _c
408 -9 373 -13 339 -13 _c
251 -13 182 12 131 62 _c
80 112 55 181 55 268 _c
55 357 79 428 127 481 _c
175 533 241 560 323 560 _c
397 560 455 536 498 489 _c
}_e{540 441 562 377 562 296 _c
472 322 _m
471 371 457 410 431 440 _c
404 469 368 484 324 484 _c
274 484 234 469 204 441 _c
174 413 156 373 152 322 _c
472 322 _l
_cl}_e}_d
/i{278 0 94 0 184 760 _sc
94 547 _m
184 547 _l
184 0 _l
94 0 _l
94 547 _l
94 760 _m
184 760 _l
184 646 _l
94 646 _l
94 760 _l
_cl}_d
/k{579 0 91 0 576 760 _sc
91 760 _m
181 760 _l
181 311 _l
449 547 _l
564 547 _l
274 291 _l
576 0 _l
459 0 _l
181 267 _l
181 0 _l
91 0 _l
91 760 _l
_cl}_d
/m{{974 0 91 0 889 560 _sc
520 442 _m
542 482 569 511 600 531 _c
631 550 668 560 711 560 _c
767 560 811 540 842 500 _c
873 460 889 403 889 330 _c
889 0 _l
799 0 _l
799 327 _l
799 379 789 418 771 444 _c
752 469 724 482 686 482 _c
639 482 602 466 575 435 _c
548 404 535 362 535 309 _c
535 0 _l
445 0 _l
445 327 _l
445 379 435 418 417 444 _c
398 469 369 482 331 482 _c
}_e{285 482 248 466 221 435 _c
194 404 181 362 181 309 _c
181 0 _l
91 0 _l
91 547 _l
181 547 _l
181 462 _l
201 495 226 520 255 536 _c
283 552 317 560 357 560 _c
397 560 430 550 458 530 _c
486 510 506 480 520 442 _c
_cl}_e}_d
/n{634 0 91 0 549 560 _sc
549 330 _m
549 0 _l
459 0 _l
459 327 _l
459 379 448 417 428 443 _c
408 469 378 482 338 482 _c
289 482 251 466 223 435 _c
195 404 181 362 181 309 _c
181 0 _l
91 0 _l
91 547 _l
181 547 _l
181 462 _l
202 494 227 519 257 535 _c
286 551 320 560 358 560 _c
420 560 468 540 500 501 _c
532 462 549 405 549 330 _c
_cl}_d
/r{411 0 91 0 411 560 _sc
411 463 _m
401 469 390 473 378 476 _c
366 478 353 480 339 480 _c
288 480 249 463 222 430 _c
194 397 181 350 181 288 _c
181 0 _l
91 0 _l
91 547 _l
181 547 _l
181 462 _l
199 495 224 520 254 536 _c
284 552 321 560 365 560 _c
371 560 378 559 386 559 _c
393 558 401 557 411 555 _c
411 463 _l
_cl}_d
/s{{521 0 54 -13 472 560 _sc
443 531 _m
443 446 _l
417 458 391 468 364 475 _c
336 481 308 485 279 485 _c
234 485 200 478 178 464 _c
156 450 145 430 145 403 _c
145 382 153 366 169 354 _c
185 342 217 330 265 320 _c
296 313 _l
360 299 405 279 432 255 _c
458 230 472 195 472 151 _c
472 100 452 60 412 31 _c
372 1 316 -13 246 -13 _c
216 -13 186 -10 154 -5 _c
}_e{122 0 89 8 54 20 _c
54 113 _l
87 95 120 82 152 74 _c
184 65 216 61 248 61 _c
290 61 323 68 346 82 _c
368 96 380 117 380 144 _c
380 168 371 187 355 200 _c
339 213 303 226 247 238 _c
216 245 _l
160 257 119 275 95 299 _c
70 323 58 356 58 399 _c
58 450 76 490 112 518 _c
148 546 200 560 268 560 _c
301 560 332 557 362 552 _c
391 547 418 540 443 531 _c
}_e{_cl}_e}_d
/t{392 0 27 0 368 702 _sc
183 702 _m
183 547 _l
368 547 _l
368 477 _l
183 477 _l
183 180 _l
183 135 189 106 201 94 _c
213 81 238 75 276 75 _c
368 75 _l
368 0 _l
276 0 _l
206 0 158 13 132 39 _c
106 65 93 112 93 180 _c
93 477 _l
27 477 _l
27 547 _l
93 547 _l
93 702 _l
183 702 _l
_cl}_d
end readonly def

/BuildGlyph
 {exch begin
 CharStrings exch
 2 copy known not{pop /.notdef}if
 true 3 1 roll get exec
 end}_d

/BuildChar {
 1 index /Encoding get exch get
 1 index /BuildGlyph get exec
}_d

FontName currentdict end definefont pop
end
%%EndProlog
mpldict begin
13.5 249.3 translate
585 293.4 0 0 clipbox
gsave
0 0 m
585 0 l
585 293.4 l
0 293.4 l
cl
1.000 setgray
fill
grestore
gsave
73.125 44.01 m
526.5 44.01 l
526.5 264.06 l
73.125 264.06 l
cl
1.000 setgray
fill
grestore
1.000 setlinewidth
1 setlinejoin
2 setlinecap
[] 0 setdash
0.867 0.267 0.133 setrgbcolor
gsave
453.4 220.1 73.12 44.01 clipbox
88.6832 88.02 m
89.3888 88.02 l
89.5652 111.566 l
89.7416 115.358 l
89.918 115.736 l
90.0944 105.566 l
90.4472 100.715 l
90.8 102.411 l
90.9764 102.339 l
91.1527 102.568 l
91.5055 102.656 l
91.8583 102.798 l
92.2111 103.102 l
93.0931 103.49 l
96.0919 103.849 l
97.503 103.941 l
99.0906 103.987 l
101.56 103.9 l
105.794 104.012 l
110.733 103.858 l
112.32 104.017 l
120.611 104.229 l
122.199 104.311 l
123.433 104.352 l
125.021 104.535 l
129.607 104.676 l
130.666 104.782 l
132.253 104.702 l
134.017 104.698 l
136.487 104.819 l
139.662 104.968 l
141.249 104.994 l
144.954 104.999 l
146.718 105.182 l
149.011 105.105 l
153.95 105.218 l
211.279 105.701 l
212.514 105.724 l
218.688 105.759 l
224.685 105.745 l
237.033 105.817 l
240.737 105.879 l
276.369 106.113 l
281.132 106.19 l
288.364 106.275 l
294.185 106.369 l
303.711 106.47 l
310.414 106.528 l
319.939 106.608 l
324.526 106.63 l
327.172 106.651 l
330.876 106.671 l
452.59 107.657 l
454.177 107.693 l
455.588 107.803 l
468.289 107.995 l
484.165 108.202 l
485.223 108.211 l
489.986 108.302 l
526.5 108.627 l
526.5 108.627 l
stroke
grestore
gsave
453.4 220.1 73.12 44.01 clipbox
89.036 88.02 m
89.2124 88.02 l
89.3888 88.02 l
89.5652 117.343 l
89.7416 124.544 l
90.4472 97.5577 l
90.6236 97.2153 l
90.8 97.2725 l
90.9764 96.9584 l
91.1527 96.9703 l
91.5055 96.822 l
91.8583 96.8164 l
92.0347 88.02 l
92.9167 88.6377 l
93.4459 88.9996 l
93.7987 88.9717 l
94.3279 89.1236 l
96.0919 89.5626 l
96.4447 89.6307 l
96.7974 89.6731 l
96.9738 89.7598 l
97.3266 89.7148 l
98.2086 89.9305 l
98.9142 89.969 l
99.9726 90.1304 l
100.325 90.1521 l
100.678 90.2643 l
101.031 90.2654 l
102.089 90.2994 l
102.619 90.3462 l
103.501 90.5247 l
104.03 90.7353 l
107.734 90.8395 l
108.087 90.8222 l
110.204 90.9601 l
112.144 90.7812 l
113.202 90.8652 l
114.437 90.8468 l
115.672 90.9659 l
116.73 91.0636 l
117.259 91.0863 l
119.376 90.9812 l
121.846 91.0294 l
123.433 91.1488 l
124.139 91.3416 l
125.727 91.3976 l
128.902 91.4387 l
130.666 91.7724 l
132.782 91.6533 l
134.37 91.6028 l
136.663 91.6784 l
138.427 91.6257 l
140.897 91.8295 l
143.719 91.7102 l
147.071 92.1375 l
148.305 92.023 l
153.421 91.9576 l
155.714 91.8634 l
159.066 91.8085 l
162.417 91.9071 l
201.754 92.305 l
203.694 92.3298 l
208.986 92.3952 l
234.211 92.5848 l
240.561 92.6355 l
247.088 92.6636 l
264.551 92.8083 l
268.432 92.8253 l
273.9 92.9001 l
281.485 92.9907 l
387.499 94.0734 l
393.85 94.0541 l
402.669 94.2191 l
408.314 94.2161 l
430.187 94.459 l
432.304 94.5198 l
434.95 94.6428 l
441.124 94.6823 l
482.577 95.0665 l
484.518 95.1702 l
486.811 95.1859 l
490.691 95.2028 l
497.395 95.2207 l
500.393 95.2605 l
504.098 95.2773 l
526.5 95.5158 l
526.5 95.5158 l
stroke
grestore
gsave
453.4 220.1 73.12 44.01 clipbox
89.036 88.02 m
89.2124 88.02 l
89.3888 143.471 l
89.5652 142.06 l
89.7416 136.6 l
90.2708 113.117 l
90.4472 109.467 l
90.6236 109.086 l
90.8 109.172 l
90.9764 108.821 l
91.8583 108.861 l
92.0347 88.02 l
92.7403 88.6107 l
93.0931 88.6367 l
93.2695 88.6804 l
93.4459 88.8414 l
93.9751 88.7319 l
94.5043 88.618 l
94.6807 88.6089 l
94.8571 88.7724 l
95.9155 88.5791 l
96.2683 88.7233 l
97.8558 88.4731 l
98.2086 88.4997 l
98.9142 88.3161 l
99.267 88.2841 l
99.6198 88.2909 l
103.324 87.7303 l
104.03 87.9366 l
106.146 87.5487 l
106.852 87.5184 l
107.381 87.4025 l
111.615 87.128 l
112.144 87.0337 l
113.379 87.0776 l
114.79 87.0323 l
117.083 87.1798 l
121.669 87.0439 l
122.728 87.1204 l
123.963 87.2777 l
124.668 87.2916 l
126.432 87.3286 l
127.843 87.2833 l
128.549 87.2684 l
131.724 87.6201 l
132.782 87.4719 l
134.37 87.3981 l
135.958 87.5015 l
138.427 87.3461 l
140.897 87.4979 l
144.601 87.4804 l
146.012 87.7967 l
146.541 87.8445 l
147.776 87.659 l
149.54 87.7044 l
149.893 87.7091 l
150.598 87.6578 l
151.833 87.6699 l
156.243 87.4884 l
159.418 87.4319 l
161.182 87.4654 l
176 87.551 l
180.586 87.6208 l
183.408 87.7032 l
185.701 87.6871 l
215.512 87.9481 l
220.452 87.9773 l
250.615 88.223 l
254.849 88.2397 l
260.67 88.2608 l
263.492 88.3024 l
278.663 88.4477 l
282.014 88.4748 l
286.777 88.5515 l
295.42 88.67 l
304.24 88.74 l
309.179 88.7892 l
318.881 88.9123 l
331.052 88.9846 l
337.755 89.0651 l
357.159 89.2528 l
361.393 89.2982 l
365.097 89.3477 l
382.384 89.3733 l
384.501 89.4041 l
389.263 89.4044 l
392.615 89.3842 l
400.024 89.5067 l
402.669 89.5401 l
417.134 89.5801 l
430.364 89.7875 l
432.304 89.8461 l
434.421 89.966 l
440.948 89.9537 l
444.828 89.9626 l
448.003 90.0019 l
449.415 90.0493 l
452.061 90.1011 l
454.177 90.0881 l
455.412 90.1437 l
461.41 90.1033 l
463.174 90.1826 l
471.111 90.1646 l
479.049 90.2665 l
483.459 90.3697 l
485.223 90.403 l
495.101 90.4654 l
499.158 90.4834 l
526.5 90.7278 l
526.5 90.7278 l
stroke
grestore
gsave
453.4 220.1 73.12 44.01 clipbox
89.036 88.02 m
89.2124 88.02 l
89.3888 88.02 l
89.5652 117.48 l
89.7416 121.437 l
90.4472 96.7699 l
90.6236 96.4815 l
90.8 96.5857 l
90.9764 96.2641 l
91.1527 96.2603 l
91.5055 96.1209 l
91.8583 96.1135 l
92.0347 88.02 l
93.2695 88.5833 l
93.4459 88.457 l
93.9751 88.7858 l
95.0335 88.7658 l
95.5627 88.7608 l
96.621 88.1238 l
97.1502 88.0267 l
97.6794 88.0016 l
98.0322 87.9609 l
98.7378 87.7137 l
99.9726 87.5243 l
104.206 86.4651 l
104.735 86.3091 l
105.97 86.0219 l
106.499 85.8525 l
106.852 85.8513 l
107.91 85.5608 l
109.145 85.6717 l
110.556 85.5526 l
111.791 85.3056 l
112.32 85.2303 l
112.85 85.1947 l
113.379 85.1789 l
115.848 85.1634 l
116.554 85.202 l
117.965 85.1173 l
119.376 84.9619 l
121.14 84.9435 l
123.433 84.9906 l
124.315 85.0669 l
128.902 85.0235 l
131.018 85.2537 l
133.841 85.0443 l
135.428 84.9831 l
136.134 85.0558 l
137.898 84.8364 l
140.897 84.9455 l
141.955 84.8952 l
145.836 85.076 l
146.541 85.1436 l
147.423 85.0086 l
150.951 84.9169 l
151.833 84.9195 l
154.656 84.7139 l
161.888 84.6421 l
166.121 84.7636 l
168.062 84.7815 l
169.473 84.7616 l
170.355 84.7117 l
174.059 84.6801 l
179.175 84.7002 l
212.337 84.9858 l
215.512 84.9752 l
259.612 85.216 l
262.434 85.2474 l
374.446 86.1901 l
377.268 86.1503 l
384.853 86.1751 l
400.024 86.2575 l
404.257 86.2632 l
408.138 86.254 l
420.309 86.3964 l
428.953 86.5478 l
433.539 86.6409 l
435.832 86.6523 l
444.828 86.6159 l
449.238 86.6966 l
455.412 86.7237 l
460.704 86.6481 l
463.174 86.7105 l
467.76 86.6528 l
482.577 86.8639 l
484.694 86.9358 l
486.282 86.9108 l
491.397 86.9221 l
494.572 86.9692 l
500.04 86.9964 l
526.5 87.1843 l
526.5 87.1843 l
stroke
grestore
gsave
453.4 220.1 73.12 44.01 clipbox
89.036 88.02 m
89.2124 88.02 l
89.3888 141.831 l
89.5652 142.334 l
89.7416 139.154 l
89.918 133.708 l
90.0944 122.582 l
90.2708 118.475 l
90.4472 88.02 l
91.1527 88.0176 l
91.8583 88.1524 l
92.9167 100.218 l
93.2695 101.857 l
93.9751 102.779 l
94.3279 102.836 l
94.5043 102.784 l
94.6807 102.616 l
95.2099 102.888 l
95.5627 102.989 l
95.9155 103.098 l
96.2683 103.62 l
96.621 103.815 l
96.7974 103.867 l
97.1502 104.203 l
97.6794 104.309 l
98.9142 104.943 l
99.267 104.953 l
99.6198 104.901 l
99.7962 104.782 l
100.502 104.798 l
100.855 104.683 l
102.089 103.914 l
102.442 103.751 l
103.148 103.757 l
103.677 103.913 l
104.206 104.011 l
104.559 103.938 l
107.734 102.29 l
108.44 101.857 l
109.145 101.895 l
109.851 101.844 l
112.144 101.855 l
113.202 102.022 l
114.437 102.112 l
115.143 102.219 l
115.848 102.175 l
116.377 102.244 l
117.612 102.396 l
119.2 102.504 l
121.669 102.702 l
123.433 102.877 l
124.139 103.047 l
124.845 103.038 l
125.903 103.047 l
127.138 103.11 l
129.078 103.288 l
130.136 103.596 l
130.842 103.689 l
131.548 103.7 l
132.43 103.634 l
133.664 103.525 l
134.37 103.515 l
134.899 103.569 l
136.487 103.753 l
137.721 103.779 l
138.78 103.879 l
139.309 103.997 l
141.073 104.089 l
142.308 104.009 l
143.366 104.009 l
144.601 104.094 l
146.189 104.563 l
146.718 104.579 l
147.776 104.504 l
150.069 104.626 l
152.892 104.416 l
156.596 104.25 l
157.654 104.241 l
158.713 104.282 l
159.771 104.343 l
161.535 104.373 l
163.652 104.365 l
187.113 104.796 l
197.344 104.747 l
204.399 104.941 l
213.043 105.067 l
218.335 105.104 l
222.745 105.122 l
224.862 105.143 l
228.919 105.139 l
238.973 105.22 l
241.266 105.261 l
244.794 105.316 l
250.263 105.343 l
255.731 105.3 l
260.141 105.314 l
291.892 105.868 l
301.065 105.962 l
304.593 105.956 l
316.764 106.094 l
320.292 106.147 l
441.653 107.246 l
442.535 107.28 l
445.71 107.268 l
447.298 107.233 l
451.355 107.309 l
452.061 107.3 l
454.177 107.284 l
455.941 107.427 l
461.586 107.449 l
464.056 107.509 l
468.995 107.56 l
471.288 107.609 l
473.405 107.578 l
477.285 107.657 l
495.454 107.933 l
499.511 107.965 l
502.51 107.99 l
504.627 108.034 l
512.035 108.139 l
515.563 108.155 l
521.737 108.187 l
522.972 108.281 l
525.618 108.315 l
526.5 108.332 l
526.5 108.332 l
stroke
grestore
gsave
453.4 220.1 73.12 44.01 clipbox
89.036 88.02 m
89.2124 88.02 l
89.3888 133.322 l
89.7416 126.853 l
90.2708 106.024 l
90.4472 88.02 l
91.1527 88.1783 l
91.6819 88.2248 l
91.8583 88.1509 l
92.7403 91.7383 l
93.4459 92.8534 l
93.6223 92.6747 l
93.9751 92.8563 l
96.0919 92.7201 l
96.4447 92.7395 l
96.7974 92.8069 l
97.1502 92.9046 l
97.8558 93.094 l
98.2086 93.1472 l
98.5614 93.0637 l
99.4434 93.1206 l
99.7962 93.2541 l
100.149 93.1895 l
100.678 93.3058 l
101.913 92.9872 l
102.619 92.83 l
103.501 92.8647 l
104.03 93.0074 l
104.383 92.8674 l
105.088 92.6907 l
106.852 92.3987 l
108.616 92.3054 l
110.027 92.2912 l
112.85 92.0598 l
114.79 92.126 l
117.259 92.335 l
118.847 92.1996 l
129.078 92.8008 l
129.607 92.9701 l
131.548 93.2419 l
132.782 93.1099 l
135.428 93.0718 l
135.958 93.1905 l
137.016 93.0714 l
138.251 93.0552 l
138.956 93.1699 l
140.015 93.2548 l
142.661 93.2218 l
143.719 93.2211 l
144.954 93.4405 l
146.894 93.7084 l
148.129 93.6272 l
149.364 93.6935 l
149.893 93.7117 l
150.422 93.6439 l
152.186 93.6693 l
153.421 93.5814 l
154.832 93.4981 l
159.066 93.4193 l
160.653 93.4926 l
162.593 93.5538 l
164.005 93.5688 l
166.827 93.6477 l
168.591 93.7366 l
170.179 93.6688 l
182.879 93.8746 l
186.583 93.8794 l
189.406 93.8931 l
230.683 94.3267 l
232.623 94.3866 l
235.093 94.3702 l
238.268 94.3981 l
247.793 94.4588 l
250.263 94.5098 l
261.199 94.5464 l
278.133 94.7255 l
283.249 94.7989 l
287.482 94.8461 l
301.241 95.0595 l
304.416 95.0662 l
319.41 95.2561 l
345.517 95.4767 l
364.921 95.6621 l
366.861 95.6871 l
376.21 95.7056 l
378.503 95.7129 l
393.32 95.6952 l
398.789 95.7732 l
403.375 95.866 l
433.539 96.283 l
435.303 96.3298 l
441.653 96.4329 l
442.712 96.4466 l
445.005 96.4302 l
449.944 96.5265 l
454.354 96.5799 l
455.236 96.6462 l
458.234 96.6038 l
460.528 96.5997 l
469.524 96.6819 l
471.288 96.7426 l
473.581 96.7546 l
477.285 96.8339 l
479.578 96.8763 l
483.636 96.9879 l
484.694 97.035 l
486.458 97.0434 l
487.869 97.0795 l
491.397 97.0596 l
494.572 97.1003 l
498.1 97.1125 l
526.5 97.431 l
526.5 97.431 l
stroke
grestore
gsave
453.4 220.1 73.12 44.01 clipbox
89.036 88.02 m
89.2124 88.02 l
89.3888 88.02 l
89.7416 112.333 l
90.0944 93.6955 l
90.4472 88.02 l
90.9764 87.969 l
91.3291 87.8513 l
91.8583 87.7287 l
92.0347 88.1326 l
92.3875 89.5465 l
92.7403 90.2118 l
92.9167 90.3051 l
93.2695 90.8398 l
93.7987 90.9018 l
94.1515 91.0525 l
94.8571 91.1282 l
95.2099 91.2383 l
97.3266 91.6672 l
97.8558 91.7399 l
98.0322 91.8114 l
98.5614 91.5923 l
100.678 91.6293 l
102.971 90.7241 l
103.324 90.705 l
103.853 90.7962 l
104.206 90.6737 l
104.912 90.3286 l
106.323 89.7225 l
107.028 89.5324 l
108.792 89.1468 l
109.851 89.0751 l
112.32 88.7407 l
113.202 88.7313 l
118.318 88.8038 l
119.376 88.787 l
120.435 88.8264 l
122.199 88.8588 l
124.492 89.0785 l
125.374 89.0913 l
125.903 89.181 l
129.078 89.3001 l
129.96 89.5678 l
131.548 89.7014 l
132.253 89.6605 l
132.959 89.5634 l
134.37 89.5211 l
135.428 89.5451 l
135.958 89.6622 l
138.78 89.5452 l
139.485 89.6115 l
140.544 89.7015 l
141.426 89.6756 l
142.484 89.6351 l
144.425 89.7109 l
146.894 90.0538 l
148.129 89.9733 l
149.011 89.9855 l
150.069 90.0003 l
161.182 89.8376 l
169.473 90.0418 l
170.179 89.9996 l
181.292 90.1538 l
183.232 90.2021 l
198.755 90.3457 l
235.269 90.681 l
237.209 90.6943 l
239.679 90.732 l
254.849 90.8401 l
260.67 90.8457 l
263.14 90.8749 l
267.197 90.897 l
276.369 91.0063 l
287.482 91.1401 l
303.534 91.3127 l
311.296 91.4226 l
313.236 91.4768 l
318.881 91.5354 l
333.346 91.6597 l
340.578 91.7086 l
342.342 91.7559 l
349.75 91.8315 l
352.22 91.8191 l
355.572 91.88 l
371.976 91.9864 l
377.268 91.9696 l
379.914 92.0136 l
383.971 92.0096 l
387.323 92.0256 l
397.201 92.0439 l
403.551 92.1628 l
413.959 92.2027 l
421.015 92.3534 l
429.305 92.4616 l
432.304 92.5281 l
435.303 92.6692 l
437.596 92.7415 l
442.888 92.7584 l
447.474 92.7594 l
449.591 92.8856 l
458.234 92.9438 l
460.88 92.9516 l
464.056 93.0095 l
467.054 93.0305 l
482.224 93.2508 l
484.518 93.3764 l
486.458 93.3659 l
487.693 93.4059 l
522.266 93.6701 l
524.03 93.6825 l
526.5 93.7468 l
526.5 93.7468 l
stroke
grestore
gsave
453.4 220.1 73.12 44.01 clipbox
89.036 88.02 m
89.2124 88.02 l
89.3888 126.441 l
89.5652 127.463 l
89.7416 126.551 l
89.918 88.02 l
90.0944 90.3338 l
90.2708 90.0948 l
90.4472 89.5203 l
90.6236 89.9044 l
90.8 90.7028 l
91.8583 92.3112 l
92.2111 93.2379 l
92.9167 93.7466 l
93.2695 93.9926 l
93.4459 93.9957 l
93.7987 94.1332 l
94.1515 94.2148 l
94.8571 94.2126 l
95.0335 94.301 l
95.2099 94.2149 l
95.5627 94.1931 l
96.7974 94.1283 l
96.9738 94.2113 l
97.3266 94.1604 l
98.0322 94.4131 l
98.7378 94.2057 l
99.4434 94.3017 l
99.7962 94.4571 l
100.149 94.4407 l
100.502 94.567 l
101.207 94.5585 l
102.089 94.2822 l
102.442 94.139 l
102.971 94.0347 l
103.324 94.0589 l
103.853 94.1776 l
104.206 94.0754 l
104.559 93.981 l
105.088 93.8602 l
105.264 93.775 l
105.617 93.8533 l
106.499 93.6037 l
107.734 93.6132 l
108.087 93.6364 l
109.322 93.9 l
109.851 93.8888 l
110.556 93.6592 l
110.909 93.6235 l
112.144 93.2371 l
112.85 93.2594 l
113.379 93.2427 l
116.377 93.4209 l
116.907 93.5948 l
117.612 93.4977 l
119.376 93.3528 l
119.905 93.3149 l
121.14 93.3444 l
122.199 93.3565 l
124.139 93.652 l
125.727 93.7019 l
126.961 93.8152 l
127.49 93.7772 l
129.431 94.114 l
130.489 94.3832 l
131.371 94.567 l
132.959 94.4236 l
135.252 94.3291 l
136.663 94.405 l
137.545 94.245 l
138.78 94.3653 l
139.662 94.4267 l
140.72 94.5378 l
141.426 94.5287 l
141.955 94.5042 l
142.661 94.4759 l
143.366 94.4482 l
144.601 94.6287 l
145.307 94.8161 l
146.894 95.0133 l
148.305 94.924 l
149.716 95.072 l
150.422 94.9163 l
153.068 94.9148 l
153.774 94.8508 l
158.184 94.7106 l
159.066 94.6673 l
160.653 94.7376 l
161.888 94.7521 l
170.002 94.9355 l
174.941 94.9206 l
178.998 94.9687 l
181.821 95.1213 l
183.937 95.1339 l
190.464 95.1878 l
191.17 95.2109 l
195.227 95.2759 l
215.336 95.4309 l
218.864 95.4632 l
219.746 95.5078 l
223.803 95.5596 l
256.084 95.8586 l
275.135 95.9962 l
279.545 96.0775 l
282.896 96.0959 l
285.013 96.1652 l
290.481 96.2616 l
294.185 96.3184 l
299.301 96.3582 l
300.183 96.3978 l
307.592 96.4338 l
311.296 96.4802 l
314.118 96.5484 l
316.941 96.5588 l
321.88 96.6255 l
341.636 96.8286 l
343.224 96.8471 l
349.574 96.8899 l
356.983 96.9388 l
365.097 97.0425 l
368.978 97.1015 l
381.502 97.0178 l
385.912 97.0351 l
394.555 96.9777 l
400.376 97.1177 l
401.787 97.1531 l
422.779 97.4216 l
424.543 97.4656 l
431.069 97.5093 l
442.535 97.8504 l
448.356 97.9464 l
457 98.0981 l
458.94 98.0268 l
460.175 98.0361 l
461.586 98.0972 l
463.526 98.1307 l
476.051 98.2377 l
495.454 98.5809 l
499.158 98.6182 l
526.5 98.9194 l
526.5 98.9194 l
stroke
grestore
gsave
453.4 220.1 73.12 44.01 clipbox
89.036 88.02 m
89.2124 88.02 l
89.3888 119.947 l
89.7416 116.961 l
89.918 88.02 l
90.0944 90.1969 l
90.2708 88.9348 l
90.4472 94.9759 l
90.8 97.5726 l
91.1527 98.0239 l
91.6819 97.8193 l
91.8583 97.7245 l
92.0347 97.8953 l
92.3875 99.0806 l
92.7403 99.4462 l
93.2695 99.8581 l
93.4459 99.665 l
93.6223 99.9703 l
93.7987 100.042 l
94.5043 100.946 l
94.6807 101.079 l
95.0335 102.058 l
95.2099 102.281 l
96.7974 106.2 l
98.0322 110.29 l
100.325 118.677 l
100.855 120.954 l
102.442 128.552 l
103.501 136.945 l
104.03 141.752 l
104.559 145.777 l
105.441 154.099 l
107.381 179.139 l
108.087 188.145 l
108.792 199.666 l
108.792 199.666 l
stroke
grestore
gsave
453.4 220.1 73.12 44.01 clipbox
89.036 88.02 m
89.2124 88.02 l
89.3888 134.614 l
89.7416 127.034 l
90.2708 107.588 l
90.4472 88.02 l
90.9764 87.8936 l
91.1527 87.7662 l
91.8583 87.9575 l
92.3875 84.6556 l
92.7403 83.5732 l
93.0931 83.0983 l
93.4459 82.9128 l
93.6223 82.8544 l
94.1515 83.0479 l
94.6807 82.8669 l
94.8571 82.9045 l
95.2099 82.8626 l
95.7391 82.916 l
96.2683 83.015 l
99.0906 82.9123 l
100.149 83.1728 l
102.442 83.6498 l
103.324 83.8195 l
105.441 84.5755 l
105.97 84.5721 l
106.852 84.796 l
107.734 85.248 l
108.969 85.6678 l
109.674 85.5725 l
110.733 85.7084 l
111.615 85.8315 l
114.79 85.8717 l
116.201 85.9657 l
116.73 85.9305 l
118.847 85.7745 l
120.787 85.7866 l
123.61 85.9748 l
123.963 86.0075 l
125.197 86.0509 l
126.432 86.1645 l
129.078 86.0504 l
130.666 86.4094 l
131.371 86.3922 l
132.606 86.1718 l
134.017 86.1612 l
135.605 86.1799 l
137.192 86.1083 l
138.603 86.1315 l
141.073 86.2428 l
143.719 86.1091 l
145.483 86.3338 l
146.189 86.4189 l
149.011 86.1994 l
150.246 86.206 l
151.657 86.2381 l
153.95 86.1932 l
156.596 86.1275 l
167.885 86.2306 l
169.12 86.2445 l
173.001 86.1807 l
180.586 86.2165 l
183.761 86.2793 l
187.818 86.3092 l
200.342 86.4503 l
205.634 86.5325 l
285.366 87.1531 l
292.951 87.2841 l
320.469 87.544 l
330.876 87.6316 l
350.456 87.8595 l
353.278 87.9132 l
362.451 87.9532 l
367.919 87.9859 l
373.564 88.0641 l
379.914 88.0722 l
384.148 88.0656 l
388.381 88.0969 l
394.026 88.091 l
409.373 88.223 l
417.31 88.2514 l
428.6 88.4651 l
431.951 88.495 l
438.125 88.618 l
444.475 88.5719 l
446.592 88.563 l
449.062 88.5963 l
457.529 88.6762 l
482.401 88.8889 l
484.341 88.9953 l
491.221 88.9993 l
493.69 89.0252 l
499.864 89.0688 l
526.5 89.3012 l
526.5 89.3012 l
stroke
grestore
gsave
453.4 220.1 73.12 44.01 clipbox
89.2124 88.02 m
89.3888 134.325 l
89.5652 132.661 l
89.7416 128.83 l
89.918 88.02 l
90.0944 89.2548 l
90.2708 88.1346 l
90.6236 93.0325 l
90.8 93.9917 l
90.9764 93.6594 l
91.1527 93.7022 l
91.6819 93.5558 l
91.8583 93.5254 l
92.0347 88.02 l
94.6807 88.6972 l
95.0335 88.9322 l
95.7391 88.9188 l
96.0919 88.8104 l
97.6794 88.5184 l
98.7378 88.5382 l
99.6198 88.5514 l
99.9726 88.5599 l
101.207 88.6588 l
102.266 88.9168 l
103.501 89.0477 l
104.383 89.2677 l
106.852 89.7509 l
107.381 89.7903 l
109.145 90.0548 l
110.204 90.1326 l
110.733 90.1969 l
114.79 90.187 l
117.965 90.2633 l
119.2 90.1661 l
122.728 90.2367 l
123.61 90.3461 l
124.668 90.5379 l
127.138 90.5288 l
128.725 90.453 l
131.9 90.6636 l
133.841 90.4909 l
137.369 90.5103 l
138.603 90.5283 l
140.191 90.6829 l
141.955 90.5892 l
144.601 90.58 l
146.541 90.9194 l
148.305 90.7553 l
149.716 90.8024 l
152.01 90.7864 l
159.066 90.6063 l
164.005 90.6285 l
168.062 90.7256 l
169.473 90.743 l
170.884 90.694 l
181.292 90.7851 l
184.819 90.8057 l
195.227 90.8816 l
204.576 91.011 l
206.34 91.034 l
210.397 91.0409 l
213.925 91.0836 l
252.732 91.3256 l
254.496 91.3224 l
319.587 92.0758 l
326.642 92.1336 l
329.112 92.1497 l
434.068 93.3033 l
436.714 93.2876 l
451.002 93.355 l
452.413 93.3349 l
454.177 93.3457 l
455.412 93.413 l
461.586 93.427 l
463.174 93.5177 l
477.814 93.5649 l
479.931 93.5699 l
483.459 93.6895 l
485.4 93.7494 l
486.987 93.7947 l
495.278 93.8194 l
500.04 93.8641 l
512.741 93.9929 l
526.5 94.1282 l
526.5 94.1282 l
stroke
grestore
gsave
453.4 220.1 73.12 44.01 clipbox
89.2124 88.02 m
89.3888 135.891 l
89.7416 126.332 l
89.918 88.02 l
90.0944 89.4926 l
90.6236 85.9394 l
90.8 86.2043 l
90.9764 86.0748 l
91.8583 86.6862 l
92.0347 88.02 l
92.3875 88.0693 l
92.7403 87.2908 l
93.2695 86.7974 l
93.6223 86.8162 l
93.7987 86.8368 l
94.1515 87.098 l
101.384 88.6201 l
102.971 88.7855 l
103.853 89.0374 l
106.499 89.1921 l
107.205 89.2731 l
107.91 89.3126 l
108.44 89.5109 l
108.792 89.6664 l
111.791 89.4261 l
112.144 89.3844 l
113.026 89.4688 l
115.496 89.5392 l
116.025 89.5414 l
117.436 89.6067 l
119.729 89.5321 l
123.433 89.6649 l
124.315 89.8317 l
129.078 89.9583 l
130.313 90.2061 l
131.371 90.2768 l
132.253 90.2183 l
133.841 90.0535 l
135.605 90.1309 l
136.487 90.1282 l
137.898 90.0342 l
142.484 90.1162 l
144.072 90.1547 l
144.954 90.2761 l
146.894 90.5296 l
149.011 90.395 l
150.069 90.4451 l
151.304 90.4368 l
153.068 90.3715 l
154.303 90.2995 l
156.596 90.2297 l
159.947 90.2492 l
167.003 90.3441 l
169.473 90.3986 l
170.708 90.3632 l
173.883 90.3654 l
177.94 90.3826 l
189.759 90.5347 l
191.875 90.5456 l
227.86 90.8591 l
263.14 91.0787 l
266.844 91.1017 l
288.188 91.3466 l
291.892 91.4466 l
320.645 91.674 l
326.642 91.7431 l
330.523 91.7561 l
390.674 92.153 l
398.789 92.238 l
403.904 92.324 l
409.02 92.3303 l
420.662 92.4779 l
425.248 92.5419 l
432.657 92.6725 l
434.597 92.7689 l
436.361 92.7645 l
440.771 92.7489 l
442.359 92.7815 l
445.005 92.7746 l
451.002 92.8724 l
452.061 92.8828 l
477.109 92.9858 l
479.049 93.0036 l
482.577 93.0852 l
484.518 93.1808 l
487.34 93.2083 l
491.75 93.1748 l
508.508 93.3503 l
516.269 93.4043 l
521.737 93.4093 l
523.148 93.4734 l
525.089 93.4979 l
526.5 93.5145 l
526.5 93.5145 l
stroke
grestore
gsave
453.4 220.1 73.12 44.01 clipbox
89.2124 88.02 m
89.3888 133.35 l
89.7416 125.883 l
89.918 88.02 l
90.0944 89.6014 l
90.2708 89.1352 l
90.4472 85.3115 l
90.6236 84.3171 l
90.8 84.3009 l
90.9764 83.8839 l
91.1527 83.9706 l
91.5055 83.9835 l
91.8583 83.9612 l
92.0347 84.0884 l
93.4459 82.953 l
93.9751 82.6781 l
94.3279 82.4717 l
94.6807 82.342 l
95.2099 81.9767 l
96.4447 81.2957 l
96.7974 81.3222 l
97.3266 81.1897 l
98.2086 80.9885 l
98.9142 80.7897 l
99.4434 80.7915 l
99.7962 80.8953 l
102.442 80.4836 l
105.441 80.0773 l
105.97 79.9848 l
106.499 79.8947 l
108.087 79.97 l
108.969 80.1648 l
111.086 80.0435 l
114.084 79.8108 l
118.671 79.8094 l
120.787 79.7404 l
123.257 79.8077 l
124.668 79.9085 l
127.667 80.0253 l
128.549 80.0077 l
132.253 80.4152 l
133.312 80.3407 l
135.076 80.2654 l
140.72 80.2856 l
141.779 80.3344 l
144.601 80.3615 l
146.365 80.6081 l
147.953 80.4546 l
150.775 80.5188 l
152.01 80.6112 l
153.421 80.5653 l
154.832 80.5118 l
172.648 80.6168 l
176.176 80.5883 l
209.515 80.9818 l
212.69 80.9745 l
218.864 81.0212 l
220.275 81.0447 l
228.037 81.1207 l
264.551 81.3643 l
268.784 81.3809 l
277.428 81.4792 l
283.072 81.5232 l
286.424 81.5856 l
299.301 81.7065 l
300.536 81.7417 l
311.472 81.8425 l
315.706 81.8608 l
350.28 82.1588 l
353.102 82.1779 l
356.454 82.1851 l
359.452 82.1983 l
369.154 82.2865 l
372.329 82.2605 l
374.622 82.2684 l
383.089 82.2437 l
386.441 82.2719 l
396.319 82.2469 l
402.846 82.3701 l
407.785 82.3484 l
420.662 82.5212 l
424.895 82.5934 l
427.189 82.6616 l
430.187 82.7076 l
432.657 82.7763 l
434.774 82.8606 l
436.89 82.9043 l
438.831 82.9323 l
444.475 82.885 l
449.062 83.0339 l
464.408 83.116 l
467.054 83.1415 l
483.459 83.392 l
488.575 83.4591 l
526.5 83.708 l
526.5 83.708 l
stroke
grestore
gsave
453.4 220.1 73.12 44.01 clipbox
89.2124 88.02 m
89.3888 127.329 l
89.7416 120.41 l
89.918 88.02 l
90.0944 88.8718 l
90.2708 88.2173 l
90.4472 85.3577 l
90.8 83.8988 l
91.1527 82.7721 l
91.3291 82.4711 l
91.8583 82.3374 l
92.2111 82.4212 l
92.9167 82.5556 l
93.7987 82.7569 l
94.3279 82.8224 l
95.0335 82.9961 l
96.7974 83.0777 l
98.2086 82.8494 l
98.7378 82.8598 l
99.7962 82.933 l
100.502 83.0657 l
101.207 83.2148 l
102.795 83.7292 l
104.03 84.142 l
105.264 84.5197 l
109.322 85.7581 l
112.85 86.2115 l
114.437 86.277 l
115.848 86.438 l
116.907 86.4831 l
118.318 86.4613 l
123.081 86.6657 l
124.139 86.8676 l
124.845 86.9979 l
127.667 87.11 l
129.078 87.0999 l
130.842 87.4246 l
135.428 87.4103 l
136.84 87.4235 l
138.956 87.4999 l
141.249 87.5757 l
144.954 87.6107 l
146.365 87.8311 l
149.364 87.7381 l
153.774 87.9246 l
158.184 87.8906 l
165.416 87.9433 l
166.827 87.9628 l
168.591 88.0788 l
175.118 88.0413 l
180.939 88.0968 l
182.173 88.1452 l
185.701 88.1305 l
219.57 88.5126 l
222.745 88.5117 l
234.916 88.6005 l
241.796 88.6753 l
269.313 88.8703 l
288.364 89.1157 l
293.127 89.2079 l
298.948 89.2521 l
303.182 89.3285 l
314.471 89.46 l
322.233 89.4835 l
327.701 89.537 l
337.226 89.6473 l
344.635 89.7145 l
349.045 89.7761 l
350.632 89.7662 l
352.396 89.7794 l
356.277 89.8553 l
358.923 89.847 l
362.098 89.8739 l
422.955 90.3996 l
424.543 90.4081 l
433.539 90.6252 l
435.479 90.6231 l
455.588 90.8259 l
458.764 90.8074 l
475.345 90.9966 l
481.519 91.0242 l
492.103 91.1959 l
498.277 91.2432 l
501.981 91.2989 l
505.862 91.3145 l
526.5 91.5142 l
526.5 91.5142 l
stroke
grestore
gsave
453.4 220.1 73.12 44.01 clipbox
89.2124 88.02 m
89.3888 154.887 l
89.7416 141.595 l
89.918 88.02 l
90.0944 88.6591 l
90.2708 88.1443 l
90.4472 86.5419 l
91.5055 85.998 l
91.8583 85.997 l
92.0347 88.02 l
92.3875 88.2981 l
93.4459 90.5558 l
93.7987 91.565 l
93.9751 91.6276 l
94.3279 92.0978 l
94.5043 92.0452 l
95.0335 92.2964 l
95.3863 92.2268 l
95.7391 92.2557 l
96.4447 91.5296 l
97.1502 91.3193 l
97.6794 91.0774 l
98.2086 90.8349 l
99.4434 90.7855 l
99.7962 90.6424 l
100.325 90.7141 l
101.207 90.8413 l
101.913 91.1867 l
102.266 91.3842 l
103.677 91.504 l
108.792 94.0429 l
109.674 94.0072 l
110.556 94.3812 l
110.909 94.386 l
112.144 94.5764 l
113.202 94.4436 l
117.436 94.4985 l
119.553 94.219 l
120.258 94.1967 l
120.787 94.2433 l
121.846 94.3133 l
123.61 94.4424 l
125.55 94.951 l
127.314 94.6734 l
129.431 94.5187 l
131.371 94.667 l
132.959 94.4277 l
134.37 94.4854 l
134.899 94.5483 l
138.78 94.4065 l
139.133 94.4981 l
144.954 94.3192 l
146.365 94.6154 l
149.364 94.3038 l
150.951 94.4625 l
152.715 94.477 l
155.538 94.3982 l
159.947 94.3264 l
161.888 94.3646 l
163.828 94.2812 l
165.769 94.2324 l
167.709 94.3507 l
169.297 94.4409 l
180.762 94.3424 l
182.879 94.4046 l
219.922 94.6667 l
222.216 94.6414 l
225.214 94.662 l
232.799 94.7712 l
291.539 95.4496 l
294.009 95.4796 l
298.595 95.5123 l
327.877 95.8287 l
332.993 95.8949 l
343.753 96.0263 l
349.398 96.1456 l
376.034 96.5279 l
378.327 96.5519 l
383.795 96.5057 l
387.147 96.5863 l
396.496 96.6355 l
398.789 96.6843 l
402.317 96.743 l
410.96 96.7712 l
420.662 96.9336 l
436.008 97.225 l
442.359 97.1646 l
445.534 97.138 l
462.115 97.3167 l
463.703 97.3809 l
464.761 97.292 l
470.406 97.3607 l
471.817 97.3804 l
474.287 97.3566 l
482.048 97.4072 l
483.988 97.5676 l
485.047 97.5503 l
486.634 97.5743 l
488.046 97.6081 l
490.868 97.5687 l
493.514 97.5773 l
506.744 97.6515 l
507.978 97.7048 l
526.5 97.8945 l
526.5 97.8945 l
stroke
grestore
gsave
453.4 220.1 73.12 44.01 clipbox
89.2124 88.02 m
89.3888 88.02 l
89.5652 118.642 l
89.7416 121.566 l
89.918 115.835 l
90.0944 104.919 l
90.4472 99.1839 l
90.8 99.949 l
90.9764 99.7582 l
91.5055 99.8894 l
91.8583 99.9887 l
92.0347 88.02 l
92.7403 87.937 l
92.9167 87.8471 l
93.2695 87.4486 l
93.6223 87.1724 l
93.7987 86.9791 l
94.1515 86.8606 l
94.6807 86.5782 l
94.8571 86.6278 l
95.3863 86.3502 l
95.7391 86.2332 l
95.9155 86.1638 l
96.4447 86.2989 l
96.7974 86.1602 l
97.1502 86.2653 l
97.503 86.0207 l
97.8558 86.0687 l
98.2086 86.113 l
98.7378 85.9944 l
99.267 86.0387 l
99.6198 85.9743 l
100.149 85.9106 l
101.737 85.9181 l
105.794 86.1914 l
108.44 87.2047 l
108.969 87.3254 l
109.851 87.324 l
110.556 87.4441 l
111.086 87.4208 l
112.144 87.3247 l
113.555 87.2149 l
120.435 86.6728 l
122.022 86.6649 l
123.963 86.5219 l
126.079 86.4343 l
127.667 86.1868 l
129.431 86.1514 l
131.548 86.1206 l
133.135 85.9435 l
145.307 85.7201 l
146.718 85.7913 l
147.776 85.7132 l
162.241 85.5258 l
166.474 85.5049 l
168.591 85.5412 l
180.939 85.6243 l
182.35 85.6674 l
187.113 85.6575 l
190.464 85.6677 l
191.699 85.6485 l
198.226 85.6624 l
221.157 85.6945 l
224.156 85.7205 l
229.624 85.7271 l
296.655 86.3671 l
298.243 86.3786 l
306.71 86.4414 l
310.767 86.4465 l
317.47 86.6036 l
319.41 86.6213 l
332.993 86.7659 l
340.225 86.8257 l
346.575 86.8924 l
354.69 87.0795 l
359.629 87.1294 l
362.098 87.1566 l
371.976 87.2635 l
484.341 88.3517 l
488.046 88.3828 l
496.513 88.3835 l
506.214 88.4437 l
507.802 88.4819 l
526.5 88.6904 l
526.5 88.6904 l
stroke
grestore
gsave
453.4 220.1 73.12 44.01 clipbox
89.2124 88.02 m
89.3888 88.02 l
89.5652 110.189 l
89.7416 114.812 l
90.2708 93.5724 l
90.4472 90.2828 l
90.6236 89.7851 l
90.8 89.6699 l
90.9764 89.27 l
91.8583 88.6491 l
92.2111 88.7047 l
93.7987 88.5748 l
94.6807 88.4887 l
97.6794 88.3001 l
98.9142 88.2056 l
104.735 88.3245 l
107.205 88.4873 l
109.322 88.5953 l
110.733 88.6658 l
112.85 88.7862 l
115.143 88.8375 l
117.083 88.8736 l
123.786 88.9673 l
128.372 89.0791 l
130.313 89.1955 l
131.548 89.1878 l
133.488 89.1711 l
141.426 89.2903 l
143.013 89.2768 l
144.777 89.2948 l
147.6 89.3297 l
149.893 89.3446 l
149.893 89.3446 l
stroke
grestore
gsave
453.4 220.1 73.12 44.01 clipbox
89.2124 88.02 m
89.3888 88.02 l
89.5652 114.922 l
89.918 117.47 l
90.0944 105.536 l
90.4472 99.2705 l
90.8 99.864 l
90.9764 99.5942 l
91.1527 99.6454 l
91.5055 99.5697 l
91.8583 99.5989 l
92.3875 99.9288 l
92.7403 100.087 l
93.6223 100.137 l
94.5043 100.164 l
96.621 100.455 l
102.089 100.541 l
107.91 100.84 l
110.027 100.808 l
113.379 100.903 l
116.201 100.919 l
119.2 100.909 l
123.61 101.011 l
125.197 101.129 l
127.138 101.175 l
129.607 101.213 l
131.018 101.329 l
134.37 101.244 l
135.605 101.309 l
138.603 101.346 l
140.191 101.456 l
145.307 101.503 l
146.365 101.621 l
148.658 101.555 l
149.893 101.613 l
153.421 101.636 l
158.36 101.564 l
180.762 101.733 l
183.408 101.775 l
186.76 101.786 l
226.978 102.052 l
235.269 102.103 l
252.732 102.21 l
254.673 102.213 l
259.082 102.259 l
261.905 102.286 l
301.241 102.717 l
304.064 102.729 l
310.59 102.772 l
314.647 102.813 l
340.401 103.015 l
342.518 103.054 l
353.808 103.156 l
361.745 103.197 l
367.214 103.186 l
377.798 103.343 l
383.971 103.362 l
388.381 103.418 l
419.604 103.614 l
424.013 103.717 l
427.012 103.727 l
437.243 103.827 l
441.124 103.836 l
446.063 103.878 l
451.355 103.874 l
459.822 103.96 l
462.115 104.06 l
464.938 104.084 l
481.695 104.189 l
488.046 104.383 l
521.737 104.633 l
523.325 104.673 l
525.442 104.696 l
526.5 104.695 l
526.5 104.695 l
stroke
grestore
gsave
453.4 220.1 73.12 44.01 clipbox
89.2124 88.02 m
89.3888 88.02 l
89.5652 107.637 l
89.7416 109.99 l
89.918 108.134 l
90.0944 98.5403 l
90.2708 95.2414 l
90.4472 88.02 l
90.8 88.0112 l
91.3291 88.3607 l
91.8583 88.4838 l
92.2111 85.9075 l
92.7403 84.0569 l
93.0931 83.5453 l
93.4459 83.4683 l
93.7987 83.7145 l
94.1515 83.8502 l
94.6807 83.7909 l
95.2099 83.9465 l
95.5627 83.9526 l
96.0919 84.178 l
96.4447 84.2427 l
99.4434 84.5807 l
100.502 85.0218 l
101.384 85.2263 l
101.737 85.2911 l
102.442 85.268 l
103.324 85.4759 l
104.559 86.108 l
105.264 86.2645 l
106.146 86.298 l
106.499 86.409 l
107.381 86.8125 l
108.263 87.1427 l
108.616 87.295 l
108.969 87.3875 l
109.498 87.3276 l
110.733 87.3357 l
111.438 87.3712 l
123.61 87.5656 l
124.139 87.6012 l
124.668 87.6023 l
125.197 87.6258 l
126.432 87.7365 l
129.254 87.7887 l
130.136 88.0483 l
131.195 88.1216 l
133.312 87.8746 l
145.13 88.0732 l
146.365 88.2596 l
147.247 88.1259 l
148.305 88.1082 l
151.48 88.1416 l
153.421 88.0862 l
154.832 88.0143 l
159.595 87.9703 l
160.829 88.0074 l
162.946 88.0275 l
189.582 88.2396 l
191.699 88.2439 l
198.402 88.3242 l
201.224 88.3655 l
228.213 88.5444 l
232.447 88.6325 l
234.034 88.6402 l
237.386 88.6553 l
240.032 88.6857 l
245.676 88.7236 l
389.616 89.9957 l
393.144 89.9829 l
398.26 90.0581 l
404.61 90.127 l
410.96 90.1599 l
439.536 90.5317 l
442.535 90.562 l
444.828 90.5362 l
451.002 90.5908 l
452.413 90.5936 l
454.177 90.6046 l
455.236 90.6728 l
457.352 90.6484 l
460.88 90.6534 l
475.874 90.7828 l
478.167 90.8127 l
490.868 90.9854 l
493.337 90.997 l
496.689 90.9928 l
526.5 91.2919 l
526.5 91.2919 l
stroke
grestore
gsave
453.4 220.1 73.12 44.01 clipbox
89.2124 88.02 m
89.3888 88.02 l
89.5652 115.407 l
89.7416 115.724 l
89.918 119.446 l
90.0944 106.927 l
90.4472 100.168 l
90.6236 100.285 l
90.8 100.661 l
90.9764 100.394 l
91.1527 100.459 l
91.5055 100.38 l
91.8583 100.424 l
92.3875 100.746 l
92.7403 100.91 l
93.7987 100.939 l
94.6807 101.008 l
96.2683 101.22 l
97.1502 101.249 l
99.7962 101.169 l
100.678 101.169 l
102.971 101.168 l
108.969 100.918 l
111.615 100.605 l
113.555 100.327 l
121.14 99.4461 l
124.315 99.3128 l
125.903 99.2844 l
128.196 99.0745 l
129.431 99.0563 l
131.018 99.0967 l
134.37 98.8785 l
135.605 98.864 l
138.603 98.7924 l
141.426 98.8066 l
145.307 98.7739 l
146.365 98.8618 l
149.364 98.7459 l
151.657 98.7968 l
160.477 98.7521 l
162.417 98.7584 l
173.706 98.7806 l
178.646 98.7798 l
188.524 98.8683 l
199.108 98.9625 l
203.87 99.0064 l
210.044 99.0455 l
237.209 99.2132 l
246.558 99.3012 l
274.605 99.4589 l
310.061 99.8403 l
414.135 100.575 l
419.604 100.637 l
424.19 100.732 l
427.189 100.762 l
437.243 100.874 l
441.83 100.897 l
452.766 100.896 l
454.354 100.956 l
455.941 101.025 l
459.293 101.01 l
464.056 101.149 l
466.172 101.148 l
468.642 101.173 l
470.582 101.217 l
473.934 101.202 l
482.224 101.221 l
485.752 101.334 l
499.511 101.433 l
504.627 101.481 l
526.5 101.694 l
526.5 101.694 l
stroke
grestore
gsave
453.4 220.1 73.12 44.01 clipbox
89.2124 88.02 m
89.3888 88.02 l
89.5652 107.754 l
89.7416 113.647 l
89.918 125.69 l
90.0944 116.816 l
90.4472 109.308 l
90.6236 109.422 l
90.8 109.952 l
92.0347 88.02 m
92.3875 88.1639 l
93.2695 88.8067 l
94.5043 88.7345 l
95.5627 88.1125 l
95.9155 87.8622 l
96.7974 87.1031 l
97.8558 86.5362 l
99.4434 85.8845 l
99.7962 85.8499 l
100.502 85.5639 l
101.384 85.1481 l
101.913 84.8104 l
102.619 84.4119 l
105.617 83.1151 l
107.558 82.1854 l
108.792 81.8508 l
109.674 81.8645 l
113.202 81.3229 l
116.377 81.3609 l
116.907 81.4213 l
121.317 81.2439 l
123.786 81.3999 l
125.55 81.4759 l
128.372 81.315 l
131.548 81.6111 l
132.43 81.5567 l
134.899 81.3443 l
136.663 81.3772 l
137.545 81.2213 l
138.78 81.3001 l
140.191 81.3406 l
143.366 81.1885 l
145.13 81.3525 l
146.541 81.5176 l
147.423 81.3786 l
153.068 81.2609 l
154.832 81.1567 l
156.949 81.1228 l
160.3 81.0459 l
171.06 81.0761 l
177.587 81.0786 l
193.816 81.2337 l
196.814 81.278 l
291.187 81.8558 l
294.362 81.8721 l
305.122 81.9613 l
313.236 82.0638 l
318.528 82.0744 l
326.995 82.1577 l
333.169 82.1948 l
340.578 82.251 l
344.106 82.2873 l
365.097 82.4931 l
368.448 82.5048 l
384.501 82.4591 l
431.951 82.8772 l
437.243 83.001 l
449.591 83.0527 l
452.061 83.0496 l
453.648 83.0126 l
464.585 82.9471 l
470.582 82.9535 l
473.757 83.0261 l
481.519 83.1128 l
500.217 83.261 l
507.802 83.3197 l
514.858 83.3518 l
522.619 83.3786 l
525.794 83.4137 l
526.5 83.4148 l
526.5 83.4148 l
stroke
grestore
gsave
453.4 220.1 73.12 44.01 clipbox
89.2124 88.02 m
89.3888 88.02 l
89.5652 110.128 l
89.7416 114.52 l
89.918 88.02 l
90.0944 88.1274 l
90.2708 88.0232 l
90.6236 86.2823 l
90.9764 85.8143 l
91.1527 85.6618 l
91.6819 85.73 l
92.3875 85.9316 l
93.0931 86.1122 l
93.4459 86.1691 l
94.5043 86.2064 l
95.0335 86.2415 l
95.2099 86.2727 l
95.7391 86.0919 l
96.2683 86.0123 l
96.7974 85.9681 l
97.1502 85.8269 l
98.7378 85.5216 l
99.4434 85.3826 l
99.9726 85.3427 l
101.737 85.4356 l
102.971 85.7105 l
103.853 85.8355 l
105.617 86.262 l
108.969 86.7954 l
110.733 86.8023 l
113.026 86.8982 l
114.966 86.9319 l
117.083 86.9914 l
120.258 86.9329 l
124.668 87.2529 l
126.961 87.3188 l
129.078 87.2484 l
131.018 87.4284 l
139.133 87.2718 l
140.72 87.2418 l
144.777 87.1324 l
147.071 87.241 l
149.364 87.1529 l
151.657 87.1572 l
159.771 87.0434 l
162.593 87.0574 l
171.413 86.9934 l
174.059 86.9751 l
180.939 87.0174 l
182.173 87.0716 l
195.05 87.1371 l
207.222 87.2254 l
211.279 87.2599 l
212.69 87.2783 l
225.391 87.2478 l
232.094 87.3008 l
233.858 87.3187 l
237.562 87.3213 l
244.794 87.3586 l
253.438 87.3896 l
256.437 87.4148 l
259.788 87.4244 l
275.664 87.551 l
297.361 87.7925 l
303.887 87.8657 l
306.357 87.9284 l
316.941 87.9625 l
321.351 87.9611 l
334.228 88.0739 l
340.578 88.1096 l
343.577 88.154 l
353.102 88.2533 l
355.219 88.2694 l
379.914 88.3859 l
388.734 88.4233 l
402.669 88.5396 l
408.491 88.5208 l
413.606 88.5388 l
418.369 88.5809 l
429.835 88.748 l
433.01 88.831 l
439.007 88.8268 l
440.418 88.8002 l
443.241 88.837 l
447.474 88.8039 l
471.111 88.7927 l
474.816 88.774 l
477.638 88.7419 l
480.46 88.768 l
483.636 88.8832 l
484.694 88.9147 l
486.634 88.9186 l
489.809 88.9481 l
496.865 88.8954 l
504.803 88.97 l
517.68 89.0543 l
526.5 89.1128 l
526.5 89.1128 l
stroke
grestore
gsave
453.4 220.1 73.12 44.01 clipbox
89.2124 88.02 m
89.3888 88.02 l
89.7416 107.96 l
90.4472 88.02 l
91.3291 88.3503 l
91.8583 88.3435 l
92.0347 88.4603 l
92.0347 88.4603 l
stroke
grestore
gsave
453.4 220.1 73.12 44.01 clipbox
89.2124 88.02 m
89.3888 88.02 l
89.918 88.02 m
90.0944 88.9943 l
90.2708 88.0325 l
90.4472 84.8381 l
90.6236 84.0912 l
90.8 84.0897 l
90.9764 83.5314 l
91.3291 83.3312 l
91.8583 83.5285 l
92.0347 88.02 l
92.3875 88.1633 l
92.9167 88.5299 l
93.4459 88.8937 l
93.6223 88.6323 l
93.9751 88.6459 l
94.1515 88.3775 l
94.6807 88.2572 l
94.8571 87.9843 l
95.0335 88.0229 l
95.5627 87.6012 l
95.9155 87.4346 l
96.7974 86.7726 l
97.6794 86.3938 l
98.0322 86.342 l
98.7378 85.9648 l
101.207 85.265 l
102.089 84.8098 l
102.619 84.5985 l
104.03 84.2798 l
105.264 83.681 l
105.97 83.4353 l
106.499 83.2377 l
108.792 82.7499 l
109.674 82.7222 l
110.909 82.5196 l
113.202 82.3307 l
123.257 82.2519 l
124.315 82.3932 l
125.197 82.4137 l
126.961 82.4012 l
128.725 82.3357 l
130.313 82.5529 l
131.9 82.6179 l
134.194 82.3792 l
136.663 82.353 l
137.545 82.2079 l
138.603 82.2626 l
139.662 82.3192 l
142.661 82.2388 l
143.719 82.2165 l
144.601 82.2991 l
146.541 82.5655 l
147.953 82.3701 l
149.187 82.373 l
150.069 82.3782 l
158.007 82.1713 l
159.595 82.153 l
161.006 82.156 l
162.946 82.218 l
170.179 82.2521 l
177.234 82.2167 l
204.576 82.521 l
206.516 82.5386 l
217.276 82.5292 l
229.271 82.6458 l
238.973 82.6754 l
245.853 82.6729 l
248.851 82.7178 l
253.438 82.7586 l
260.317 82.7652 l
264.022 82.8084 l
276.017 82.8956 l
307.592 83.184 l
310.238 83.2067 l
323.467 83.3288 l
335.639 83.432 l
344.282 83.5034 l
349.574 83.5913 l
371.8 83.6861 l
384.148 83.7017 l
387.323 83.7134 l
397.73 83.7352 l
401.964 83.8262 l
417.663 83.8586 l
421.897 83.9479 l
433.539 84.1829 l
435.479 84.1948 l
437.243 84.2377 l
482.048 84.3963 l
490.691 84.4918 l
493.69 84.5027 l
498.806 84.5317 l
526.5 84.7015 l
526.5 84.7015 l
stroke
grestore
gsave
453.4 220.1 73.12 44.01 clipbox
89.2124 88.02 m
89.3888 88.02 l
89.7416 96.0431 l
89.918 88.02 l
90.0944 88.9009 l
90.4472 87.3182 l
90.9764 88.1758 l
91.1527 88.3296 l
91.6819 88.3942 l
92.0347 88.5858 l
93.2695 88.3163 l
93.6223 88.313 l
93.9751 88.1889 l
96.621 87.9167 l
98.2086 87.2602 l
98.5614 87.2287 l
99.7962 86.9953 l
100.149 87.062 l
100.855 86.9723 l
101.56 86.9852 l
102.089 87.1667 l
102.442 87.2521 l
104.03 87.2068 l
104.912 87.4462 l
108.087 87.7084 l
108.969 87.6635 l
109.498 87.69 l
109.851 87.7379 l
112.144 88.3956 l
112.85 88.4624 l
115.319 88.7688 l
116.73 88.8421 l
117.436 88.8292 l
120.435 88.999 l
121.846 89.1702 l
124.139 89.4018 l
124.845 89.6093 l
127.138 89.8727 l
128.372 89.7988 l
129.254 89.8359 l
129.96 90.0071 l
130.489 90.0685 l
131.371 90.0383 l
132.959 89.9513 l
135.428 90.2226 l
136.84 90.1915 l
137.545 90.1876 l
138.603 90.2323 l
140.72 90.3573 l
143.19 90.3357 l
145.307 90.4511 l
146.012 90.5742 l
146.718 90.556 l
148.658 90.4825 l
149.54 90.4923 l
151.48 90.6674 l
155.538 90.8515 l
165.239 90.8628 l
167.003 90.9159 l
170.002 91.0132 l
174.059 90.9887 l
223.627 91.4335 l
228.566 91.4298 l
231.212 91.4802 l
235.269 91.5481 l
252.027 91.7127 l
266.138 91.8138 l
269.49 91.8317 l
272.489 91.8504 l
279.368 91.9419 l
281.838 91.9748 l
291.01 92.119 l
293.127 92.174 l
299.301 92.2464 l
300.536 92.2976 l
330.523 92.5104 l
337.755 92.6227 l
357.688 92.772 l
359.805 92.8239 l
376.739 93.0121 l
380.267 93.0329 l
383.089 93.0095 l
395.79 93.1171 l
399.142 93.1901 l
401.964 93.2411 l
416.252 93.236 l
421.72 93.3776 l
439.007 93.6578 l
440.066 93.6368 l
443.417 93.6767 l
450.473 93.7189 l
452.237 93.7461 l
455.588 93.8499 l
459.116 93.8679 l
461.762 93.9826 l
466.878 94.0273 l
470.229 94.0591 l
472.699 94.0718 l
479.931 94.0378 l
492.279 94.2484 l
497.042 94.2756 l
506.744 94.3719 l
508.86 94.4341 l
511.859 94.4276 l
517.857 94.5305 l
526.5 94.584 l
526.5 94.584 l
stroke
grestore
0.133 0.267 0.867 setrgbcolor
gsave
453.4 220.1 73.12 44.01 clipbox
88.154 88.02 m
89.036 88.02 l
89.2124 147.685 l
89.3888 147.896 l
89.5652 145.621 l
89.7416 146.424 l
89.918 88.02 l
90.0944 154.247 l
90.2708 154.873 l
90.8 154.287 l
91.6819 153.705 l
92.0347 153.713 l
92.5639 153.55 l
96.9738 153.185 l
105.264 152.97 l
133.135 152.341 l
140.897 152.193 l
148.482 151.997 l
156.949 151.753 l
167.18 151.504 l
184.643 151.107 l
203.165 150.679 l
221.863 150.389 l
229.977 150.279 l
237.209 150.158 l
242.325 150.094 l
252.203 149.967 l
259.435 149.859 l
268.079 149.803 l
285.718 149.568 l
290.128 149.534 l
309.179 149.343 l
342.342 149 l
345.87 148.94 l
353.984 148.868 l
382.737 148.64 l
387.852 148.604 l
395.614 148.558 l
399.847 148.545 l
405.492 148.55 l
409.725 148.508 l
454.177 148.393 l
471.111 148.45 l
478.696 148.461 l
483.106 148.463 l
499.335 148.522 l
504.098 148.543 l
521.561 148.576 l
526.5 148.61 l
526.5 148.61 l
stroke
grestore
gsave
453.4 220.1 73.12 44.01 clipbox
88.3304 88.02 m
89.036 88.02 l
89.2124 139.831 l
89.3888 151.375 l
89.7416 144.988 l
89.918 88.02 l
90.6236 159.29 l
90.8 158.876 l
91.1527 151.3 l
91.5055 147.373 l
91.6819 146.304 l
91.8583 146.265 l
92.0347 88.02 l
92.2111 124.86 l
92.3875 124.325 l
92.7403 124.194 l
93.0931 124.52 l
93.7987 124.75 l
95.3863 124.921 l
100.149 125.031 l
112.673 124.91 l
140.015 124.503 l
152.715 124.308 l
255.378 123.285 l
269.843 123.194 l
297.184 123.032 l
311.296 122.965 l
316.059 122.958 l
328.759 122.892 l
388.558 122.604 l
400.2 122.548 l
442.006 122.423 l
446.416 122.431 l
477.814 122.46 l
484.694 122.535 l
512.917 122.537 l
521.737 122.549 l
526.5 122.576 l
526.5 122.576 l
stroke
grestore
gsave
453.4 220.1 73.12 44.01 clipbox
88.6832 88.02 m
89.2124 88.02 l
89.3888 147.574 l
89.5652 152.743 l
89.7416 140.665 l
89.918 141.641 l
90.0944 141.769 l
90.2708 141.552 l
90.4472 141.716 l
91.1527 141.578 l
91.8583 141.412 l
92.3875 141.294 l
93.0931 141.164 l
95.7391 140.845 l
102.619 140.413 l
117.083 139.911 l
210.573 137.985 l
218.511 137.892 l
228.389 137.772 l
233.329 137.727 l
242.148 137.63 l
249.91 137.529 l
255.907 137.461 l
259.964 137.416 l
263.845 137.397 l
274.253 137.315 l
299.477 137.137 l
304.769 137.1 l
337.403 136.889 l
349.221 136.801 l
355.572 136.777 l
378.856 136.633 l
406.374 136.592 l
413.253 136.56 l
501.804 136.855 l
515.034 136.951 l
526.5 137.02 l
526.5 137.02 l
stroke
grestore
gsave
453.4 220.1 73.12 44.01 clipbox
88.6832 88.02 m
89.036 88.02 l
89.2124 150.907 l
89.5652 138.87 l
89.7416 139.064 l
89.918 88.02 l
90.0944 125.724 l
90.6236 127.907 l
90.8 127.705 l
90.9764 127.891 l
91.8583 127.98 l
92.0347 88.02 l
92.2111 124.549 l
92.5639 126.299 l
92.9167 126.71 l
93.4459 126.998 l
94.1515 127.024 l
94.8571 127.062 l
96.2683 127.077 l
103.501 126.947 l
114.261 126.752 l
134.723 126.408 l
141.602 126.302 l
145.13 126.247 l
153.774 126.079 l
168.415 125.843 l
226.273 125.337 l
246.911 125.166 l
264.727 125.038 l
285.366 124.836 l
301.418 124.71 l
327.524 124.557 l
334.58 124.507 l
392.615 124.254 l
410.255 124.188 l
419.604 124.153 l
422.955 124.124 l
450.473 124.055 l
519.444 124.217 l
525.794 124.254 l
526.5 124.256 l
526.5 124.256 l
stroke
grestore
gsave
453.4 220.1 73.12 44.01 clipbox
88.6832 88.02 m
89.2124 88.02 l
89.3888 126.225 l
89.5652 126.878 l
89.7416 128.423 l
90.0944 127.446 l
90.2708 128.004 l
90.6236 127 l
90.8 126.996 l
91.1527 126.472 l
91.6819 126.109 l
91.8583 125.993 l
92.0347 88.02 l
92.2111 127.886 l
92.3875 128.087 l
92.7403 128.035 l
93.2695 128.202 l
94.5043 128.203 l
97.8558 128.135 l
105.794 127.983 l
117.436 127.81 l
126.609 127.699 l
215.865 126.912 l
261.199 126.761 l
270.901 126.743 l
282.014 126.641 l
375.152 125.957 l
386.265 125.927 l
436.185 125.925 l
515.387 126.203 l
521.561 126.246 l
526.5 126.27 l
526.5 126.27 l
stroke
grestore
gsave
453.4 220.1 73.12 44.01 clipbox
88.6832 88.02 m
89.2124 88.02 l
89.3888 139.423 l
89.7416 140.352 l
90.2708 139.37 l
90.4472 88.02 l
90.6236 130.026 l
90.8 130.419 l
92.2111 130.488 l
93.0931 130.405 l
94.8571 130.252 l
104.383 129.988 l
122.904 129.704 l
133.135 129.566 l
138.603 129.48 l
143.719 129.407 l
157.831 129.182 l
164.71 129.066 l
171.413 128.984 l
176.705 128.903 l
185.172 128.79 l
191.17 128.681 l
198.931 128.586 l
214.807 128.461 l
222.921 128.375 l
246.911 128.2 l
253.791 128.114 l
288.894 127.849 l
293.48 127.853 l
304.064 127.781 l
307.239 127.755 l
318.528 127.662 l
322.233 127.641 l
326.819 127.606 l
335.462 127.556 l
350.456 127.447 l
373.388 127.289 l
406.374 127.196 l
414.841 127.182 l
439.007 127.179 l
458.058 127.131 l
466.701 127.162 l
473.405 127.16 l
494.749 127.186 l
510.977 127.247 l
519.621 127.256 l
526.5 127.291 l
526.5 127.291 l
stroke
grestore
gsave
453.4 220.1 73.12 44.01 clipbox
88.6832 88.02 m
89.3888 88.02 l
89.5652 124.286 l
90.0944 153.39 l
90.2708 152.16 l
90.4472 157.489 l
90.6236 157.24 l
90.8 155.831 l
90.9764 155.902 l
91.3291 154.76 l
91.8583 152.935 l
92.3875 152.358 l
93.2695 151.22 l
93.7987 150.722 l
95.3863 149.965 l
96.621 149.609 l
98.0322 149.327 l
103.148 147.85 l
104.735 147.488 l
109.498 146.263 l
118.671 144.559 l
122.375 144.036 l
139.485 142.116 l
166.827 140.29 l
182.703 139.495 l
186.76 139.344 l
189.759 139.048 l
192.228 138.705 l
203.87 135.719 l
213.396 133.639 l
230.153 130.692 l
239.502 129.392 l
255.907 127.464 l
266.138 126.522 l
273.9 125.866 l
289.952 124.691 l
296.479 124.327 l
306.71 123.757 l
321.527 123.211 l
337.403 122.655 l
392.086 121.472 l
406.021 121.223 l
415.546 121.065 l
422.073 120.945 l
429.129 120.814 l
462.292 120.438 l
480.284 120.406 l
500.393 120.429 l
526.5 120.488 l
526.5 120.488 l
stroke
grestore
gsave
453.4 220.1 73.12 44.01 clipbox
88.6832 88.02 m
89.3888 88.02 l
89.5652 152.939 l
90.0944 153.625 l
90.2708 153.632 l
90.8 152.936 l
91.1527 152.766 l
91.8583 152.733 l
92.2111 152.697 l
94.8571 152.073 l
99.4434 151.775 l
103.148 151.619 l
118.494 151.126 l
153.421 150.572 l
159.418 150.558 l
170.708 150.421 l
174.765 150.423 l
180.939 150.373 l
187.818 150.29 l
202.988 150.162 l
206.163 150.13 l
211.455 150.16 l
219.393 150.119 l
222.039 150.06 l
238.091 149.969 l
247.44 150.05 l
258.553 149.933 l
264.198 149.948 l
274.076 149.906 l
279.897 149.911 l
279.897 149.911 l
stroke
grestore
gsave
453.4 220.1 73.12 44.01 clipbox
88.6832 88.02 m
89.2124 88.02 l
89.3888 131.04 l
89.5652 132.058 l
89.7416 132.388 l
89.918 132.324 l
90.0944 131.997 l
90.2708 131.997 l
90.4472 88.02 l
90.6236 138.948 l
90.8 139.47 l
91.3291 139.421 l
92.3875 139.227 l
95.0335 138.996 l
99.267 138.869 l
176 137.344 l
180.057 137.255 l
203.694 136.847 l
206.869 136.796 l
219.393 136.597 l
227.155 136.508 l
237.915 136.374 l
242.501 136.346 l
259.612 136.17 l
264.198 136.138 l
289.599 135.841 l
302.3 135.721 l
312.354 135.618 l
381.678 135.064 l
392.262 135.01 l
405.668 134.96 l
409.196 134.931 l
415.723 134.893 l
457.529 134.821 l
469.171 134.853 l
476.051 134.871 l
526.5 134.956 l
526.5 134.956 l
stroke
grestore
gsave
453.4 220.1 73.12 44.01 clipbox
88.6832 88.02 m
89.2124 88.02 l
89.3888 127.843 l
89.7416 129.458 l
89.918 88.02 l
90.0944 136.085 l
90.2708 136.231 l
90.4472 136.619 l
90.6236 136.685 l
90.9764 136.592 l
92.0347 136.477 l
92.2111 136.416 l
92.3875 88.02 l
92.5639 129.264 l
92.9167 129.935 l
93.4459 130.102 l
94.6807 130.167 l
96.621 130.16 l
114.437 129.959 l
122.375 129.909 l
127.138 129.89 l
220.628 128.856 l
226.802 128.806 l
319.587 128.377 l
336.873 128.296 l
350.103 128.248 l
360.334 128.182 l
369.507 128.175 l
379.032 128.157 l
384.501 128.159 l
457.529 128.041 l
463.174 128.062 l
467.76 128.068 l
475.874 128.064 l
485.223 128.051 l
526.324 127.965 l
526.5 127.962 l
526.5 127.962 l
stroke
grestore
gsave
453.4 220.1 73.12 44.01 clipbox
88.8596 88.02 m
89.036 88.02 l
89.2124 88.02 l
89.3888 133.857 l
89.5652 136.238 l
89.7416 136.134 l
89.918 88.02 l
90.0944 157.025 l
90.2708 159.049 l
90.4472 159.555 l
90.8 159.788 l
91.1527 159.641 l
91.6819 159.663 l
91.8583 159.772 l
92.2111 159.636 l
92.3875 88.02 l
92.5639 132.395 l
92.9167 134.089 l
93.2695 134.435 l
94.1515 134.521 l
97.503 134.455 l
102.266 134.327 l
112.144 134.097 l
123.257 133.874 l
130.842 133.72 l
148.305 133.42 l
155.185 133.323 l
161.711 133.22 l
201.754 132.704 l
205.811 132.679 l
228.919 132.493 l
240.384 132.441 l
248.322 132.409 l
254.496 132.364 l
263.845 132.331 l
274.253 132.275 l
421.544 131.773 l
450.297 131.822 l
455.941 131.852 l
526.5 132.136 l
526.5 132.136 l
stroke
grestore
gsave
453.4 220.1 73.12 44.01 clipbox
88.8596 88.02 m
89.036 88.02 l
89.2124 154.608 l
89.3888 160.606 l
89.5652 161.306 l
90.4472 156.463 l
90.8 155.598 l
91.5055 154.76 l
91.6819 154.614 l
92.0347 88.02 m
92.2111 124.491 l
92.3875 128.179 l
92.7403 130.04 l
93.0931 130.462 l
93.4459 130.574 l
93.7987 130.766 l
94.8571 131.054 l
96.9738 131.209 l
101.737 131.213 l
105.264 131.183 l
123.963 131.024 l
130.666 130.95 l
138.78 130.857 l
143.543 130.815 l
188.7 130.247 l
193.816 130.171 l
213.396 129.902 l
226.978 129.714 l
318.881 129.484 l
322.233 129.482 l
407.079 129.101 l
421.015 129.126 l
481.695 129.385 l
497.395 129.405 l
526.5 129.514 l
526.5 129.514 l
stroke
grestore
gsave
453.4 220.1 73.12 44.01 clipbox
88.8596 88.02 m
89.036 88.02 l
89.2124 125.871 l
89.3888 126.14 l
89.5652 125.998 l
89.7416 88.02 l
89.918 124.665 l
90.0944 124.726 l
90.2708 124.985 l
90.8 124.754 l
91.6819 124.576 l
92.2111 124.604 l
95.0335 124.486 l
105.264 124.362 l
128.725 124.041 l
134.723 123.955 l
148.129 123.79 l
155.361 123.698 l
189.229 123.303 l
223.627 123.024 l
233.329 122.947 l
316.235 122.496 l
325.584 122.449 l
343.047 122.372 l
355.219 122.318 l
364.568 122.278 l
401.787 122.159 l
411.137 122.14 l
421.015 122.101 l
437.067 122.067 l
450.12 122.077 l
464.761 122.133 l
471.464 122.148 l
526.5 122.313 l
526.5 122.313 l
stroke
grestore
gsave
453.4 220.1 73.12 44.01 clipbox
88.8596 88.02 m
89.036 88.02 l
89.2124 88.02 l
89.3888 145.137 l
89.5652 145.37 l
89.7416 145.21 l
90.0944 144.538 l
90.4472 88.02 m
90.6236 128.166 l
90.8 128.263 l
91.1527 129.044 l
91.6819 129.371 l
91.8583 128.94 l
92.2111 128.883 l
92.5639 128.986 l
95.5627 129.196 l
107.91 129.08 l
116.73 128.927 l
123.081 128.853 l
160.124 128.249 l
176 128.029 l
185.701 127.898 l
192.228 127.773 l
201.754 127.667 l
208.633 127.602 l
220.099 127.486 l
226.096 127.436 l
231.917 127.381 l
252.556 127.192 l
268.608 127.098 l
272.136 127.067 l
296.126 126.946 l
326.642 126.824 l
334.051 126.755 l
347.986 126.707 l
351.867 126.691 l
367.037 126.616 l
455.236 126.364 l
459.998 126.337 l
510.801 126.336 l
513.799 126.332 l
522.619 126.336 l
526.5 126.346 l
526.5 126.346 l
stroke
grestore
gsave
453.4 220.1 73.12 44.01 clipbox
88.8596 88.02 m
89.036 88.02 l
89.2124 88.02 l
89.3888 148.22 l
89.7416 149.13 l
90.6236 146.494 l
90.9764 146.06 l
91.5055 145.86 l
91.6819 145.849 l
92.0347 88.02 m
92.2111 96.2816 l
92.3875 101.951 l
92.9167 110.245 l
93.4459 114.222 l
93.9751 116.606 l
94.8571 119.184 l
95.5627 120.742 l
96.4447 122.326 l
97.1502 123.266 l
98.5614 124.695 l
101.031 126.409 l
102.795 127.108 l
103.501 127.417 l
104.559 127.801 l
109.674 129.028 l
113.202 129.532 l
116.554 129.904 l
118.318 130.067 l
122.199 130.318 l
124.492 130.446 l
125.903 130.479 l
134.546 130.892 l
137.016 130.979 l
141.426 131.124 l
143.013 131.111 l
147.423 131.255 l
152.892 131.245 l
156.42 131.216 l
178.822 131.2 l
184.29 131.201 l
205.634 131.312 l
209.868 131.286 l
295.949 130.367 l
299.654 130.311 l
303.887 130.242 l
312.531 130.19 l
343.047 130.077 l
348.868 130.059 l
359.981 130.079 l
364.568 130.081 l
435.656 130.059 l
444.299 130.119 l
456.823 130.16 l
463.35 130.188 l
484.518 130.433 l
491.221 130.508 l
504.274 130.698 l
513.094 130.843 l
520.326 130.913 l
526.5 131.033 l
526.5 131.033 l
stroke
grestore
gsave
453.4 220.1 73.12 44.01 clipbox
88.8596 88.02 m
89.3888 88.02 l
89.5652 144.919 l
89.7416 146.189 l
90.0944 145.847 l
90.8 144.474 l
91.1527 144.26 l
91.5055 144.213 l
91.8583 144.154 l
92.0347 88.02 l
92.2111 102.762 l
92.5639 104.039 l
93.4459 104.729 l
94.1515 104.817 l
95.3863 104.883 l
101.207 104.94 l
106.146 104.962 l
122.904 104.877 l
137.369 104.695 l
161.182 104.466 l
179.704 104.387 l
242.678 104.728 l
247.44 104.75 l
331.229 104.596 l
341.46 104.559 l
476.227 104.453 l
487.516 104.514 l
526.5 104.777 l
526.5 104.777 l
stroke
grestore
gsave
453.4 220.1 73.12 44.01 clipbox
88.8596 88.02 m
89.036 88.02 l
89.2124 88.02 l
89.3888 130.961 l
89.5652 138.4 l
89.7416 159.638 l
89.918 160.177 l
90.0944 156.641 l
90.4472 88.02 m
90.6236 91.9222 l
90.8 116.759 l
91.1527 123.655 l
91.6819 128.012 l
92.0347 129.805 l
92.2111 130.221 l
92.3875 88.02 l
92.5639 134.881 l
92.9167 136.442 l
93.2695 136.669 l
93.9751 136.757 l
96.0919 136.746 l
116.907 136.382 l
124.315 136.275 l
128.196 136.191 l
139.133 135.93 l
142.131 135.867 l
146.012 135.798 l
151.304 135.682 l
163.299 135.393 l
219.922 134.669 l
229.801 134.589 l
234.563 134.547 l
241.266 134.494 l
260.141 134.38 l
270.372 134.354 l
276.369 134.326 l
281.838 134.309 l
294.009 134.228 l
441.653 133.583 l
447.298 133.581 l
478.52 133.664 l
483.106 133.675 l
497.571 133.726 l
521.561 133.764 l
526.5 133.769 l
526.5 133.769 l
stroke
grestore
gsave
453.4 220.1 73.12 44.01 clipbox
88.8596 88.02 m
89.3888 88.02 l
89.918 161.443 l
90.0944 163.097 l
90.2708 161.479 l
90.4472 179.043 l
90.6236 182.668 l
90.8 181.964 l
92.0347 88.02 m
92.2111 77.5154 l
92.5639 77.2683 l
94.6807 77.1903 l
102.619 77.2183 l
124.845 77.2345 l
139.309 77.2161 l
150.598 77.2074 l
160.477 77.2041 l
186.936 77.1969 l
200.342 77.1719 l
219.57 77.1688 l
229.448 77.1517 l
256.613 77.1408 l
291.187 77.1372 l
298.066 77.1506 l
315 77.1123 l
364.921 77.0583 l
379.561 77.0307 l
402.317 77.0317 l
503.568 76.9816 l
521.561 76.9941 l
526.5 77.0014 l
526.5 77.0014 l
stroke
grestore
gsave
453.4 220.1 73.12 44.01 clipbox
88.8596 88.02 m
89.036 88.02 l
89.2124 133.627 l
89.3888 134.472 l
89.5652 133.774 l
89.7416 88.02 l
90.0944 114.459 l
90.2708 121.337 l
90.4472 88.02 l
90.6236 125.053 l
90.9764 128.652 l
91.3291 129.318 l
91.6819 129.57 l
92.2111 129.122 l
92.3875 88.02 l
92.5639 77.8424 l
92.9167 77.7189 l
100.325 77.5985 l
126.079 77.4411 l
171.942 77.2364 l
461.41 76.7055 l
490.868 76.7053 l
526.5 76.7195 l
526.5 76.7195 l
stroke
grestore
gsave
453.4 220.1 73.12 44.01 clipbox
88.8596 88.02 m
89.3888 88.02 l
89.5652 88.436 l
89.7416 88.02 l
89.918 127.157 l
90.0944 128.247 l
90.2708 127.912 l
90.4472 88.02 l
90.6236 140.081 l
90.8 141.64 l
91.1527 142.301 l
91.5055 142.542 l
92.2111 142.8 l
92.3875 88.02 l
92.5639 78.9902 l
92.9167 78.6536 l
93.6223 78.528 l
96.0919 78.4817 l
205.811 78.2601 l
219.746 78.2464 l
235.445 78.2142 l
254.849 78.1957 l
275.487 78.179 l
294.009 78.176 l
345.517 78.1446 l
388.911 78.1072 l
397.73 78.0944 l
410.431 78.0862 l
420.133 78.0809 l
429.835 78.0373 l
451.531 78.0398 l
484.694 78.0572 l
496.865 78.0622 l
526.5 78.0832 l
526.5 78.0832 l
stroke
grestore
gsave
453.4 220.1 73.12 44.01 clipbox
88.8596 88.02 m
89.3888 88.02 l
89.7416 88.02 m
89.918 88.02 l
90.4472 88.02 m
90.6236 74.8232 l
91.3291 74.4336 l
92.3875 74.2669 l
94.3279 74.1373 l
106.146 73.8725 l
124.315 73.779 l
124.315 73.779 l
stroke
grestore
gsave
453.4 220.1 73.12 44.01 clipbox
88.8596 88.02 m
89.036 88.02 l
89.2124 82.5866 l
89.3888 88.02 l
89.7416 88.02 m
89.918 138.643 l
90.0944 139.323 l
90.2708 138.945 l
90.4472 139.247 l
90.9764 139.038 l
91.8583 138.815 l
92.5639 138.67 l
94.3279 138.499 l
98.7378 138.376 l
104.912 138.227 l
115.848 137.88 l
137.016 137.442 l
157.478 136.986 l
161.359 136.919 l
168.415 136.787 l
181.997 136.569 l
193.816 136.314 l
208.457 136.165 l
215.865 136.11 l
237.738 135.884 l
243.207 135.803 l
261.199 135.596 l
265.609 135.568 l
271.607 135.527 l
286.6 135.434 l
322.409 135.229 l
326.29 135.202 l
337.226 135.093 l
384.148 134.84 l
389.44 134.845 l
395.437 134.826 l
400.024 134.822 l
461.762 134.756 l
526.5 135.142 l
526.5 135.142 l
stroke
grestore
gsave
453.4 220.1 73.12 44.01 clipbox
88.8596 88.02 m
89.036 88.02 l
89.2124 88.02 l
89.3888 155.391 l
89.7416 156.735 l
89.918 157.328 l
91.3291 156.723 l
91.8583 156.833 l
92.0347 156.891 l
92.2111 156.815 l
92.3875 88.02 l
92.5639 103.083 l
92.9167 103.573 l
93.4459 103.72 l
94.1515 103.747 l
100.502 103.704 l
475.169 101.83 l
480.637 101.813 l
526.5 101.676 l
526.5 101.676 l
stroke
grestore
gsave
453.4 220.1 73.12 44.01 clipbox
89.036 88.02 m
89.2124 88.02 l
89.3888 88.02 l
89.7416 88.02 m
89.918 88.02 l
90.4472 137.528 l
90.6236 139.703 l
90.8 138.985 l
91.1527 136.711 l
91.5055 135.559 l
91.6819 135.678 l
92.0347 136.481 l
92.2111 136.531 l
92.3875 88.02 l
92.5639 84.0672 l
92.9167 82.6485 l
93.2695 82.2161 l
93.7987 81.9408 l
94.6807 81.7225 l
97.3266 81.2721 l
99.6198 81.0059 l
103.501 80.8046 l
111.086 80.4738 l
118.318 80.2329 l
137.721 79.7311 l
146.541 79.529 l
169.826 79.1359 l
208.457 78.8743 l
214.278 78.8667 l
255.907 78.7724 l
278.486 78.7698 l
295.244 78.7717 l
321.174 78.7543 l
447.474 78.683 l
484.518 78.8069 l
497.042 78.854 l
515.74 78.9077 l
526.5 78.9445 l
526.5 78.9445 l
stroke
grestore
gsave
453.4 220.1 73.12 44.01 clipbox
89.036 88.02 m
89.2124 148.487 l
89.3888 150.25 l
89.5652 148.602 l
89.918 143.596 l
90.0944 142.321 l
90.4472 139.156 l
90.9764 137.294 l
91.6819 136.73 l
92.0347 88.02 m
92.2111 109.612 l
92.3875 110.307 l
92.7403 110.54 l
93.2695 110.651 l
95.2099 110.582 l
100.855 110.51 l
211.279 109.622 l
214.454 109.6 l
243.56 109.355 l
254.32 109.265 l
270.548 109.161 l
278.133 109.092 l
433.01 108.235 l
448.533 108.204 l
456.647 108.201 l
526.5 108.133 l
526.5 108.133 l
stroke
grestore
0.500 setlinewidth
0 setlinecap
0.000 setgray
gsave
/o {
gsave
newpath
translate
0.5 setlinewidth
1 setlinejoin
0 setlinecap
0 0 m
0 4 l
gsave
0.000 setgray
fill
grestore
stroke
grestore
} bind def
73.125 44.01 o
grestore
gsave
/o {
gsave
newpath
translate
0.5 setlinewidth
1 setlinejoin
0 setlinecap
0 0 m
0 -4 l
gsave
0.000 setgray
fill
grestore
stroke
grestore
} bind def
73.125 264.06 o
grestore
/DejaVuSans findfont
12.000 scalefont
setfont
gsave
66.179688 30.885000 translate
0.000000 rotate
0.000000 0.000000 m /four glyphshow
7.634766 0.000000 m /zero glyphshow
grestore
gsave
/o {
gsave
newpath
translate
0.5 setlinewidth
1 setlinejoin
0 setlinecap
0 0 m
0 4 l
gsave
0.000 setgray
fill
grestore
stroke
grestore
} bind def
143.684 44.01 o
grestore
gsave
/o {
gsave
newpath
translate
0.5 setlinewidth
1 setlinejoin
0 setlinecap
0 0 m
0 -4 l
gsave
0.000 setgray
fill
grestore
stroke
grestore
} bind def
143.684 264.06 o
grestore
gsave
136.863399 30.885000 translate
0.000000 rotate
0.000000 0.000000 m /six glyphshow
7.634766 0.000000 m /zero glyphshow
grestore
gsave
/o {
gsave
newpath
translate
0.5 setlinewidth
1 setlinejoin
0 setlinecap
0 0 m
0 4 l
gsave
0.000 setgray
fill
grestore
stroke
grestore
} bind def
214.242 44.01 o
grestore
gsave
/o {
gsave
newpath
translate
0.5 setlinewidth
1 setlinejoin
0 setlinecap
0 0 m
0 -4 l
gsave
0.000 setgray
fill
grestore
stroke
grestore
} bind def
214.242 264.06 o
grestore
gsave
207.406486 30.885000 translate
0.000000 rotate
0.000000 0.000000 m /eight glyphshow
7.634766 0.000000 m /zero glyphshow
grestore
gsave
/o {
gsave
newpath
translate
0.5 setlinewidth
1 setlinejoin
0 setlinecap
0 0 m
0 4 l
gsave
0.000 setgray
fill
grestore
stroke
grestore
} bind def
284.801 44.01 o
grestore
gsave
/o {
gsave
newpath
translate
0.5 setlinewidth
1 setlinejoin
0 setlinecap
0 0 m
0 -4 l
gsave
0.000 setgray
fill
grestore
stroke
grestore
} bind def
284.801 264.06 o
grestore
gsave
274.394885 30.885000 translate
0.000000 rotate
0.000000 0.000000 m /one glyphshow
7.634766 0.000000 m /zero glyphshow
15.269531 0.000000 m /zero glyphshow
grestore
gsave
/o {
gsave
newpath
translate
0.5 setlinewidth
1 setlinejoin
0 setlinecap
0 0 m
0 4 l
gsave
0.000 setgray
fill
grestore
stroke
grestore
} bind def
355.36 44.01 o
grestore
gsave
/o {
gsave
newpath
translate
0.5 setlinewidth
1 setlinejoin
0 setlinecap
0 0 m
0 -4 l
gsave
0.000 setgray
fill
grestore
stroke
grestore
} bind def
355.36 264.06 o
grestore
gsave
344.953596 30.885000 translate
0.000000 rotate
0.000000 0.000000 m /one glyphshow
7.634766 0.000000 m /two glyphshow
15.269531 0.000000 m /zero glyphshow
grestore
gsave
/o {
gsave
newpath
translate
0.5 setlinewidth
1 setlinejoin
0 setlinecap
0 0 m
0 4 l
gsave
0.000 setgray
fill
grestore
stroke
grestore
} bind def
425.919 44.01 o
grestore
gsave
/o {
gsave
newpath
translate
0.5 setlinewidth
1 setlinejoin
0 setlinecap
0 0 m
0 -4 l
gsave
0.000 setgray
fill
grestore
stroke
grestore
} bind def
425.919 264.06 o
grestore
gsave
415.512308 30.885000 translate
0.000000 rotate
0.000000 0.000000 m /one glyphshow
7.634766 0.000000 m /four glyphshow
15.269531 0.000000 m /zero glyphshow
grestore
gsave
/o {
gsave
newpath
translate
0.5 setlinewidth
1 setlinejoin
0 setlinecap
0 0 m
0 4 l
gsave
0.000 setgray
fill
grestore
stroke
grestore
} bind def
496.477 44.01 o
grestore
gsave
/o {
gsave
newpath
translate
0.5 setlinewidth
1 setlinejoin
0 setlinecap
0 0 m
0 -4 l
gsave
0.000 setgray
fill
grestore
stroke
grestore
} bind def
496.477 264.06 o
grestore
gsave
486.071019 30.885000 translate
0.000000 rotate
0.000000 0.000000 m /one glyphshow
7.634766 0.000000 m /six glyphshow
15.269531 0.000000 m /zero glyphshow
grestore
gsave
277.820312 14.260000 translate
0.000000 rotate
0.000000 0.000000 m /T glyphshow
6.955078 0.000000 m /i glyphshow
10.289062 0.000000 m /m glyphshow
21.978516 0.000000 m /e glyphshow
29.361328 0.000000 m /bracketleft glyphshow
34.042969 0.000000 m /s glyphshow
40.294922 0.000000 m /bracketright glyphshow
grestore
gsave
/o {
gsave
newpath
translate
0.5 setlinewidth
1 setlinejoin
0 setlinecap
0 0 m
4 0 l
gsave
0.000 setgray
fill
grestore
stroke
grestore
} bind def
73.125 44.01 o
grestore
gsave
/o {
gsave
newpath
translate
0.5 setlinewidth
1 setlinejoin
0 setlinecap
0 0 m
-4 0 l
gsave
0.000 setgray
fill
grestore
stroke
grestore
} bind def
526.5 44.01 o
grestore
gsave
63.078125 40.697500 translate
0.000000 rotate
0.000000 0.000000 m /zero glyphshow
grestore
gsave
/o {
gsave
newpath
translate
0.5 setlinewidth
1 setlinejoin
0 setlinecap
0 0 m
4 0 l
gsave
0.000 setgray
fill
grestore
stroke
grestore
} bind def
73.125 88.02 o
grestore
gsave
/o {
gsave
newpath
translate
0.5 setlinewidth
1 setlinejoin
0 setlinecap
0 0 m
-4 0 l
gsave
0.000 setgray
fill
grestore
stroke
grestore
} bind def
526.5 88.02 o
grestore
gsave
63.562500 84.707500 translate
0.000000 rotate
0.000000 0.000000 m /two glyphshow
grestore
gsave
/o {
gsave
newpath
translate
0.5 setlinewidth
1 setlinejoin
0 setlinecap
0 0 m
4 0 l
gsave
0.000 setgray
fill
grestore
stroke
grestore
} bind def
73.125 132.03 o
grestore
gsave
/o {
gsave
newpath
translate
0.5 setlinewidth
1 setlinejoin
0 setlinecap
0 0 m
-4 0 l
gsave
0.000 setgray
fill
grestore
stroke
grestore
} bind def
526.5 132.03 o
grestore
gsave
62.750000 128.717500 translate
0.000000 rotate
0.000000 0.000000 m /four glyphshow
grestore
gsave
/o {
gsave
newpath
translate
0.5 setlinewidth
1 setlinejoin
0 setlinecap
0 0 m
4 0 l
gsave
0.000 setgray
fill
grestore
stroke
grestore
} bind def
73.125 176.04 o
grestore
gsave
/o {
gsave
newpath
translate
0.5 setlinewidth
1 setlinejoin
0 setlinecap
0 0 m
-4 0 l
gsave
0.000 setgray
fill
grestore
stroke
grestore
} bind def
526.5 176.04 o
grestore
gsave
63.093750 172.727500 translate
0.000000 rotate
0.000000 0.000000 m /six glyphshow
grestore
gsave
/o {
gsave
newpath
translate
0.5 setlinewidth
1 setlinejoin
0 setlinecap
0 0 m
4 0 l
gsave
0.000 setgray
fill
grestore
stroke
grestore
} bind def
73.125 220.05 o
grestore
gsave
/o {
gsave
newpath
translate
0.5 setlinewidth
1 setlinejoin
0 setlinecap
0 0 m
-4 0 l
gsave
0.000 setgray
fill
grestore
stroke
grestore
} bind def
526.5 220.05 o
grestore
gsave
63.125000 216.737500 translate
0.000000 rotate
0.000000 0.000000 m /eight glyphshow
grestore
gsave
/o {
gsave
newpath
translate
0.5 setlinewidth
1 setlinejoin
0 setlinecap
0 0 m
4 0 l
gsave
0.000 setgray
fill
grestore
stroke
grestore
} bind def
73.125 264.06 o
grestore
gsave
/o {
gsave
newpath
translate
0.5 setlinewidth
1 setlinejoin
0 setlinecap
0 0 m
-4 0 l
gsave
0.000 setgray
fill
grestore
stroke
grestore
} bind def
526.5 264.06 o
grestore
gsave
55.953125 260.747500 translate
0.000000 rotate
0.000000 0.000000 m /one glyphshow
7.634766 0.000000 m /zero glyphshow
grestore
gsave
48.453125 115.878750 translate
90.000000 rotate
0.000000 0.000000 m /D glyphshow
9.240234 0.000000 m /i glyphshow
12.574219 0.000000 m /s glyphshow
18.826172 0.000000 m /t glyphshow
23.531250 0.000000 m /a glyphshow
30.884766 0.000000 m /n glyphshow
38.490234 0.000000 m /c glyphshow
45.087891 0.000000 m /e glyphshow
52.470703 0.000000 m /space glyphshow
56.285156 0.000000 m /bracketleft glyphshow
60.966797 0.000000 m /m glyphshow
72.656250 0.000000 m /bracketright glyphshow
grestore
1.000 setlinewidth
gsave
73.125 264.06 m
526.5 264.06 l
stroke
grestore
gsave
526.5 44.01 m
526.5 264.06 l
stroke
grestore
gsave
73.125 44.01 m
526.5 44.01 l
stroke
grestore
gsave
73.125 44.01 m
73.125 264.06 l
stroke
grestore
gsave
234.570312 278.407000 translate
0.000000 rotate
0.000000 0.000000 m /L glyphshow
6.685547 0.000000 m /a glyphshow
14.039062 0.000000 m /n glyphshow
21.644531 0.000000 m /d glyphshow
29.261719 0.000000 m /m glyphshow
40.951172 0.000000 m /a glyphshow
48.304688 0.000000 m /r glyphshow
53.238281 0.000000 m /k glyphshow
60.187500 0.000000 m /space glyphshow
64.001953 0.000000 m /D glyphshow
73.242188 0.000000 m /i glyphshow
76.576172 0.000000 m /s glyphshow
82.828125 0.000000 m /t glyphshow
87.533203 0.000000 m /a glyphshow
94.886719 0.000000 m /n glyphshow
102.492188 0.000000 m /c glyphshow
109.089844 0.000000 m /e glyphshow
grestore

end
showpage
