%!PS-Adobe-3.0 EPSF-3.0
%%Title: /home/michael/latex/ijrr2016_rovio/figures/motionDefficiencyDisCov.eps
%%Creator: matplotlib version 1.3.1, http://matplotlib.org/
%%CreationDate: Tue Feb 16 15:11:28 2016
%%Orientation: portrait
%%BoundingBox: 13 249 598 542
%%EndComments
%%BeginProlog
/mpldict 9 dict def
mpldict begin
/m { moveto } bind def
/l { lineto } bind def
/r { rlineto } bind def
/c { curveto } bind def
/cl { closepath } bind def
/box {
m
1 index 0 r
0 exch r
neg 0 r
cl
} bind def
/clipbox {
box
clip
newpath
} bind def
%!PS-Adobe-3.0 Resource-Font
%%Title: DejaVu Sans
%%Copyright: Copyright (c) 2003 by Bitstream, Inc. All Rights Reserved. Copyright (c) 2006 by Tavmjong Bah. All Rights Reserved. DejaVu changes are in public domain 
%%Creator: Converted from TrueType to type 3 by PPR
25 dict begin
/_d{bind def}bind def
/_m{moveto}_d
/_l{lineto}_d
/_cl{closepath eofill}_d
/_c{curveto}_d
/_sc{7 -1 roll{setcachedevice}{pop pop pop pop pop pop}ifelse}_d
/_e{exec}_d
/FontName /DejaVuSans def
/PaintType 0 def
/FontMatrix[.001 0 0 .001 0 0]def
/FontBBox[-1021 -415 1681 1167]def
/FontType 3 def
/Encoding [ /space /zero /one /two /three /four /five /six /eight /D /S /T /bracketleft /bracketright /a /c /d /e /i /m /n /o /r /s /t /v ] def
/FontInfo 10 dict dup begin
/FamilyName (DejaVu Sans) def
/FullName (DejaVu Sans) def
/Notice (Copyright (c) 2003 by Bitstream, Inc. All Rights Reserved. Copyright (c) 2006 by Tavmjong Bah. All Rights Reserved. DejaVu changes are in public domain ) def
/Weight (Book) def
/Version (Version 2.34) def
/ItalicAngle 0.0 def
/isFixedPitch false def
/UnderlinePosition -130 def
/UnderlineThickness 90 def
end readonly def
/CharStrings 26 dict dup begin
/space{318 0 0 0 0 0 _sc
}_d
/zero{636 0 66 -13 570 742 _sc
318 664 _m
267 664 229 639 203 589 _c
177 539 165 464 165 364 _c
165 264 177 189 203 139 _c
229 89 267 64 318 64 _c
369 64 407 89 433 139 _c
458 189 471 264 471 364 _c
471 464 458 539 433 589 _c
407 639 369 664 318 664 _c
318 742 _m
399 742 461 709 505 645 _c
548 580 570 486 570 364 _c
570 241 548 147 505 83 _c
461 19 399 -13 318 -13 _c
236 -13 173 19 130 83 _c
87 147 66 241 66 364 _c
66 486 87 580 130 645 _c
173 709 236 742 318 742 _c
_cl}_d
/one{636 0 110 0 544 729 _sc
124 83 _m
285 83 _l
285 639 _l
110 604 _l
110 694 _l
284 729 _l
383 729 _l
383 83 _l
544 83 _l
544 0 _l
124 0 _l
124 83 _l
_cl}_d
/two{{636 0 73 0 536 742 _sc
192 83 _m
536 83 _l
536 0 _l
73 0 _l
73 83 _l
110 121 161 173 226 239 _c
290 304 331 346 348 365 _c
380 400 402 430 414 455 _c
426 479 433 504 433 528 _c
433 566 419 598 392 622 _c
365 646 330 659 286 659 _c
255 659 222 653 188 643 _c
154 632 117 616 78 594 _c
78 694 _l
118 710 155 722 189 730 _c
223 738 255 742 284 742 _c
}_e{359 742 419 723 464 685 _c
509 647 532 597 532 534 _c
532 504 526 475 515 449 _c
504 422 484 390 454 354 _c
446 344 420 317 376 272 _c
332 227 271 164 192 83 _c
_cl}_e}_d
/three{{636 0 76 -13 556 742 _sc
406 393 _m
453 383 490 362 516 330 _c
542 298 556 258 556 212 _c
556 140 531 84 482 45 _c
432 6 362 -13 271 -13 _c
240 -13 208 -10 176 -4 _c
144 1 110 10 76 22 _c
76 117 _l
103 101 133 89 166 81 _c
198 73 232 69 268 69 _c
330 69 377 81 409 105 _c
441 129 458 165 458 212 _c
458 254 443 288 413 312 _c
383 336 341 349 287 349 _c
}_e{202 349 _l
202 430 _l
291 430 _l
339 430 376 439 402 459 _c
428 478 441 506 441 543 _c
441 580 427 609 401 629 _c
374 649 336 659 287 659 _c
260 659 231 656 200 650 _c
169 644 135 635 98 623 _c
98 711 _l
135 721 170 729 203 734 _c
235 739 266 742 296 742 _c
370 742 429 725 473 691 _c
517 657 539 611 539 553 _c
539 513 527 479 504 451 _c
481 423 448 403 406 393 _c
_cl}_e}_d
/four{636 0 49 0 580 729 _sc
378 643 _m
129 254 _l
378 254 _l
378 643 _l
352 729 _m
476 729 _l
476 254 _l
580 254 _l
580 172 _l
476 172 _l
476 0 _l
378 0 _l
378 172 _l
49 172 _l
49 267 _l
352 729 _l
_cl}_d
/five{{636 0 77 -13 549 729 _sc
108 729 _m
495 729 _l
495 646 _l
198 646 _l
198 467 _l
212 472 227 476 241 478 _c
255 480 270 482 284 482 _c
365 482 429 459 477 415 _c
525 370 549 310 549 234 _c
549 155 524 94 475 51 _c
426 8 357 -13 269 -13 _c
238 -13 207 -10 175 -6 _c
143 -1 111 6 77 17 _c
77 116 _l
106 100 136 88 168 80 _c
199 72 232 69 267 69 _c
}_e{323 69 368 83 401 113 _c
433 143 450 183 450 234 _c
450 284 433 324 401 354 _c
368 384 323 399 267 399 _c
241 399 214 396 188 390 _c
162 384 135 375 108 363 _c
108 729 _l
_cl}_e}_d
/six{{636 0 70 -13 573 742 _sc
330 404 _m
286 404 251 388 225 358 _c
199 328 186 286 186 234 _c
186 181 199 139 225 109 _c
251 79 286 64 330 64 _c
374 64 409 79 435 109 _c
461 139 474 181 474 234 _c
474 286 461 328 435 358 _c
409 388 374 404 330 404 _c
526 713 _m
526 623 _l
501 635 476 644 451 650 _c
425 656 400 659 376 659 _c
310 659 260 637 226 593 _c
}_e{192 549 172 482 168 394 _c
187 422 211 444 240 459 _c
269 474 301 482 336 482 _c
409 482 467 459 509 415 _c
551 371 573 310 573 234 _c
573 159 550 99 506 54 _c
462 9 403 -13 330 -13 _c
246 -13 181 19 137 83 _c
92 147 70 241 70 364 _c
70 479 97 571 152 639 _c
206 707 280 742 372 742 _c
396 742 421 739 447 735 _c
472 730 498 723 526 713 _c
_cl}_e}_d
/eight{{636 0 68 -13 568 742 _sc
318 346 _m
271 346 234 333 207 308 _c
180 283 167 249 167 205 _c
167 161 180 126 207 101 _c
234 76 271 64 318 64 _c
364 64 401 76 428 102 _c
455 127 469 161 469 205 _c
469 249 455 283 429 308 _c
402 333 365 346 318 346 _c
219 388 _m
177 398 144 418 120 447 _c
96 476 85 511 85 553 _c
85 611 105 657 147 691 _c
188 725 245 742 318 742 _c
}_e{390 742 447 725 489 691 _c
530 657 551 611 551 553 _c
551 511 539 476 515 447 _c
491 418 459 398 417 388 _c
464 377 501 355 528 323 _c
554 291 568 251 568 205 _c
568 134 546 80 503 43 _c
459 5 398 -13 318 -13 _c
237 -13 175 5 132 43 _c
89 80 68 134 68 205 _c
68 251 81 291 108 323 _c
134 355 171 377 219 388 _c
183 544 _m
183 506 194 476 218 455 _c
}_e{242 434 275 424 318 424 _c
360 424 393 434 417 455 _c
441 476 453 506 453 544 _c
453 582 441 611 417 632 _c
393 653 360 664 318 664 _c
275 664 242 653 218 632 _c
194 611 183 582 183 544 _c
_cl}_e}_d
/D{770 0 98 0 711 729 _sc
197 648 _m
197 81 _l
316 81 _l
416 81 490 103 537 149 _c
583 195 607 267 607 365 _c
607 463 583 534 537 580 _c
490 625 416 648 316 648 _c
197 648 _l
98 729 _m
301 729 _l
442 729 546 699 612 641 _c
678 582 711 490 711 365 _c
711 239 677 147 611 88 _c
545 29 441 0 301 0 _c
98 0 _l
98 729 _l
_cl}_d
/S{{635 0 66 -13 579 742 _sc
535 705 _m
535 609 _l
497 627 462 640 429 649 _c
395 657 363 662 333 662 _c
279 662 237 651 208 631 _c
179 610 165 580 165 542 _c
165 510 174 485 194 469 _c
213 452 250 439 304 429 _c
364 417 _l
437 403 491 378 526 343 _c
561 307 579 260 579 201 _c
579 130 555 77 508 41 _c
460 5 391 -13 300 -13 _c
265 -13 228 -9 189 -2 _c
}_e{150 5 110 16 69 32 _c
69 134 _l
109 111 148 94 186 83 _c
224 71 262 66 300 66 _c
356 66 399 77 430 99 _c
460 121 476 152 476 194 _c
476 230 465 258 443 278 _c
421 298 385 313 335 323 _c
275 335 _l
201 349 148 372 115 404 _c
82 435 66 478 66 534 _c
66 598 88 649 134 686 _c
179 723 242 742 322 742 _c
356 742 390 739 426 733 _c
461 727 497 717 535 705 _c
}_e{_cl}_e}_d
/T{611 0 -2 0 614 729 _sc
-2 729 _m
614 729 _l
614 646 _l
355 646 _l
355 0 _l
256 0 _l
256 646 _l
-2 646 _l
-2 729 _l
_cl}_d
/bracketleft{390 0 86 -131 293 760 _sc
86 760 _m
293 760 _l
293 690 _l
176 690 _l
176 -61 _l
293 -61 _l
293 -131 _l
86 -131 _l
86 760 _l
_cl}_d
/bracketright{390 0 97 -131 304 760 _sc
304 760 _m
304 -131 _l
97 -131 _l
97 -61 _l
214 -61 _l
214 690 _l
97 690 _l
97 760 _l
304 760 _l
_cl}_d
/a{{613 0 60 -13 522 560 _sc
343 275 _m
270 275 220 266 192 250 _c
164 233 150 205 150 165 _c
150 133 160 107 181 89 _c
202 70 231 61 267 61 _c
317 61 357 78 387 114 _c
417 149 432 196 432 255 _c
432 275 _l
343 275 _l
522 312 _m
522 0 _l
432 0 _l
432 83 _l
411 49 385 25 355 10 _c
325 -5 287 -13 243 -13 _c
187 -13 142 2 109 33 _c
76 64 60 106 60 159 _c
}_e{60 220 80 266 122 298 _c
163 329 224 345 306 345 _c
432 345 _l
432 354 _l
432 395 418 427 391 450 _c
364 472 326 484 277 484 _c
245 484 215 480 185 472 _c
155 464 127 453 100 439 _c
100 522 _l
132 534 164 544 195 550 _c
226 556 256 560 286 560 _c
365 560 424 539 463 498 _c
502 457 522 395 522 312 _c
_cl}_e}_d
/c{{550 0 55 -13 488 560 _sc
488 526 _m
488 442 _l
462 456 437 466 411 473 _c
385 480 360 484 334 484 _c
276 484 230 465 198 428 _c
166 391 150 339 150 273 _c
150 206 166 154 198 117 _c
230 80 276 62 334 62 _c
360 62 385 65 411 72 _c
437 79 462 90 488 104 _c
488 21 _l
462 9 436 0 410 -5 _c
383 -10 354 -13 324 -13 _c
242 -13 176 12 128 64 _c
}_e{79 115 55 185 55 273 _c
55 362 79 432 128 483 _c
177 534 244 560 330 560 _c
358 560 385 557 411 551 _c
437 545 463 537 488 526 _c
_cl}_e}_d
/d{{635 0 55 -13 544 760 _sc
454 464 _m
454 760 _l
544 760 _l
544 0 _l
454 0 _l
454 82 _l
435 49 411 25 382 10 _c
353 -5 319 -13 279 -13 _c
213 -13 159 13 117 65 _c
75 117 55 187 55 273 _c
55 359 75 428 117 481 _c
159 533 213 560 279 560 _c
319 560 353 552 382 536 _c
411 520 435 496 454 464 _c
148 273 _m
148 207 161 155 188 117 _c
215 79 253 61 301 61 _c
}_e{348 61 385 79 413 117 _c
440 155 454 207 454 273 _c
454 339 440 390 413 428 _c
385 466 348 485 301 485 _c
253 485 215 466 188 428 _c
161 390 148 339 148 273 _c
_cl}_e}_d
/e{{615 0 55 -13 562 560 _sc
562 296 _m
562 252 _l
149 252 _l
153 190 171 142 205 110 _c
238 78 284 62 344 62 _c
378 62 412 66 444 74 _c
476 82 509 95 541 113 _c
541 28 _l
509 14 476 3 442 -3 _c
408 -9 373 -13 339 -13 _c
251 -13 182 12 131 62 _c
80 112 55 181 55 268 _c
55 357 79 428 127 481 _c
175 533 241 560 323 560 _c
397 560 455 536 498 489 _c
}_e{540 441 562 377 562 296 _c
472 322 _m
471 371 457 410 431 440 _c
404 469 368 484 324 484 _c
274 484 234 469 204 441 _c
174 413 156 373 152 322 _c
472 322 _l
_cl}_e}_d
/i{278 0 94 0 184 760 _sc
94 547 _m
184 547 _l
184 0 _l
94 0 _l
94 547 _l
94 760 _m
184 760 _l
184 646 _l
94 646 _l
94 760 _l
_cl}_d
/m{{974 0 91 0 889 560 _sc
520 442 _m
542 482 569 511 600 531 _c
631 550 668 560 711 560 _c
767 560 811 540 842 500 _c
873 460 889 403 889 330 _c
889 0 _l
799 0 _l
799 327 _l
799 379 789 418 771 444 _c
752 469 724 482 686 482 _c
639 482 602 466 575 435 _c
548 404 535 362 535 309 _c
535 0 _l
445 0 _l
445 327 _l
445 379 435 418 417 444 _c
398 469 369 482 331 482 _c
}_e{285 482 248 466 221 435 _c
194 404 181 362 181 309 _c
181 0 _l
91 0 _l
91 547 _l
181 547 _l
181 462 _l
201 495 226 520 255 536 _c
283 552 317 560 357 560 _c
397 560 430 550 458 530 _c
486 510 506 480 520 442 _c
_cl}_e}_d
/n{634 0 91 0 549 560 _sc
549 330 _m
549 0 _l
459 0 _l
459 327 _l
459 379 448 417 428 443 _c
408 469 378 482 338 482 _c
289 482 251 466 223 435 _c
195 404 181 362 181 309 _c
181 0 _l
91 0 _l
91 547 _l
181 547 _l
181 462 _l
202 494 227 519 257 535 _c
286 551 320 560 358 560 _c
420 560 468 540 500 501 _c
532 462 549 405 549 330 _c
_cl}_d
/o{612 0 55 -13 557 560 _sc
306 484 _m
258 484 220 465 192 427 _c
164 389 150 338 150 273 _c
150 207 163 156 191 118 _c
219 80 257 62 306 62 _c
354 62 392 80 420 118 _c
448 156 462 207 462 273 _c
462 337 448 389 420 427 _c
392 465 354 484 306 484 _c
306 560 _m
384 560 445 534 490 484 _c
534 433 557 363 557 273 _c
557 183 534 113 490 63 _c
445 12 384 -13 306 -13 _c
227 -13 165 12 121 63 _c
77 113 55 183 55 273 _c
55 363 77 433 121 484 _c
165 534 227 560 306 560 _c
_cl}_d
/r{411 0 91 0 411 560 _sc
411 463 _m
401 469 390 473 378 476 _c
366 478 353 480 339 480 _c
288 480 249 463 222 430 _c
194 397 181 350 181 288 _c
181 0 _l
91 0 _l
91 547 _l
181 547 _l
181 462 _l
199 495 224 520 254 536 _c
284 552 321 560 365 560 _c
371 560 378 559 386 559 _c
393 558 401 557 411 555 _c
411 463 _l
_cl}_d
/s{{521 0 54 -13 472 560 _sc
443 531 _m
443 446 _l
417 458 391 468 364 475 _c
336 481 308 485 279 485 _c
234 485 200 478 178 464 _c
156 450 145 430 145 403 _c
145 382 153 366 169 354 _c
185 342 217 330 265 320 _c
296 313 _l
360 299 405 279 432 255 _c
458 230 472 195 472 151 _c
472 100 452 60 412 31 _c
372 1 316 -13 246 -13 _c
216 -13 186 -10 154 -5 _c
}_e{122 0 89 8 54 20 _c
54 113 _l
87 95 120 82 152 74 _c
184 65 216 61 248 61 _c
290 61 323 68 346 82 _c
368 96 380 117 380 144 _c
380 168 371 187 355 200 _c
339 213 303 226 247 238 _c
216 245 _l
160 257 119 275 95 299 _c
70 323 58 356 58 399 _c
58 450 76 490 112 518 _c
148 546 200 560 268 560 _c
301 560 332 557 362 552 _c
391 547 418 540 443 531 _c
}_e{_cl}_e}_d
/t{392 0 27 0 368 702 _sc
183 702 _m
183 547 _l
368 547 _l
368 477 _l
183 477 _l
183 180 _l
183 135 189 106 201 94 _c
213 81 238 75 276 75 _c
368 75 _l
368 0 _l
276 0 _l
206 0 158 13 132 39 _c
106 65 93 112 93 180 _c
93 477 _l
27 477 _l
27 547 _l
93 547 _l
93 702 _l
183 702 _l
_cl}_d
/v{592 0 30 0 562 547 _sc
30 547 _m
125 547 _l
296 88 _l
467 547 _l
562 547 _l
357 0 _l
235 0 _l
30 547 _l
_cl}_d
end readonly def

/BuildGlyph
 {exch begin
 CharStrings exch
 2 copy known not{pop /.notdef}if
 true 3 1 roll get exec
 end}_d

/BuildChar {
 1 index /Encoding get exch get
 1 index /BuildGlyph get exec
}_d

FontName currentdict end definefont pop
%!PS-Adobe-3.0 Resource-Font
%%Title: cmmi10
%%Copyright: Copyright (C) 1994, Basil K. Malyshev. All Rights Reserved.012BaKoMa Fonts Collection, Level-B.
%%Creator: Converted from TrueType to type 3 by PPR
25 dict begin
/_d{bind def}bind def
/_m{moveto}_d
/_l{lineto}_d
/_cl{closepath eofill}_d
/_c{curveto}_d
/_sc{7 -1 roll{setcachedevice}{pop pop pop pop pop pop}ifelse}_d
/_e{exec}_d
/FontName /Cmmi10 def
/PaintType 0 def
/FontMatrix[.001 0 0 .001 0 0]def
/FontBBox[-34 -250 1048 750]def
/FontType 3 def
/Encoding [ /sigma /d ] def
/FontInfo 10 dict dup begin
/FamilyName (cmmi10) def
/FullName (cmmi10) def
/Notice (Copyright (C) 1994, Basil K. Malyshev. All Rights Reserved.012BaKoMa Fonts Collection, Level-B. ) def
/Weight (Regular) def
/Version (1.1/12-Nov-94) def
/ItalicAngle 0.0 def
/isFixedPitch false def
/UnderlinePosition -133 def
/UnderlineThickness 20 def
end readonly def
/CharStrings 2 dict dup begin
/sigma{{571 0 36 -10 568 431 _sc
187 -10 _m
157 -10 131 -3 108 10 _c
85 24 67 43 55 67 _c
42 91 36 118 36 147 _c
36 177 43 210 57 244 _c
71 278 90 310 114 338 _c
138 366 166 389 197 406 _c
227 422 259 431 291 431 _c
543 431 _l
549 431 555 428 560 424 _c
565 419 568 413 568 406 _c
568 396 564 387 557 380 _c
550 372 542 369 532 369 _c
410 369 _l
}_e{429 340 439 305 439 265 _c
439 231 432 198 419 166 _c
406 133 388 103 365 77 _c
342 50 315 29 284 13 _c
253 -2 221 -10 187 -10 _c
188 15 _m
224 15 257 29 285 58 _c
313 86 334 121 349 162 _c
364 203 372 241 372 277 _c
372 305 364 328 348 344 _c
332 360 310 369 282 369 _c
243 369 210 356 183 330 _c
156 304 136 271 122 232 _c
108 192 102 154 102 118 _c
}_e{102 89 109 65 124 45 _c
139 25 160 15 188 15 _c
_cl}_e}_d
/d{{520 0 38 -10 519 694 _sc
174 -10 _m
132 -10 98 5 74 37 _c
50 68 38 105 38 149 _c
38 191 49 236 71 282 _c
93 328 122 366 160 396 _c
198 426 238 442 282 442 _c
302 442 319 436 335 425 _c
351 414 363 400 372 382 _c
428 605 _l
430 616 432 625 433 632 _c
433 642 411 648 368 648 _c
361 648 358 652 358 661 _c
358 663 358 666 360 670 _c
361 674 362 677 364 679 _c
}_e{366 681 368 683 372 683 _c
507 694 _l
515 694 519 689 519 681 _c
375 106 _l
370 94 368 78 368 58 _c
368 29 377 15 397 15 _c
417 15 433 28 444 55 _c
455 81 464 112 472 147 _c
473 151 476 153 480 153 _c
492 153 _l
494 153 496 151 498 149 _c
500 147 501 145 501 143 _c
489 96 476 59 462 31 _c
448 3 426 -10 395 -10 _c
372 -10 352 -3 335 9 _c
}_e{318 21 307 39 303 61 _c
260 13 217 -10 174 -10 _c
175 15 _m
199 15 222 24 245 42 _c
267 60 287 81 303 106 _c
303 106 304 108 304 110 _c
359 330 _l
355 353 346 373 333 390 _c
319 407 302 416 280 416 _c
257 416 236 406 217 388 _c
197 370 181 348 168 323 _c
154 296 142 259 130 213 _c
118 167 113 131 113 105 _c
113 81 118 60 128 42 _c
138 24 153 15 175 15 _c
}_e{_cl}_e}_d
end readonly def

/BuildGlyph
 {exch begin
 CharStrings exch
 2 copy known not{pop /.notdef}if
 true 3 1 roll get exec
 end}_d

/BuildChar {
 1 index /Encoding get exch get
 1 index /BuildGlyph get exec
}_d

FontName currentdict end definefont pop
end
%%EndProlog
mpldict begin
13.5 249.3 translate
585 293.4 0 0 clipbox
gsave
0 0 m
585 0 l
585 293.4 l
0 293.4 l
cl
1.000 setgray
fill
grestore
gsave
73.125 44.01 m
526.5 44.01 l
526.5 264.06 l
73.125 264.06 l
cl
1.000 setgray
fill
grestore
1.000 setlinewidth
1 setlinejoin
2 setlinecap
[] 0 setdash
0.867 0.267 0.133 setrgbcolor
gsave
453.4 220.1 73.12 44.01 clipbox
88.6832 168.489 m
89.3888 168.489 l
89.5652 211.462 l
90.2708 101.188 l
90.4472 95.2478 l
90.6236 95.1118 l
90.8 95.5274 l
90.9764 94.9145 l
91.1527 94.9757 l
91.3291 94.7224 l
91.8583 94.6372 l
92.2111 95.0021 l
93.0931 95.2936 l
95.2099 94.7414 l
96.4447 94.5702 l
97.503 94.251 l
99.0906 93.9484 l
101.913 93.1568 l
104.03 92.7303 l
104.559 92.6531 l
105.794 92.1731 l
108.44 91.0585 l
109.145 90.7688 l
110.909 90.4278 l
112.32 90.2596 l
113.732 90.0859 l
116.73 89.7426 l
117.789 89.5805 l
119.023 89.4869 l
126.079 89.5178 l
128.902 89.0304 l
130.489 88.9655 l
131.724 88.5976 l
132.782 88.2769 l
134.37 88.1007 l
135.252 88.069 l
138.427 87.6844 l
140.897 87.5564 l
142.661 87.2469 l
145.13 87.0942 l
146.365 87.0796 l
149.011 86.5247 l
158.536 85.7795 l
162.77 85.842 l
165.769 85.7542 l
172.295 85.8843 l
174.941 85.944 l
180.939 86.1791 l
181.997 86.2109 l
190.464 86.321 l
192.228 86.2971 l
247.264 87.5567 l
251.321 87.6734 l
254.673 87.7092 l
256.789 87.8113 l
283.072 88.9868 l
284.66 89.0856 l
290.481 89.3246 l
297.537 89.6355 l
299.301 89.7481 l
300.183 89.8338 l
303.358 89.8918 l
310.943 90.0836 l
312.354 90.1472 l
319.763 90.3778 l
324.173 90.5601 l
325.76 90.6819 l
334.404 91.1924 l
347.634 91.8805 l
352.573 91.9283 l
357.512 92.0606 l
359.981 92.1914 l
362.804 92.2045 l
375.328 92.4366 l
376.916 92.5038 l
384.677 92.6327 l
388.381 92.7226 l
394.555 92.9325 l
401.082 93.2154 l
410.784 93.4319 l
412.195 93.4637 l
417.487 93.6727 l
422.426 93.9399 l
426.307 94.048 l
428.776 94.1168 l
431.599 94.1745 l
433.715 94.2547 l
434.597 94.185 l
437.596 93.8073 l
441.3 93.5451 l
443.594 93.4565 l
446.945 93.2747 l
448.003 93.222 l
449.591 93.1719 l
452.766 92.8665 l
454.177 92.8476 l
455.059 92.8915 l
459.822 92.7566 l
461.057 92.8296 l
463.35 92.9434 l
465.643 92.8237 l
468.995 92.8352 l
480.99 93.0507 l
483.812 93.2522 l
485.047 93.2662 l
486.811 93.3388 l
488.046 93.3312 l
496.689 93.3415 l
501.275 93.4963 l
502.157 93.5069 l
503.745 93.5197 l
526.5 94.1204 l
526.5 94.1204 l
stroke
grestore
gsave
453.4 220.1 73.12 44.01 clipbox
89.036 168.489 m
89.2124 168.489 l
89.3888 168.489 l
89.5652 226.875 l
89.918 145.997 l
90.0944 105.526 l
90.4472 84.8185 l
90.6236 83.2761 l
91.3291 81.6106 l
91.8583 81.3641 l
92.0347 168.489 l
92.2111 168.926 l
92.5639 168.916 l
92.9167 168.1 l
93.2695 163.777 l
93.6223 157.951 l
94.6807 144.659 l
95.2099 139.753 l
97.1502 128.163 l
97.503 127.19 l
97.8558 126.382 l
98.2086 125.627 l
98.9142 123.856 l
99.9726 121.557 l
100.325 120.544 l
100.678 119.83 l
101.384 117.618 l
101.737 116.597 l
102.442 114.164 l
103.501 112.451 l
103.677 112.311 l
104.383 110.485 l
104.735 109.507 l
105.97 106.63 l
106.676 105.287 l
107.028 104.638 l
107.91 102.78 l
109.674 100.557 l
110.909 98.6295 l
111.791 97.0031 l
112.144 96.584 l
113.202 95.8892 l
114.084 95.322 l
118.671 92.7732 l
119.376 92.6778 l
120.435 92.5547 l
123.433 92.1013 l
123.786 92.162 l
124.315 91.9668 l
125.55 91.0629 l
128.02 89.5783 l
128.902 89.4108 l
129.431 89.3177 l
130.666 88.5764 l
131.724 87.765 l
132.253 87.3853 l
133.312 86.7647 l
134.37 86.348 l
138.603 84.9362 l
139.309 84.8699 l
141.073 84.2317 l
142.308 83.765 l
143.543 83.4522 l
144.601 83.34 l
145.307 83.329 l
146.541 83.0708 l
147.423 82.5463 l
149.364 81.9536 l
149.893 81.8688 l
150.422 81.6326 l
152.01 81.1549 l
153.597 80.6174 l
156.067 80.1228 l
159.418 79.8961 l
160.829 79.8661 l
165.239 79.74 l
168.591 79.6728 l
171.59 79.4286 l
175.47 79.3809 l
179.175 79.4493 l
183.761 79.385 l
188.7 79.2946 l
190.817 79.2871 l
192.757 79.2462 l
196.109 79.2203 l
199.46 79.2025 l
202.988 79.177 l
204.399 79.1571 l
206.34 79.1087 l
207.575 79.0916 l
218.158 78.9726 l
230.683 78.9755 l
232.623 79.0285 l
233.858 78.968 l
237.033 78.9292 l
252.379 79.0382 l
254.32 79.0071 l
273.547 79.4002 l
275.84 79.4554 l
286.6 79.6582 l
289.599 79.7485 l
296.302 79.8712 l
333.346 80.5805 l
334.757 80.6459 l
336.873 80.6843 l
337.932 80.7506 l
341.283 80.826 l
344.106 80.9265 l
350.456 80.9559 l
352.749 80.9762 l
354.16 81.021 l
358.394 80.9655 l
361.569 81.0177 l
371.976 80.9439 l
373.035 81.0023 l
383.971 80.8157 l
385.912 80.8478 l
390.322 80.7945 l
395.966 80.9089 l
399.671 81.0562 l
406.55 81.0265 l
422.955 81.43 l
423.837 81.4388 l
425.425 81.4275 l
434.774 81.452 l
436.008 81.3136 l
439.007 81.1115 l
441.124 80.9869 l
448.18 80.6512 l
449.944 80.5497 l
454.354 80.2752 l
455.059 80.2765 l
459.293 80.0506 l
460.88 80.0664 l
463.174 80.0742 l
465.643 79.926 l
468.995 79.9014 l
476.756 79.9415 l
484.694 80.163 l
486.105 80.1301 l
488.575 80.1551 l
493.867 80.1246 l
515.034 80.2919 l
518.033 80.2413 l
520.503 80.2539 l
526.5 80.4143 l
526.5 80.4143 l
stroke
grestore
gsave
453.4 220.1 73.12 44.01 clipbox
89.036 168.489 m
89.2124 168.489 l
89.3729 294.4 l
89.411 294.4 m
89.5652 207.683 l
89.7416 162.805 l
90.0944 101.634 l
90.4472 84.6374 l
90.6236 83.2508 l
90.8 82.9189 l
90.9764 82.2958 l
91.5055 81.943 l
91.8583 81.9239 l
92.0347 168.489 l
92.3875 169.69 l
92.5639 169.651 l
92.7403 168.928 l
93.4459 159.516 l
93.9751 150.107 l
94.6807 141.065 l
95.0335 137.207 l
95.5627 132.222 l
96.0919 127.862 l
97.503 119.247 l
97.8558 118.055 l
98.2086 117.068 l
98.9142 114.741 l
99.267 113.793 l
99.4434 113.577 l
100.855 109.884 l
101.737 107.87 l
102.795 105.205 l
103.324 104.069 l
103.677 103.662 l
104.206 102.392 l
104.912 100.642 l
106.676 97.2486 l
106.852 97.0371 l
107.381 96.0389 l
109.498 93.1816 l
110.733 91.7842 l
112.32 89.6271 l
114.437 88.0649 l
115.672 87.5783 l
116.201 87.2267 l
119.023 85.9689 l
124.315 85.2611 l
125.903 84.3837 l
126.432 84.0547 l
128.372 83.1158 l
129.254 83.0543 l
129.96 82.8409 l
133.312 80.971 l
134.194 80.6466 l
135.076 80.3485 l
135.428 80.2434 l
135.958 80.1448 l
137.545 79.4275 l
138.78 79.2809 l
139.133 79.2687 l
141.073 78.6557 l
142.837 78.17 l
144.601 77.9854 l
145.13 77.9799 l
146.365 77.8391 l
149.011 76.876 l
149.893 76.7559 l
150.422 76.5555 l
152.186 76.213 l
153.774 75.8149 l
156.596 75.3617 l
160.3 75.178 l
169.473 74.9263 l
170.179 74.8451 l
177.411 74.7418 l
181.997 74.8839 l
185.525 74.7434 l
188.7 74.7328 l
191.346 74.7297 l
192.757 74.7415 l
205.811 74.6739 l
207.575 74.6047 l
214.101 74.4705 l
215.336 74.4454 l
218.864 74.4289 l
220.099 74.4241 l
222.921 74.446 l
230.153 74.5289 l
232.27 74.5662 l
233.505 74.576 l
236.68 74.5263 l
247.969 74.5925 l
249.91 74.6404 l
258.553 74.6886 l
261.728 74.7066 l
267.02 74.8081 l
270.195 74.9007 l
276.193 75.0218 l
283.602 75.144 l
299.301 75.4767 l
299.83 75.5106 l
304.416 75.5408 l
306.71 75.5457 l
308.474 75.4916 l
313.236 75.5964 l
317.823 75.6588 l
323.467 75.7285 l
336.873 76.034 l
338.285 76.0895 l
345.164 76.228 l
352.573 76.2826 l
358.394 76.2648 l
360.863 76.2931 l
372.682 76.3128 l
374.093 76.3066 l
384.324 76.2235 l
388.558 76.233 l
396.496 76.3188 l
400.729 76.4679 l
405.668 76.3661 l
420.486 76.6974 l
422.25 76.7692 l
429.129 76.922 l
431.599 76.9304 l
433.01 76.9977 l
437.596 76.7142 l
446.416 76.2156 l
456.294 75.8448 l
458.94 75.6988 l
463.174 75.7113 l
466.172 75.5398 l
467.407 75.5449 l
471.641 75.5755 l
490.339 75.7451 l
492.279 75.7178 l
495.454 75.7631 l
497.747 75.7879 l
501.981 75.8131 l
504.627 75.8426 l
509.213 75.8948 l
510.977 75.9103 l
516.975 75.8817 l
521.384 75.8937 l
525.618 75.9909 l
526.5 76.013 l
526.5 76.013 l
stroke
grestore
gsave
453.4 220.1 73.12 44.01 clipbox
89.036 168.489 m
89.2124 168.489 l
89.3888 168.489 l
89.5652 222.718 l
90.2708 91.9114 l
90.4472 84.1322 l
90.6236 82.5395 l
91.3291 80.8375 l
91.8583 80.5417 l
92.0347 168.489 l
92.2111 168.802 l
92.3875 168.813 l
92.9167 166.999 l
93.2695 164.812 l
93.6223 160.402 l
93.9751 156.741 l
95.3863 139.021 l
96.7974 124.683 l
97.503 120.979 l
98.385 117.16 l
99.0906 114.577 l
100.678 110.449 l
101.384 108.196 l
102.089 105.745 l
102.619 104.134 l
103.501 102.189 l
104.206 100.082 l
104.735 98.6365 l
106.499 94.7448 l
106.852 94.2731 l
107.558 92.9062 l
108.263 91.9934 l
108.792 91.3962 l
109.851 90.381 l
111.615 87.7674 l
112.144 86.9218 l
112.85 86.2866 l
113.202 86.0035 l
116.73 84.1423 l
117.083 83.98 l
119.2 82.8188 l
121.493 82.3907 l
121.846 82.3284 l
122.375 82.2205 l
122.904 82.2042 l
123.433 82.1245 l
123.963 82.0956 l
125.197 81.6055 l
125.727 81.2981 l
128.02 79.9854 l
128.725 79.8612 l
129.431 79.7484 l
131.548 78.8053 l
133.488 77.737 l
136.84 76.4222 l
137.369 76.1372 l
138.603 75.9214 l
139.485 75.7665 l
141.249 75.2869 l
141.779 75.1305 l
143.719 74.6827 l
144.072 74.6811 l
144.954 74.6044 l
146.541 74.3744 l
147.247 73.9972 l
149.187 73.386 l
149.893 73.2163 l
150.422 73.0359 l
151.657 72.8991 l
155.361 71.9786 l
157.654 71.7655 l
162.417 71.5265 l
165.769 71.5442 l
169.297 71.3868 l
171.237 71.1813 l
174.236 71.1103 l
178.116 71.1072 l
181.997 71.2153 l
184.29 71.118 l
190.464 71.1088 l
191.699 71.0801 l
206.869 70.9509 l
212.337 70.8245 l
214.278 70.7913 l
222.392 70.7726 l
235.093 70.854 l
244.971 70.8036 l
251.497 70.8909 l
257.319 70.8905 l
283.072 71.1695 l
285.718 71.2405 l
299.301 71.444 l
300.183 71.4834 l
307.415 71.4663 l
308.826 71.4519 l
314.295 71.5155 l
318.352 71.5657 l
339.696 71.9465 l
346.928 72.0733 l
352.044 72.0712 l
360.511 72.0847 l
362.98 72.0771 l
395.966 71.952 l
400.2 72.0931 l
402.493 72.077 l
409.02 72.0692 l
434.95 72.4573 l
441.477 72.0693 l
451.002 71.8033 l
452.061 71.7204 l
453.295 71.6122 l
462.292 71.3568 l
463.526 71.27 l
466.172 71.1521 l
468.289 71.1241 l
471.641 71.1723 l
475.521 71.183 l
477.285 71.2162 l
479.931 71.2503 l
489.809 71.3526 l
493.161 71.3351 l
499.864 71.4149 l
507.449 71.4993 l
509.213 71.4955 l
510.801 71.4915 l
513.623 71.5223 l
526.5 71.5669 l
526.5 71.5669 l
stroke
grestore
gsave
453.4 220.1 73.12 44.01 clipbox
89.036 168.489 m
89.2124 168.489 l
89.3888 267.865 l
89.7416 154.343 l
90.2708 92.0197 l
90.4472 168.489 l
90.9764 168.465 l
91.6819 168.847 l
91.8583 168.627 l
92.9167 231.855 l
93.0931 234.397 l
93.2695 232.957 l
93.7987 224.688 l
94.8571 203.685 l
95.7391 193.025 l
96.0919 190.394 l
96.621 186.557 l
96.9738 184.461 l
97.8558 180.733 l
98.0322 180.529 l
98.2086 180.503 l
99.6198 174.966 l
99.9726 172.977 l
100.855 168.107 l
102.619 155.255 l
104.03 150.979 l
104.912 146.045 l
105.441 142.883 l
106.499 138.177 l
108.087 130.484 l
108.616 128.547 l
108.969 127.71 l
109.322 127.183 l
111.791 121.512 l
113.026 120.404 l
113.555 119.968 l
114.437 119.437 l
114.79 119.33 l
115.143 118.959 l
115.672 118.189 l
116.377 117.584 l
118.671 116.281 l
119.2 116.339 l
120.435 116.317 l
120.787 116.235 l
121.317 116.195 l
122.728 115.973 l
123.963 115.702 l
124.492 115.287 l
126.256 113.132 l
127.49 112.204 l
128.549 111.742 l
128.902 111.703 l
129.784 111.329 l
130.489 110.671 l
131.548 109.385 l
134.194 107.125 l
135.076 106.729 l
136.487 106.105 l
138.251 105.473 l
138.603 105.345 l
139.133 105.325 l
141.426 104.055 l
142.131 103.689 l
144.601 102.963 l
145.13 102.954 l
146.365 102.589 l
147.953 101.531 l
149.187 101.02 l
150.069 100.726 l
152.539 99.2964 l
156.596 97.9117 l
157.478 97.7894 l
158.889 97.7748 l
159.595 97.765 l
159.947 97.8124 l
162.064 97.615 l
169.297 97.2464 l
170.531 97.1521 l
172.824 97.1024 l
175.647 97.1429 l
178.116 97.2322 l
179.351 97.2691 l
181.468 97.2444 l
182.526 97.1692 l
187.289 97.0586 l
193.463 96.753 l
198.931 96.606 l
201.048 96.7055 l
205.281 96.5043 l
209.691 96.3748 l
216.571 96.2662 l
218.158 96.2623 l
219.922 96.1948 l
221.863 96.1844 l
232.447 96.1929 l
233.329 96.1594 l
234.916 96.0892 l
240.208 96.1597 l
244.618 96.2094 l
245.676 96.248 l
252.556 96.1623 l
254.143 96.1454 l
266.668 96.4808 l
271.607 96.7419 l
282.72 97.0206 l
284.131 97.1174 l
286.6 97.1741 l
292.774 97.4942 l
299.301 97.7079 l
299.83 97.7752 l
309.003 97.6823 l
310.767 97.659 l
312.002 97.678 l
312.884 97.7481 l
315 97.7776 l
327.524 98.1929 l
330.876 98.3047 l
340.401 98.805 l
341.46 98.8508 l
345.164 98.9878 l
347.457 98.9953 l
348.516 98.9329 l
350.103 98.849 l
368.978 98.8352 l
370.389 98.7951 l
374.093 98.8031 l
375.328 98.7494 l
376.563 98.6941 l
377.621 98.6256 l
379.209 98.6045 l
382.737 98.6008 l
386.617 98.7167 l
390.498 98.6773 l
398.26 98.9044 l
404.963 98.9119 l
408.138 99.025 l
417.663 99.2432 l
422.602 99.4651 l
423.308 99.5069 l
427.189 99.5467 l
428.776 99.5076 l
430.011 99.4601 l
431.422 99.4413 l
433.892 99.3895 l
434.774 99.2483 l
436.008 99.0681 l
440.595 98.5057 l
441.83 98.5092 l
442.535 98.4249 l
451.884 97.5446 l
452.766 97.3951 l
454.354 97.3008 l
454.883 97.3017 l
461.057 97.0885 l
463.35 97.0699 l
464.056 96.959 l
465.643 96.9294 l
467.054 96.9526 l
471.641 96.979 l
474.11 96.8761 l
476.58 96.9408 l
479.226 97.0441 l
490.339 97.1382 l
492.279 97.0935 l
494.749 97.1233 l
497.395 97.1638 l
498.453 97.2028 l
507.273 97.4094 l
508.86 97.4336 l
510.624 97.4618 l
512.035 97.4599 l
514.329 97.4276 l
515.563 97.3906 l
519.091 97.2974 l
526.5 97.6506 l
526.5 97.6506 l
stroke
grestore
gsave
453.4 220.1 73.12 44.01 clipbox
89.036 168.489 m
89.2124 168.489 l
89.3888 252.355 l
89.5652 170.976 l
90.0944 91.1516 l
90.2708 82.4275 l
90.4472 168.489 l
90.6236 168.604 l
90.8 168.993 l
90.9764 168.809 l
91.1527 169.015 l
91.5055 168.747 l
91.6819 168.448 l
91.8583 167.658 l
92.3875 177.573 l
92.7403 179.858 l
92.9167 178.791 l
93.2695 174.983 l
93.4459 172.978 l
93.7987 166.324 l
94.5043 155.9 l
95.9155 141.953 l
96.621 136.942 l
97.3266 134.06 l
98.0322 132.517 l
99.267 128.73 l
99.9726 127.402 l
100.325 126.555 l
100.678 125.703 l
101.737 121.874 l
102.266 119.41 l
103.501 116.539 l
103.677 116.292 l
104.383 113.977 l
105.794 109.964 l
106.146 108.993 l
106.676 107.79 l
107.734 105.586 l
108.087 104.777 l
108.263 104.601 l
108.616 104.12 l
109.498 102.974 l
109.851 102.481 l
111.438 99.7547 l
112.144 98.4584 l
112.673 98.1193 l
114.084 97.0857 l
114.614 96.8845 l
114.966 96.7547 l
116.554 95.8029 l
118.141 94.9342 l
118.847 94.6259 l
121.14 94.2778 l
122.199 94.0656 l
123.081 94.0251 l
123.433 93.9719 l
123.963 93.9467 l
124.492 93.5597 l
125.021 93.1949 l
126.785 92.0825 l
128.372 91.3915 l
129.607 91.308 l
131.018 90.4554 l
131.724 89.9921 l
132.253 89.6169 l
132.959 89.1893 l
135.428 88.0409 l
135.958 87.9988 l
138.251 87.076 l
138.78 86.9942 l
139.309 86.896 l
140.367 86.5615 l
141.249 86.2729 l
142.131 85.9561 l
144.248 85.533 l
146.541 85.2123 l
147.423 84.6731 l
149.364 84.1957 l
149.893 84.03 l
150.422 83.7667 l
152.186 83.303 l
152.892 83.0561 l
155.185 82.3519 l
157.302 82.1245 l
162.417 81.9234 l
164.005 81.8906 l
166.827 81.9095 l
167.885 81.8924 l
169.473 81.7166 l
170.002 81.642 l
173.706 81.5306 l
174.941 81.556 l
177.94 81.597 l
183.585 81.6513 l
187.465 81.5659 l
189.406 81.5477 l
198.402 81.4176 l
200.166 81.4758 l
201.93 81.4878 l
204.047 81.3934 l
206.869 81.3008 l
211.632 81.2397 l
213.396 81.1816 l
218.864 81.1217 l
219.746 81.138 l
221.863 81.1297 l
230.153 81.2613 l
231.565 81.2452 l
247.617 81.2492 l
249.028 81.3136 l
258.73 81.3161 l
260.317 81.2978 l
262.081 81.3633 l
291.539 82.1175 l
292.774 82.1264 l
296.831 82.1828 l
301.241 82.2899 l
304.064 82.2633 l
306.004 82.2786 l
318.705 82.4539 l
323.82 82.5626 l
349.927 83.0756 l
351.338 83.0625 l
361.745 83.1 l
364.039 83.0907 l
368.978 83.1048 l
372.329 83.0486 l
373.564 83.0852 l
380.796 82.8849 l
394.202 82.9655 l
402.493 83.1195 l
407.785 83.158 l
412.548 83.2127 l
415.899 83.2895 l
428.6 83.6935 l
430.717 83.6435 l
434.244 83.6542 l
448.003 82.8546 l
448.709 82.8581 l
450.826 82.7353 l
452.061 82.6623 l
453.648 82.5339 l
456.118 82.48 l
459.116 82.3139 l
461.233 82.3388 l
474.287 82.1891 l
478.696 82.3465 l
481.695 82.4024 l
488.575 82.4832 l
492.632 82.4248 l
496.336 82.456 l
507.802 82.667 l
517.857 82.6255 l
519.621 82.6176 l
522.972 82.7437 l
524.56 82.7463 l
526.5 82.8338 l
526.5 82.8338 l
stroke
grestore
gsave
453.4 220.1 73.12 44.01 clipbox
89.036 168.489 m
89.2124 168.489 l
89.3888 168.489 l
89.5652 207.302 l
89.7416 195.901 l
90.0944 103.754 l
90.2708 91.5963 l
90.4472 168.489 l
90.8 168.87 l
91.1527 167.539 l
91.3291 167.372 l
91.5055 166.832 l
91.6819 166.653 l
91.8583 165.879 l
92.0347 167.45 l
92.3875 172.37 l
92.5639 172.629 l
92.7403 171.905 l
93.4459 163.403 l
93.7987 157.965 l
95.0335 144.32 l
95.7391 138.762 l
96.2683 135.346 l
96.7974 132.312 l
97.8558 128.027 l
98.0322 127.695 l
98.5614 125.466 l
101.207 118.828 l
102.442 114.653 l
104.03 110.869 l
104.735 108.254 l
105.441 106.258 l
105.97 104.805 l
106.323 103.815 l
107.381 101.567 l
108.44 99.3224 l
109.498 97.8649 l
109.851 97.4658 l
111.615 94.9774 l
112.144 94.1178 l
112.673 93.6448 l
113.379 93.0365 l
114.614 92.2208 l
114.966 92.1185 l
116.73 91.0886 l
117.083 90.93 l
118.847 90.0118 l
124.315 89.17 l
125.021 88.7626 l
127.49 87.3686 l
128.549 87.0375 l
129.607 86.9489 l
130.313 86.6893 l
131.195 86.1285 l
132.077 85.6015 l
132.959 85.056 l
134.194 84.5608 l
134.546 84.4343 l
135.252 84.1041 l
136.134 83.9528 l
137.192 83.3193 l
137.898 83.1627 l
139.133 82.9631 l
140.015 82.6715 l
143.543 81.7609 l
146.541 81.4398 l
147.071 81.1099 l
147.6 80.8859 l
156.243 78.8622 l
159.595 78.6294 l
160.3 78.6118 l
164.887 78.5578 l
165.945 78.5919 l
169.473 78.3675 l
170.002 78.2758 l
173.706 78.128 l
174.588 78.1509 l
177.411 78.1673 l
180.233 78.2644 l
181.644 78.3508 l
182.703 78.3234 l
187.289 78.2071 l
197.696 78.1617 l
199.46 78.1863 l
205.634 78.1494 l
208.457 78.0468 l
222.216 77.9254 l
227.86 77.9951 l
233.505 78.1174 l
237.386 78.0636 l
239.502 78.0789 l
269.137 78.4023 l
272.489 78.4938 l
276.193 78.5702 l
286.424 78.7658 l
303.534 79.1405 l
309.356 79.1627 l
313.765 79.2322 l
319.763 79.3455 l
324.878 79.4871 l
326.995 79.5027 l
330.7 79.5267 l
334.051 79.6777 l
348.516 79.971 l
351.338 79.9313 l
359.805 79.9186 l
362.098 79.9291 l
374.27 79.9297 l
376.386 79.8507 l
386.617 79.8906 l
389.792 79.8525 l
391.733 79.8656 l
404.61 80.0364 l
406.903 80.0717 l
412.371 80.1672 l
415.37 80.2345 l
428.776 80.6961 l
430.893 80.6798 l
432.657 80.7525 l
433.892 80.7578 l
447.827 79.9598 l
448.885 79.9826 l
452.766 79.7444 l
459.116 79.4384 l
461.762 79.4749 l
467.407 79.257 l
471.288 79.273 l
472.875 79.3031 l
475.698 79.3151 l
489.633 79.5644 l
493.69 79.5604 l
495.631 79.5672 l
498.277 79.6221 l
500.04 79.6565 l
507.449 79.7593 l
508.86 79.769 l
511.33 79.7803 l
519.091 79.7158 l
526.5 79.914 l
526.5 79.914 l
stroke
grestore
gsave
453.4 220.1 73.12 44.01 clipbox
89.036 168.489 m
89.2124 168.489 l
89.3888 223.253 l
89.7416 143.689 l
89.918 168.489 l
90.0944 170.892 l
90.4472 153.262 l
90.6236 152.43 l
90.8 154.311 l
90.9764 154.14 l
91.5055 156.094 l
91.8583 157.406 l
92.0347 159.891 l
92.2111 160.642 l
92.3875 160.424 l
92.5639 160.503 l
93.0931 158.021 l
95.5627 139.277 l
96.621 133.471 l
97.3266 130.792 l
98.0322 129.729 l
98.7378 127.383 l
99.267 126.3 l
99.4434 126.17 l
99.6198 126.197 l
99.7962 125.999 l
100.149 125.156 l
100.325 125.042 l
100.678 124.39 l
102.089 119.944 l
102.442 118.687 l
104.206 114.689 l
104.559 113.603 l
105.088 112.119 l
105.264 111.536 l
105.441 111.415 l
105.794 110.598 l
106.499 108.898 l
107.381 107.366 l
108.087 106.359 l
109.674 104.878 l
110.556 102.966 l
110.733 102.767 l
112.144 99.8535 l
112.673 99.4771 l
113.202 98.8828 l
114.79 97.9585 l
115.143 97.8939 l
115.496 97.6107 l
115.672 97.5693 l
116.025 97.2751 l
117.259 96.8173 l
117.789 96.3038 l
118.494 95.8802 l
118.847 95.6338 l
120.258 95.3851 l
120.611 95.3165 l
120.964 95.1779 l
122.199 94.8937 l
122.904 95.0148 l
123.257 94.8483 l
123.963 94.9003 l
124.315 94.6926 l
125.021 94.1131 l
125.727 93.8267 l
128.372 92.5781 l
129.431 92.7162 l
131.548 91.8481 l
134.017 90.3065 l
134.546 90.0454 l
134.899 89.7566 l
136.134 89.5277 l
137.369 88.6294 l
139.309 88.3141 l
140.191 88.0144 l
141.249 87.7649 l
141.955 87.4605 l
142.484 87.2859 l
143.543 86.9806 l
143.719 86.9345 l
144.072 86.9798 l
144.601 86.9686 l
144.954 87.0349 l
146.365 86.9302 l
148.305 85.9029 l
149.716 85.6794 l
150.422 85.1884 l
153.421 84.1933 l
154.479 83.88 l
155.538 83.6217 l
159.242 83.2027 l
160.829 83.1419 l
162.417 83.0981 l
164.005 83.1302 l
164.887 83.181 l
166.298 83.2105 l
169.297 82.9996 l
170.531 82.8357 l
171.942 82.7737 l
180.762 82.8521 l
181.997 82.9435 l
183.232 82.8923 l
185.525 82.7742 l
201.577 82.7533 l
202.988 82.6489 l
203.87 82.6268 l
205.811 82.6473 l
207.222 82.5623 l
217.806 82.328 l
220.628 82.3713 l
230.506 82.5713 l
232.623 82.6359 l
234.034 82.5855 l
235.798 82.512 l
244.089 82.5027 l
245.676 82.5259 l
253.438 82.592 l
256.437 82.6297 l
258.024 82.6287 l
261.728 82.6241 l
265.433 82.7056 l
279.897 83.0206 l
282.367 83.05 l
286.248 83.2239 l
291.187 83.4129 l
293.127 83.4317 l
296.831 83.4819 l
302.123 83.574 l
304.593 83.5744 l
308.121 83.5396 l
309.179 83.5909 l
310.943 83.618 l
318.705 83.8 l
322.233 83.8926 l
324.526 83.9776 l
325.76 83.9801 l
332.993 84.1436 l
334.933 84.1765 l
336.697 84.2081 l
344.106 84.435 l
350.103 84.397 l
352.926 84.4285 l
354.337 84.4363 l
357.865 84.408 l
361.745 84.459 l
363.509 84.4642 l
374.093 84.4265 l
376.563 84.2462 l
377.445 84.1877 l
379.561 84.1815 l
383.089 84.1628 l
385.383 84.2504 l
387.323 84.2447 l
393.673 84.1797 l
397.378 84.3099 l
402.669 84.4353 l
406.903 84.4272 l
412.371 84.5263 l
414.135 84.5704 l
416.958 84.6512 l
420.486 84.8591 l
421.897 84.9416 l
434.597 85.0833 l
436.008 84.9487 l
438.654 84.847 l
440.066 84.7184 l
441.653 84.6339 l
442.359 84.5854 l
447.121 84.253 l
449.415 84.35 l
452.061 84.2247 l
453.295 84.1063 l
457.705 83.8249 l
459.646 83.7738 l
475.698 83.6992 l
484.518 84.035 l
485.929 83.9562 l
488.575 84.0066 l
492.808 83.9647 l
516.445 84.2359 l
520.679 84.211 l
525.794 84.3893 l
526.5 84.4065 l
526.5 84.4065 l
stroke
grestore
gsave
453.4 220.1 73.12 44.01 clipbox
89.036 168.489 m
89.2124 168.489 l
89.3888 188.344 l
89.5652 136.769 l
89.7416 119.663 l
89.918 168.489 l
90.0944 168.262 l
90.2708 154.058 l
90.4472 180.46 l
90.8 192.239 l
91.1527 194.225 l
91.5055 193.348 l
91.8583 191.713 l
92.0347 192.227 l
92.3875 196.836 l
92.5639 197.133 l
93.0931 193.919 l
93.7987 185.647 l
94.6807 180.639 l
94.8571 181.375 l
95.0335 181.174 l
95.2099 180.463 l
95.3863 180.787 l
95.5627 180.374 l
95.9155 180.876 l
96.0919 181.418 l
96.4447 183.197 l
96.7974 184.337 l
96.9738 185.434 l
97.1502 185.818 l
97.503 188.786 l
97.8558 193.034 l
98.2086 197.667 l
98.385 198.699 l
99.267 210.122 l
99.9726 219.841 l
100.325 224.908 l
100.855 233.585 l
102.442 265.441 l
103.276 294.4 l
103.276 294.4 l
stroke
grestore
gsave
453.4 220.1 73.12 44.01 clipbox
89.036 168.489 m
89.2124 168.489 l
89.3888 265.774 l
89.7416 144.999 l
90.0944 94.114 l
90.2708 84.9342 l
90.4472 168.489 l
90.8 168.255 l
91.1527 166.928 l
91.5055 167.39 l
91.6819 167.393 l
91.8583 167.088 l
92.3875 146.867 l
92.7403 139.159 l
93.4459 128.723 l
93.7987 125.048 l
94.6807 118.446 l
95.7391 112.7 l
96.2683 110.43 l
96.9738 107.412 l
97.8558 105.244 l
98.2086 104.218 l
99.0906 102.702 l
99.7962 101.882 l
101.56 99.4086 l
102.266 97.7514 l
102.795 97.0274 l
103.324 96.5601 l
104.03 96.0692 l
104.735 95.2491 l
105.441 94.2375 l
105.97 93.3324 l
106.852 92.4304 l
107.381 92.2136 l
108.44 91.5427 l
108.969 91.1425 l
109.498 90.3708 l
110.204 89.7237 l
110.909 89.1493 l
111.615 88.4869 l
112.32 87.8104 l
112.673 87.6091 l
113.732 86.92 l
116.377 85.8048 l
117.083 85.1777 l
117.789 84.7396 l
119.023 84.355 l
122.375 83.9353 l
123.963 83.8139 l
125.021 83.2647 l
129.078 81.3469 l
129.784 81.2869 l
130.842 80.8036 l
131.371 80.3834 l
132.077 79.758 l
133.135 79.2147 l
136.84 77.9652 l
137.721 77.6987 l
140.015 77.2422 l
144.601 76.1469 l
145.659 76.1129 l
146.365 75.8413 l
147.776 75.141 l
152.362 74.1545 l
157.478 73.3464 l
159.595 73.2668 l
160.829 73.2543 l
162.241 73.1919 l
169.297 72.9591 l
173.001 72.7693 l
177.411 72.7493 l
180.41 72.7922 l
185.525 72.7025 l
195.756 72.6484 l
198.755 72.6233 l
232.447 72.4202 l
233.858 72.4021 l
236.68 72.3637 l
283.602 72.9475 l
294.891 73.1362 l
298.066 73.1837 l
303.005 73.3037 l
304.593 73.33 l
306.886 73.2853 l
309.532 73.3061 l
314.295 73.3588 l
320.116 73.4232 l
341.46 73.9805 l
344.282 74.0473 l
355.572 74.1667 l
358.394 74.1208 l
361.04 74.1742 l
394.732 74.09 l
400.905 74.2592 l
406.021 74.1574 l
421.191 74.461 l
424.19 74.4922 l
426.13 74.5253 l
429.305 74.6 l
435.126 74.5371 l
436.89 74.3909 l
439.007 74.234 l
440.066 74.1318 l
454.177 73.5187 l
455.412 73.517 l
459.116 73.3562 l
463.703 73.4034 l
464.761 73.3114 l
470.053 73.3155 l
471.817 73.3644 l
477.462 73.2922 l
488.222 73.4126 l
492.808 73.3333 l
495.631 73.355 l
498.1 73.3887 l
526.5 73.5854 l
526.5 73.5854 l
stroke
grestore
gsave
453.4 220.1 73.12 44.01 clipbox
89.2124 168.489 m
89.3821 294.4 l
89.3981 294.4 m
89.5652 206.448 l
89.7416 165.022 l
89.918 168.489 l
90.0944 162.899 l
90.2708 149.878 l
90.6236 168.873 l
90.8 173.12 l
90.9764 171.096 l
91.1527 171.112 l
91.5055 170.252 l
91.8583 169.397 l
92.0347 168.489 l
92.2111 168.596 l
92.3875 168.492 l
92.7403 167.534 l
92.9167 166.79 l
93.2695 163.161 l
94.1515 152.037 l
94.8571 144.356 l
96.2683 130.711 l
97.1502 124.42 l
97.6794 121.752 l
98.2086 119.966 l
99.7962 115.646 l
100.149 114.845 l
101.207 112.147 l
102.089 110.13 l
102.795 108.582 l
103.677 107.339 l
105.617 103.686 l
106.499 102.393 l
106.852 101.921 l
107.381 100.995 l
108.616 99.4866 l
108.792 99.3619 l
109.674 98.2108 l
110.733 97.0852 l
111.968 95.3213 l
113.026 94.4277 l
113.908 93.8669 l
116.201 92.5977 l
119.2 91.0387 l
120.964 90.7991 l
122.375 90.5665 l
124.668 90.2721 l
125.903 89.497 l
126.785 88.8123 l
128.196 87.9744 l
128.902 87.7657 l
129.254 87.6782 l
130.313 87.1905 l
131.724 86.1163 l
132.959 85.2665 l
134.194 84.7605 l
136.134 84.13 l
137.721 83.462 l
138.78 83.2954 l
139.133 83.2772 l
140.897 82.6974 l
142.484 82.1119 l
143.895 81.8033 l
145.307 81.7 l
146.189 81.5901 l
149.187 80.3362 l
150.951 80.02 l
153.068 79.4663 l
155.361 78.9312 l
158.007 78.6336 l
164.887 78.3641 l
166.298 78.3322 l
170.002 78.1569 l
173.354 78.0069 l
178.998 78.0433 l
182.703 78.0771 l
194.345 77.9015 l
196.462 77.899 l
199.813 77.8686 l
203.694 77.8185 l
232.447 77.6411 l
233.329 77.625 l
235.269 77.5562 l
244.265 77.6108 l
246.735 77.6449 l
257.319 77.7881 l
299.301 78.7372 l
299.83 78.7849 l
310.767 78.7969 l
330.876 79.2223 l
338.637 79.4988 l
340.931 79.5366 l
356.277 79.8776 l
358.394 79.8565 l
362.098 79.9099 l
371.271 79.8337 l
374.799 79.8415 l
376.386 79.8481 l
382.56 79.7389 l
384.501 79.8132 l
397.554 79.9916 l
402.14 80.0574 l
404.963 80.0221 l
408.314 80.0836 l
412.018 80.1516 l
414.664 80.1835 l
417.84 80.286 l
422.602 80.4675 l
426.836 80.5741 l
428.953 80.6273 l
431.951 80.6781 l
434.597 80.6429 l
436.714 80.4208 l
442.535 79.9998 l
443.77 79.8895 l
448.003 79.7303 l
449.238 79.7005 l
452.59 79.4301 l
454.001 79.3511 l
455.059 79.3743 l
461.41 79.1622 l
462.644 79.2144 l
463.526 79.1733 l
465.467 79.036 l
472.523 79.0678 l
474.287 79.0462 l
475.874 79.0428 l
477.285 79.0487 l
480.46 79.0946 l
489.28 79.2607 l
492.985 79.1859 l
495.101 79.2258 l
498.453 79.2828 l
500.746 79.2894 l
506.744 79.3615 l
507.978 79.411 l
526.5 79.5205 l
526.5 79.5205 l
stroke
grestore
gsave
453.4 220.1 73.12 44.01 clipbox
89.2124 168.489 m
89.3888 255.228 l
89.5652 167.672 l
89.7416 137.607 l
89.918 168.489 l
90.0944 164.91 l
90.4472 138.193 l
90.6236 135.27 l
90.8 136.066 l
90.9764 135.321 l
91.6819 137.275 l
91.8583 137.344 l
92.0347 168.489 l
92.2111 168.537 l
92.3875 168.412 l
93.6223 148.975 l
94.3279 141.891 l
95.0335 135.856 l
95.5627 132.654 l
96.621 126.653 l
97.3266 123.908 l
99.267 120.285 l
99.4434 120.094 l
102.089 113.696 l
102.442 112.708 l
103.853 110.253 l
104.912 107.172 l
106.323 104.234 l
107.028 103.016 l
108.087 101.015 l
108.792 100.374 l
109.322 99.5361 l
109.851 98.8967 l
111.791 95.6734 l
112.144 95.1798 l
112.673 94.8094 l
113.732 93.9842 l
115.496 92.7768 l
115.672 92.7105 l
116.201 92.2558 l
118.671 90.941 l
119.023 90.8499 l
120.258 90.6787 l
121.14 90.5042 l
122.022 90.2489 l
123.963 90.0536 l
124.492 89.7767 l
125.021 89.3756 l
125.55 89.0437 l
127.314 87.8996 l
128.02 87.5995 l
128.549 87.459 l
129.254 87.3915 l
129.96 87.1185 l
133.841 84.6896 l
135.781 83.9991 l
136.31 83.7918 l
137.721 83.2197 l
139.309 82.9344 l
143.719 81.5435 l
144.954 81.4755 l
146.365 81.2623 l
149.011 80.1515 l
149.893 79.9814 l
150.598 79.7276 l
151.833 79.3597 l
153.244 78.9076 l
155.361 78.4158 l
159.242 78.1196 l
167.533 77.9613 l
169.473 77.8243 l
170.179 77.763 l
175.823 77.647 l
186.583 77.6073 l
189.053 77.5937 l
192.405 77.5258 l
195.58 77.5177 l
197.696 77.4464 l
199.284 77.4836 l
203.165 77.4725 l
205.634 77.4479 l
211.103 77.3349 l
224.509 77.2119 l
234.563 77.1393 l
237.209 77.1165 l
239.855 77.1371 l
247.617 77.1485 l
249.381 77.2331 l
259.082 77.213 l
260.67 77.2519 l
263.492 77.3335 l
283.249 77.7297 l
285.718 77.7899 l
308.121 78.0803 l
310.414 78.1288 l
312.884 78.1759 l
318.352 78.2703 l
320.292 78.2832 l
324.526 78.3935 l
326.29 78.4582 l
334.58 78.6716 l
336.697 78.6934 l
340.578 78.8043 l
342.165 78.8917 l
344.459 78.9241 l
348.868 78.9963 l
351.514 78.9685 l
358.394 78.9454 l
361.216 78.9862 l
376.563 78.8584 l
377.974 78.8232 l
380.973 78.7872 l
383.089 78.7768 l
386.265 78.8552 l
400.553 79.0747 l
401.964 79.0388 l
403.728 79.0108 l
413.077 79.1178 l
434.421 79.4773 l
436.185 79.2925 l
438.302 79.1465 l
440.948 78.9205 l
442.535 78.8576 l
443.241 78.7703 l
447.827 78.5944 l
448.709 78.5854 l
452.237 78.4045 l
453.119 78.3214 l
460.351 78.0478 l
462.821 78.1031 l
464.408 77.9081 l
480.46 77.9454 l
486.811 78.0783 l
490.339 78.0104 l
492.808 77.9817 l
498.1 78.0538 l
511.859 78.1948 l
518.915 78.1187 l
526.5 78.2964 l
526.5 78.2964 l
stroke
grestore
gsave
453.4 220.1 73.12 44.01 clipbox
89.2124 168.489 m
89.3888 243.821 l
89.5652 165.316 l
89.7416 136.467 l
89.918 168.489 l
90.0944 168.751 l
90.2708 159.407 l
90.4472 136.884 l
90.6236 130.514 l
90.8 129.084 l
90.9764 126.515 l
91.1527 126.25 l
91.3291 125.485 l
91.6819 124.919 l
91.8583 124.641 l
92.0347 124.975 l
92.7403 120.91 l
96.2683 98.2789 l
96.621 96.7866 l
97.6794 93.6343 l
98.0322 92.7554 l
98.5614 91.2549 l
99.4434 89.904 l
99.7962 89.7583 l
100.502 88.9181 l
101.207 88.0613 l
103.148 85.0709 l
103.853 84.2949 l
104.206 83.6705 l
104.559 83.1476 l
105.088 82.478 l
105.441 82.1454 l
105.97 81.5077 l
106.499 80.9107 l
107.91 79.9042 l
108.616 79.7693 l
109.851 79.0941 l
110.556 78.4915 l
111.086 78.0861 l
113.026 76.4401 l
114.614 75.8177 l
115.672 75.5341 l
116.377 75.265 l
116.907 75.1689 l
118.847 74.3348 l
120.258 74.0602 l
125.903 73.4167 l
127.843 72.7135 l
128.549 72.5553 l
130.313 72.4224 l
132.253 71.8706 l
132.959 71.5754 l
135.605 70.8838 l
136.134 70.7793 l
137.545 70.2076 l
138.603 70.0882 l
139.309 69.9815 l
140.72 69.7308 l
141.779 69.6032 l
144.072 69.2521 l
145.307 69.2525 l
146.541 69.1151 l
147.247 68.8189 l
148.482 68.5392 l
149.893 68.3355 l
150.422 68.228 l
152.186 68.1537 l
153.068 68.0077 l
154.832 67.6805 l
157.478 67.4979 l
161.359 67.2713 l
164.534 67.2865 l
166.474 67.3297 l
169.473 67.2362 l
170.179 67.1495 l
174.588 66.9962 l
178.822 67.0048 l
184.643 67.0582 l
188.877 67.0567 l
191.523 67.0708 l
199.637 67.1235 l
205.458 67.0856 l
207.575 67.0539 l
211.279 66.9843 l
213.219 66.9336 l
217.982 66.9255 l
226.096 66.9686 l
230.153 67.0575 l
232.094 67.0905 l
233.858 67.1241 l
236.151 67.0927 l
240.208 67.0958 l
247.969 67.0899 l
250.792 67.1534 l
253.085 67.1616 l
259.259 67.1665 l
270.019 67.2996 l
279.721 67.3913 l
282.367 67.3979 l
287.306 67.5453 l
298.243 67.6683 l
303.358 67.7487 l
309.179 67.7607 l
313.942 67.824 l
317.47 67.8297 l
327.348 67.9627 l
332.287 68.0176 l
338.108 68.122 l
354.16 68.2542 l
358.747 68.2366 l
366.508 68.2861 l
372.153 68.2385 l
376.563 68.197 l
381.502 68.1489 l
400.024 68.3209 l
404.433 68.2908 l
406.374 68.272 l
422.073 68.5983 l
434.597 68.8707 l
436.714 68.7835 l
438.654 68.7455 l
444.299 68.4422 l
456.647 68.2765 l
471.817 68.0796 l
476.051 68.0897 l
482.401 68.2361 l
484.341 68.3085 l
488.222 68.2956 l
498.1 68.3025 l
502.51 68.3379 l
512.212 68.4024 l
526.5 68.5159 l
526.5 68.5159 l
stroke
grestore
gsave
453.4 220.1 73.12 44.01 clipbox
89.2124 168.489 m
89.3888 251.824 l
89.5652 165.679 l
89.7416 139.135 l
89.918 168.489 l
90.0944 166.281 l
90.2708 156.329 l
90.6236 130.892 l
91.3291 119.628 l
91.6819 118.342 l
91.8583 118.038 l
92.0347 118.139 l
92.5639 117.592 l
92.7403 117.438 l
93.2695 116.25 l
93.7987 114.591 l
94.3279 112.584 l
96.4447 106.6 l
97.1502 104.412 l
97.6794 103.276 l
98.2086 102.132 l
98.385 101.987 l
98.9142 101.233 l
102.795 97.2804 l
103.677 96.8176 l
104.206 96.5157 l
105.088 95.6422 l
105.794 94.9092 l
106.852 94.0672 l
107.205 93.833 l
110.204 91.1502 l
110.733 90.7454 l
111.615 90.1325 l
112.497 89.5545 l
116.907 87.5115 l
117.612 87.0943 l
118.671 86.7404 l
119.905 86.5756 l
121.846 86.4322 l
124.315 86.3383 l
124.845 86.2047 l
126.609 85.3612 l
128.02 84.545 l
129.254 84.1572 l
130.136 83.993 l
133.488 81.9211 l
134.194 81.7143 l
135.781 81.2427 l
137.721 80.584 l
138.78 80.443 l
139.485 80.3038 l
140.897 79.884 l
142.308 79.4035 l
143.719 79.0609 l
144.954 78.8953 l
146.012 78.7928 l
146.541 78.572 l
147.423 78.1215 l
149.187 77.5982 l
152.362 77.0132 l
156.949 76.2063 l
160.477 76.1025 l
162.946 76.0416 l
164.534 75.8899 l
172.119 75.6494 l
173.883 75.5983 l
182.35 75.6421 l
186.231 75.5053 l
196.638 75.4045 l
199.813 75.3839 l
215.512 75.1848 l
225.038 75.0907 l
226.449 75.0916 l
235.269 75.0679 l
244.618 75.0972 l
249.204 75.1739 l
254.32 75.1271 l
261.376 75.2229 l
307.062 76.0609 l
309.708 76.0848 l
334.051 76.5813 l
338.637 76.6896 l
341.107 76.7378 l
342.871 76.8381 l
356.277 76.9499 l
358.217 76.8989 l
360.687 76.9542 l
372.506 76.8667 l
373.74 76.9159 l
379.561 76.8329 l
383.266 76.7649 l
389.087 76.8281 l
394.202 76.8821 l
404.61 76.9625 l
408.491 77.0098 l
411.489 77.0653 l
417.487 77.1284 l
424.19 77.3112 l
425.954 77.3217 l
428.776 77.4187 l
431.422 77.4183 l
434.068 77.4471 l
436.008 77.2456 l
441.3 76.845 l
443.417 76.7572 l
454.53 76.2661 l
456.823 76.16 l
459.116 76.101 l
464.585 76.0671 l
468.289 76.048 l
476.403 75.995 l
479.755 76.0262 l
485.752 76.1518 l
496.513 76.1127 l
505.509 76.2289 l
526.5 76.3509 l
526.5 76.3509 l
stroke
grestore
gsave
453.4 220.1 73.12 44.01 clipbox
89.2124 168.489 m
89.3349 294.4 l
89.4595 294.4 m
89.5652 211.59 l
89.7416 169.294 l
89.918 168.489 l
90.0944 164.841 l
90.6236 142.352 l
91.3291 135.473 l
91.6819 133.714 l
91.8583 133.438 l
92.0347 168.489 l
92.2111 168.782 l
92.3875 169.471 l
92.7403 171.839 l
92.9167 172.468 l
93.0931 172.151 l
93.2695 171.454 l
93.4459 169.78 l
93.6223 170.399 l
93.7987 169.014 l
94.1515 164.96 l
94.3279 163.515 l
94.6807 159.181 l
96.0919 142.34 l
96.621 136.234 l
98.0322 127 l
98.5614 125.314 l
99.6198 122.285 l
99.9726 121.512 l
100.502 120.269 l
101.207 118.953 l
101.913 118.294 l
102.266 117.997 l
102.795 116.942 l
103.148 116.465 l
103.677 115.087 l
104.912 113.454 l
105.794 112.513 l
106.146 112.518 l
108.263 110.872 l
108.44 110.74 l
109.145 109.551 l
109.851 108.601 l
110.556 108.184 l
110.909 107.588 l
113.026 104.931 l
113.379 104.54 l
114.261 104.006 l
114.614 103.822 l
115.143 103.314 l
115.496 103.156 l
115.848 102.794 l
116.377 102.383 l
117.083 101.504 l
117.789 100.947 l
118.141 100.634 l
118.494 100.338 l
119.023 100.162 l
119.729 99.8857 l
120.964 99.6508 l
121.669 99.5284 l
122.375 99.3053 l
122.904 99.1025 l
123.786 99.2187 l
124.668 99.2934 l
125.374 99.0669 l
126.079 98.0832 l
128.196 96.1285 l
128.902 95.7291 l
129.078 95.7496 l
131.548 93.6806 l
132.253 93.0309 l
133.664 92.1907 l
135.428 91.5518 l
137.545 90.3314 l
138.074 90.1274 l
138.427 90.1039 l
138.78 90.0818 l
139.133 90.083 l
139.662 89.8705 l
140.015 89.734 l
141.426 88.9682 l
142.131 88.766 l
144.777 87.8894 l
146.189 87.6859 l
148.482 86.3167 l
149.364 85.9971 l
150.069 85.8816 l
153.597 85.1475 l
154.126 84.9628 l
155.361 84.7569 l
156.772 84.415 l
159.242 84.2792 l
160.653 84.2613 l
163.652 84.0332 l
165.063 83.9449 l
167.885 83.9953 l
168.944 83.9921 l
170.531 83.7 l
171.942 83.673 l
174.941 83.5351 l
179.175 83.5577 l
182.35 83.6069 l
186.583 83.3625 l
189.935 83.4258 l
195.58 83.4149 l
196.638 83.4163 l
216.924 83.0402 l
234.563 82.9943 l
236.504 83.0006 l
240.737 83.0465 l
248.851 83.2036 l
251.497 83.272 l
272.312 83.7919 l
294.009 84.4652 l
296.831 84.5353 l
303.182 84.7413 l
306.533 84.7336 l
308.65 84.6648 l
313.765 84.7762 l
315.706 84.7712 l
332.64 85.4103 l
335.815 85.5585 l
341.107 85.6929 l
342.342 85.8153 l
346.575 86.0035 l
348.692 86.1014 l
351.338 86.1577 l
352.926 86.2473 l
353.984 86.3445 l
355.572 86.3522 l
358.041 86.2905 l
371.8 86.3495 l
377.445 86.5007 l
381.502 86.3786 l
387.147 86.5013 l
391.909 86.4766 l
397.025 86.6587 l
398.789 86.7498 l
401.082 86.855 l
404.786 86.7631 l
408.138 86.8256 l
433.186 87.6599 l
436.714 87.1882 l
439.184 86.839 l
440.418 86.7203 l
442.006 86.6654 l
443.417 86.5071 l
446.945 86.2894 l
448.356 86.2255 l
454.177 85.7915 l
454.707 85.8065 l
456.823 85.5759 l
457.705 85.5535 l
464.232 85.4211 l
465.29 85.3767 l
467.583 85.3406 l
468.465 85.3255 l
470.582 85.4293 l
472.699 85.4158 l
476.227 85.3782 l
477.462 85.3977 l
485.4 85.5706 l
486.105 85.553 l
487.693 85.6668 l
488.927 85.5932 l
493.161 85.4428 l
494.572 85.5057 l
496.513 85.465 l
499.511 85.5499 l
501.275 85.5397 l
502.157 85.5405 l
504.098 85.5431 l
511.33 85.5882 l
514.858 85.6496 l
515.74 85.6324 l
522.266 85.7201 l
526.5 85.7594 l
526.5 85.7594 l
stroke
grestore
gsave
453.4 220.1 73.12 44.01 clipbox
89.2124 168.489 m
89.3888 168.489 l
89.5652 235.803 l
90.0944 107.75 l
90.4472 87.9482 l
90.6236 87.0504 l
90.8 87.0634 l
90.9764 86.4396 l
91.8583 86.2435 l
92.0347 168.489 l
92.2111 168.442 l
92.3875 168.543 l
92.7403 167.223 l
92.9167 166.25 l
93.2695 162.997 l
93.4459 162.063 l
94.3279 155.017 l
95.5627 145.637 l
96.0919 141.573 l
97.3266 133.255 l
97.6794 131.125 l
98.2086 129.192 l
98.7378 126.929 l
99.0906 126.122 l
99.9726 123.253 l
103.853 114.313 l
104.383 112.72 l
106.146 109.727 l
107.558 108.548 l
108.087 108.465 l
108.44 108.514 l
108.616 108.478 l
108.969 108.073 l
109.851 106.729 l
110.38 106.21 l
110.556 106.008 l
111.086 105.073 l
111.968 103.451 l
113.379 100.996 l
114.614 99.2478 l
115.143 98.4588 l
116.554 96.752 l
117.259 95.7818 l
119.023 94.0111 l
119.376 93.7814 l
120.787 92.8917 l
122.022 92.2617 l
123.433 91.3996 l
124.139 91.0948 l
125.374 90.4749 l
126.785 89.4045 l
128.902 87.8484 l
131.018 87.0945 l
132.959 85.7827 l
134.37 85.1976 l
134.899 84.9736 l
136.31 84.2642 l
138.427 83.1001 l
140.191 82.4404 l
143.719 81.3798 l
146.894 80.6765 l
148.305 80.2556 l
150.598 79.7289 l
151.833 79.5099 l
157.831 78.0779 l
164.357 77.4836 l
167.003 77.3982 l
169.297 77.2473 l
171.413 77.0466 l
172.472 76.9607 l
174.941 76.8688 l
177.764 76.8973 l
183.408 77.0146 l
185.878 76.8968 l
188.524 76.8705 l
196.991 76.8064 l
201.048 76.7146 l
202.459 76.717 l
210.573 76.5276 l
212.514 76.4599 l
215.689 76.3449 l
227.507 76.1259 l
239.679 76.2112 l
249.204 76.335 l
256.084 76.4157 l
260.141 76.4392 l
273.547 76.7382 l
276.899 76.8299 l
280.25 76.8359 l
293.303 77.201 l
298.243 77.2595 l
303.005 77.3868 l
305.475 77.4079 l
306.886 77.3492 l
309.532 77.3665 l
320.645 77.5634 l
324.702 77.6739 l
326.995 77.7501 l
336.873 78.0661 l
338.108 78.1073 l
341.46 78.1518 l
344.811 78.2554 l
379.209 78.9921 l
381.678 78.909 l
387.147 78.988 l
395.79 79.0201 l
397.025 79.048 l
400.729 79.1649 l
403.022 79.0531 l
406.374 79.0583 l
413.606 79.1652 l
424.719 79.5541 l
426.307 79.6136 l
428.776 79.7337 l
430.893 79.7372 l
432.481 79.8399 l
433.715 79.9324 l
435.126 79.9165 l
470.229 78.6351 l
472.17 78.6177 l
478.52 78.6527 l
483.283 78.7868 l
489.633 78.9098 l
495.278 78.8661 l
501.099 78.8881 l
502.686 78.8861 l
507.626 78.9198 l
510.095 78.9021 l
514.858 78.9372 l
526.5 78.9925 l
526.5 78.9925 l
stroke
grestore
gsave
453.4 220.1 73.12 44.01 clipbox
89.2124 168.489 m
89.3888 168.489 l
89.5652 210.895 l
89.7416 184.784 l
90.0944 99.0087 l
90.4472 79.8537 l
90.8 77.0564 l
91.1527 75.7108 l
91.5055 74.8689 l
91.8583 74.3798 l
92.2111 74.3149 l
95.3863 73.06 l
97.6794 72.3273 l
98.5614 72.0986 l
100.678 71.7521 l
114.084 70.7431 l
116.907 70.5805 l
119.729 70.3939 l
123.61 70.3962 l
125.903 70.4372 l
131.548 69.999 l
133.135 69.8126 l
136.31 69.6345 l
144.954 69.1856 l
146.541 69.1424 l
147.953 68.9526 l
149.893 68.8539 l
149.893 68.8539 l
stroke
grestore
gsave
453.4 220.1 73.12 44.01 clipbox
89.2124 168.489 m
89.3888 168.489 l
89.5652 216.101 l
90.0944 107.746 l
90.4472 87.5692 l
90.6236 86.7002 l
90.8 86.712 l
90.9764 86.0639 l
91.1527 86.0036 l
91.5055 85.7243 l
91.8583 85.6263 l
92.2111 85.8876 l
92.9167 86.0495 l
93.2695 85.9879 l
94.5043 85.585 l
96.2683 85.3897 l
97.3266 85.1607 l
98.385 84.9776 l
103.853 84.4326 l
104.559 84.4118 l
107.558 84.0437 l
112.85 83.1396 l
117.965 82.4986 l
119.553 82.4329 l
122.199 82.4436 l
123.963 82.4665 l
125.197 82.423 l
126.432 82.2876 l
127.843 82.0796 l
129.078 81.9992 l
130.666 81.9558 l
132.782 81.4885 l
145.307 80.7648 l
146.189 80.763 l
149.54 80.3798 l
150.775 80.3287 l
158.007 79.8988 l
162.946 79.9982 l
165.945 79.9897 l
168.944 80.1083 l
171.59 80.1063 l
190.993 80.5922 l
192.757 80.6052 l
212.867 81.0415 l
222.568 81.2638 l
228.037 81.4041 l
232.27 81.5535 l
234.74 81.6012 l
238.62 81.724 l
247.088 81.9943 l
313.413 84.5168 l
317.117 84.6413 l
320.645 84.7694 l
324.702 84.9598 l
326.995 85.0832 l
354.866 86.3373 l
358.57 86.3852 l
361.922 86.4973 l
368.096 86.5559 l
370.036 86.5677 l
372.682 86.6943 l
374.093 86.745 l
377.974 86.8172 l
379.561 86.8439 l
384.148 86.9403 l
386.441 87.0232 l
397.378 87.3752 l
403.022 87.5242 l
410.078 87.7413 l
412.548 87.8073 l
418.545 88.0578 l
424.366 88.3039 l
426.659 88.3889 l
428.6 88.4609 l
435.479 88.4268 l
443.77 87.9763 l
454.354 87.5207 l
455.236 87.5249 l
458.234 87.4137 l
461.233 87.4963 l
463.703 87.5251 l
464.761 87.4515 l
468.289 87.5099 l
474.992 87.6424 l
479.755 87.7274 l
488.398 88.005 l
493.337 87.9992 l
502.686 88.1804 l
507.449 88.3597 l
509.213 88.3849 l
510.977 88.4332 l
516.093 88.4735 l
519.268 88.524 l
524.736 88.7009 l
526.5 88.7591 l
526.5 88.7591 l
stroke
grestore
gsave
453.4 220.1 73.12 44.01 clipbox
89.2124 168.489 m
89.3888 168.489 l
89.5652 211.684 l
90.2708 90.835 l
90.4472 168.489 l
90.8 168.501 l
90.9764 169.309 l
91.1527 169.555 l
91.3291 170.085 l
91.6819 170.217 l
91.8583 169.958 l
92.2111 154.178 l
92.9167 138.41 l
93.4459 130.935 l
95.0335 119.454 l
95.9155 115.585 l
96.621 112.817 l
97.3266 110.52 l
99.0906 107.653 l
99.7962 106.968 l
100.149 106.697 l
101.031 105.368 l
101.737 104.043 l
102.266 102.497 l
102.971 101.422 l
103.324 101.136 l
103.853 100.94 l
104.206 100.468 l
105.264 98.7841 l
105.794 97.8115 l
106.499 96.8502 l
107.205 96.3287 l
107.91 95.7423 l
108.44 95.1437 l
108.792 95.0699 l
110.556 92.7689 l
111.086 92.1829 l
112.144 90.8666 l
112.85 90.3979 l
113.379 90.001 l
114.79 89.277 l
115.143 89.1528 l
118.494 87.1987 l
119.376 86.9903 l
120.611 86.8375 l
123.257 86.4603 l
123.786 86.5227 l
128.372 84.0613 l
130.313 83.6712 l
131.371 82.8911 l
132.077 82.3026 l
133.312 81.6869 l
136.134 80.7588 l
137.192 80.3546 l
138.074 80.1488 l
139.309 79.9009 l
140.015 79.6781 l
143.543 78.619 l
144.248 78.5442 l
146.365 78.2527 l
148.305 77.4347 l
149.364 77.2052 l
149.893 77.0722 l
150.422 76.8469 l
152.715 76.3313 l
155.714 75.7343 l
157.302 75.5561 l
162.417 75.3759 l
163.475 75.3334 l
166.121 75.2589 l
169.473 75.1178 l
170.531 75.0326 l
174.236 74.9564 l
176.882 74.941 l
180.233 74.9994 l
206.516 74.7216 l
208.28 74.7037 l
256.26 74.6451 l
258.377 74.6697 l
262.258 74.7108 l
291.539 75.307 l
293.656 75.3445 l
299.125 75.4218 l
301.241 75.5099 l
303.358 75.497 l
309.356 75.5195 l
311.825 75.5712 l
314.471 75.5894 l
317.646 75.6534 l
322.409 75.7037 l
348.163 76.382 l
352.396 76.3355 l
356.277 76.3415 l
358.747 76.326 l
361.745 76.3506 l
364.921 76.3147 l
372.329 76.2855 l
373.917 76.3179 l
376.739 76.2139 l
378.15 76.1991 l
393.673 76.2039 l
401.082 76.4126 l
404.786 76.3179 l
408.491 76.3754 l
410.431 76.4171 l
417.84 76.5221 l
424.013 76.6948 l
425.954 76.7182 l
428.071 76.8048 l
432.657 76.8135 l
434.068 76.7982 l
435.126 76.6903 l
437.243 76.5324 l
448.003 75.9131 l
449.415 75.8758 l
451.179 75.7925 l
455.059 75.6224 l
455.941 75.5874 l
459.116 75.4543 l
463.703 75.4747 l
464.761 75.3958 l
479.931 75.4081 l
490.162 75.4762 l
492.808 75.442 l
495.807 75.4572 l
498.453 75.5156 l
509.213 75.6186 l
511.153 75.6401 l
522.266 75.659 l
526.5 75.7158 l
526.5 75.7158 l
stroke
grestore
gsave
453.4 220.1 73.12 44.01 clipbox
89.2124 168.489 m
89.3888 168.489 l
89.5652 227.053 l
90.0944 112.715 l
90.4472 90.5854 l
90.6236 89.4859 l
90.8 89.4657 l
90.9764 88.7685 l
91.1527 88.709 l
91.3291 88.4511 l
91.8583 88.306 l
92.2111 88.5831 l
92.9167 88.7558 l
93.4459 88.6222 l
94.3279 88.2816 l
96.7974 87.8431 l
98.2086 87.4409 l
99.0906 87.3096 l
100.502 87.0305 l
101.913 86.8427 l
104.912 86.3464 l
108.44 85.4454 l
114.261 83.3989 l
119.553 81.9198 l
122.728 81.4393 l
123.963 81.3422 l
125.903 81.0749 l
129.607 80.3359 l
130.666 80.1851 l
134.37 79.3792 l
135.428 79.249 l
138.603 78.8658 l
140.897 78.676 l
143.19 78.3686 l
145.307 78.2893 l
146.189 78.2764 l
149.187 77.805 l
153.597 77.5258 l
155.008 77.4192 l
156.42 77.302 l
158.007 77.2725 l
162.946 77.3222 l
166.298 77.2897 l
172.295 77.3568 l
174.941 77.3902 l
248.499 79.0966 l
259.435 79.3988 l
269.49 79.7596 l
273.194 79.941 l
279.545 80.1603 l
282.72 80.2683 l
286.071 80.4283 l
298.243 80.8853 l
306.18 81.1888 l
310.767 81.2772 l
326.113 81.787 l
328.936 81.9262 l
334.228 82.1853 l
338.637 82.3514 l
341.107 82.4332 l
342.871 82.5478 l
362.804 83.2329 l
397.73 84.0455 l
402.669 84.1789 l
407.609 84.2834 l
434.421 85.189 l
437.42 84.941 l
440.418 84.7231 l
442.888 84.6772 l
446.592 84.525 l
449.944 84.4181 l
453.295 84.1951 l
460.175 84.1514 l
462.468 84.2562 l
464.232 84.1727 l
465.467 84.1524 l
468.818 84.1921 l
470.229 84.2644 l
472.346 84.2911 l
476.58 84.3031 l
490.868 84.6022 l
492.985 84.6087 l
495.101 84.6706 l
526.5 85.3301 l
526.5 85.3301 l
stroke
grestore
gsave
453.4 220.1 73.12 44.01 clipbox
89.2124 168.489 m
89.3888 168.489 l
89.5652 221.542 l
89.7416 197.65 l
89.918 216.842 l
90.2708 137.914 l
90.4472 122.526 l
90.6236 120.094 l
90.8 119.49 l
92.0347 168.489 m
92.5639 169.384 l
92.7403 169.675 l
92.9167 169.466 l
93.0931 169.444 l
93.4459 167.192 l
93.9751 162.142 l
94.3279 158.038 l
96.621 126.736 l
97.3266 120.514 l
98.0322 116.178 l
98.9142 111.984 l
99.4434 110.182 l
99.7962 109.384 l
100.502 107.191 l
101.56 103.896 l
102.442 100.747 l
104.912 94.3415 l
106.146 91.3508 l
107.91 88.0493 l
109.145 86.7205 l
110.027 85.9182 l
111.262 84.3507 l
111.791 83.6769 l
112.144 83.219 l
112.673 82.8405 l
113.202 82.4324 l
114.614 81.7346 l
115.496 81.4707 l
116.907 80.9997 l
118.847 80.0753 l
120.082 79.8455 l
120.611 79.8219 l
121.493 79.7096 l
124.139 79.5882 l
125.021 79.3245 l
125.55 79.1746 l
127.314 78.1636 l
128.902 77.6778 l
129.607 77.5487 l
131.371 76.9047 l
132.782 76.1384 l
133.664 75.7753 l
135.428 75.1595 l
135.958 75.123 l
137.016 74.5122 l
137.545 74.2946 l
138.427 74.1657 l
139.485 74.0076 l
142.308 73.25 l
143.719 72.9502 l
144.072 72.955 l
144.777 72.9511 l
146.365 72.845 l
148.305 72.0028 l
150.951 71.5855 l
151.657 71.4924 l
152.715 71.2156 l
156.067 70.5431 l
158.007 70.3363 l
159.418 70.1987 l
161.006 70.1134 l
162.417 70.1149 l
166.474 70.0985 l
170.002 69.8397 l
171.59 69.7262 l
178.822 69.649 l
183.937 69.6534 l
190.111 69.6171 l
202.988 69.504 l
204.576 69.4895 l
205.987 69.4856 l
208.633 69.4238 l
225.92 69.2301 l
229.624 69.3399 l
232.623 69.4297 l
233.681 69.4033 l
235.975 69.3459 l
240.032 69.3342 l
284.66 69.6285 l
307.415 69.8449 l
308.826 69.8341 l
314.118 69.9024 l
318.881 69.9262 l
324.702 70.0113 l
326.29 70.0013 l
333.698 70.0942 l
346.222 70.27 l
382.207 70.1014 l
383.442 70.1051 l
388.029 70.1572 l
396.496 70.2048 l
401.435 70.3044 l
413.253 70.2921 l
430.893 70.7283 l
436.538 70.6957 l
438.302 70.5846 l
440.242 70.4402 l
444.475 70.2061 l
447.827 70.2011 l
450.297 70.2166 l
451.884 70.1362 l
452.943 70.0189 l
454.53 70.0095 l
455.412 69.9423 l
458.94 69.7081 l
461.233 69.7203 l
464.232 69.577 l
465.82 69.5315 l
471.993 69.5496 l
474.287 69.5173 l
482.577 69.6921 l
484.165 69.7762 l
488.222 69.7507 l
491.221 69.6577 l
493.337 69.6953 l
496.513 69.7069 l
518.562 69.7989 l
521.384 69.8006 l
524.736 69.871 l
526.5 69.8914 l
526.5 69.8914 l
stroke
grestore
gsave
453.4 220.1 73.12 44.01 clipbox
89.2124 168.489 m
89.3888 168.489 l
89.5652 230.463 l
89.918 168.489 l
90.0944 167.935 l
90.2708 165.428 l
90.6236 149.378 l
90.9764 143.111 l
91.3291 140.144 l
91.6819 138.811 l
92.2111 138.01 l
93.0931 136.646 l
93.4459 135.609 l
94.1515 132.688 l
95.3863 126.671 l
96.2683 121.526 l
96.7974 118.994 l
97.3266 116.291 l
98.2086 112.771 l
99.267 109.769 l
99.9726 107.961 l
100.325 107.057 l
100.678 106.041 l
102.619 102.433 l
106.499 97.3834 l
107.381 96.0937 l
108.616 94.7152 l
109.145 94.1196 l
109.851 93.1902 l
110.204 92.8149 l
112.144 90.8033 l
114.261 89.3771 l
115.319 88.9256 l
116.377 88.3269 l
119.2 86.7616 l
120.611 86.4675 l
121.14 86.4148 l
123.257 86.071 l
124.492 86.0307 l
125.197 85.8254 l
129.254 84.0459 l
130.666 83.5539 l
133.664 81.6922 l
135.958 80.8864 l
137.545 80.0709 l
138.956 79.7194 l
139.838 79.4625 l
144.425 77.9188 l
146.541 77.6001 l
147.6 77.0917 l
150.069 76.3966 l
155.185 75.0867 l
158.007 74.6493 l
159.947 74.5527 l
162.417 74.4184 l
176.176 73.7055 l
191.346 73.6681 l
193.11 73.6188 l
197.52 73.5901 l
232.447 73.185 l
234.74 73.118 l
237.915 73.1008 l
244.618 73.0808 l
251.85 73.173 l
291.716 73.7739 l
295.597 73.7874 l
298.419 73.8525 l
307.592 73.9679 l
309.532 73.9906 l
314.647 74.0122 l
321.703 74.0373 l
328.23 74.2265 l
330.523 74.2749 l
355.748 74.8462 l
381.855 74.6295 l
383.971 74.6464 l
387.499 74.6894 l
394.026 74.7143 l
402.669 74.8599 l
406.197 74.8082 l
411.313 74.8872 l
422.779 75.1361 l
424.19 75.1654 l
426.307 75.1936 l
429.305 75.2661 l
436.714 75.131 l
445.357 74.571 l
447.298 74.4686 l
449.767 74.3758 l
451.708 74.2317 l
453.648 73.9895 l
457.352 73.7667 l
459.293 73.6907 l
462.997 73.7292 l
478.344 73.413 l
489.986 73.5143 l
494.396 73.4381 l
506.744 73.5039 l
508.508 73.5434 l
520.503 73.5282 l
526.5 73.5685 l
526.5 73.5685 l
stroke
grestore
gsave
453.4 220.1 73.12 44.01 clipbox
89.2124 168.489 m
89.3888 168.489 l
89.5652 204.51 l
89.7416 194.695 l
90.0944 99.3824 l
90.2708 87.5495 l
90.4472 168.489 l
90.9764 169.355 l
91.1527 169.185 l
91.5055 168.449 l
91.6819 168.239 l
91.8583 168.258 l
92.0347 168.833 l
92.0347 168.833 l
stroke
grestore
gsave
453.4 220.1 73.12 44.01 clipbox
89.2124 168.489 m
89.3888 168.489 l
89.918 168.489 m
90.0944 165.832 l
90.6236 132.332 l
90.8 131.696 l
90.9764 128.925 l
91.3291 127.566 l
91.6819 127.775 l
91.8583 127.746 l
92.0347 168.489 l
92.5639 169.195 l
93.0931 166.907 l
93.7987 157.373 l
95.3863 133.748 l
96.4447 121.546 l
97.503 114.327 l
98.385 110.387 l
98.9142 108.516 l
99.267 107.522 l
99.7962 106.261 l
100.325 104.816 l
100.855 103.473 l
101.384 102.076 l
102.619 98.6923 l
103.853 96.0937 l
104.735 93.5921 l
105.617 91.6323 l
107.028 89.0746 l
108.44 87.2108 l
110.38 85.3133 l
112.673 82.9387 l
113.379 82.4213 l
116.377 81.0367 l
116.907 80.9352 l
117.965 80.3282 l
119.2 79.9647 l
121.846 79.6753 l
122.551 79.6497 l
123.081 79.5858 l
123.786 79.6051 l
124.139 79.5527 l
126.609 78.4916 l
127.49 78.0074 l
128.549 77.6355 l
129.607 77.5295 l
131.195 76.9259 l
134.37 75.567 l
137.016 74.5701 l
137.545 74.378 l
138.427 74.2627 l
139.309 74.1597 l
141.073 73.6962 l
142.131 73.4447 l
144.072 73.1544 l
145.307 73.1232 l
146.365 73.0318 l
147.776 72.3951 l
149.187 72.14 l
149.893 72.0382 l
150.422 71.884 l
151.833 71.7199 l
152.892 71.4814 l
158.36 70.7007 l
162.417 70.5772 l
164.181 70.5455 l
167.18 70.583 l
168.944 70.5337 l
171.06 70.2642 l
176.882 70.1678 l
183.585 70.245 l
187.995 70.1825 l
209.162 70.0642 l
211.103 70.011 l
222.921 69.9185 l
225.391 69.9134 l
228.566 69.9897 l
230.33 70.0142 l
232.623 70.0925 l
233.858 70.0616 l
236.68 70.0182 l
275.311 70.2686 l
277.075 70.2952 l
283.249 70.3487 l
286.248 70.4139 l
356.63 71.1147 l
358.57 71.1222 l
362.804 71.1396 l
384.148 71.0541 l
386.441 71.0866 l
389.969 71.0278 l
394.202 71.0701 l
401.435 71.2286 l
407.256 71.1564 l
420.662 71.4174 l
423.308 71.5095 l
426.836 71.5717 l
429.482 71.6371 l
437.42 71.5539 l
447.827 71.1106 l
449.591 71.1401 l
452.59 70.9472 l
454.53 70.9388 l
455.941 70.8437 l
457.882 70.6781 l
463.703 70.5807 l
464.585 70.4835 l
469.347 70.4115 l
482.577 70.6211 l
484.341 70.6885 l
488.046 70.6669 l
507.626 70.7588 l
511.683 70.7431 l
524.736 70.779 l
526.5 70.8018 l
526.5 70.8018 l
stroke
grestore
gsave
453.4 220.1 73.12 44.01 clipbox
89.2124 168.489 m
89.3888 168.489 l
89.5652 180.205 l
90.0944 167.098 l
90.4472 149.171 l
90.6236 148.327 l
90.8 148.888 l
90.9764 147.453 l
91.1527 147.044 l
91.5055 145.301 l
91.8583 144.921 l
92.0347 145.014 l
93.0931 141.325 l
95.7391 127.687 l
96.0919 126.279 l
96.7974 122.704 l
97.1502 121.15 l
98.385 116.476 l
99.267 114.236 l
99.7962 113.053 l
99.9726 112.95 l
100.325 112.163 l
101.031 110.703 l
101.737 109.604 l
101.913 109.567 l
102.442 109.04 l
103.501 107.302 l
104.03 106.561 l
104.559 106.161 l
108.263 100.164 l
109.145 98.7164 l
109.851 97.8702 l
112.144 96.7889 l
112.673 96.431 l
114.79 95.4836 l
115.143 95.3245 l
115.496 95.2364 l
116.73 94.3812 l
117.259 93.8897 l
117.789 93.6659 l
118.318 93.3915 l
120.435 93.1444 l
121.493 93.1862 l
124.139 92.9491 l
124.668 93.0408 l
125.903 92.5837 l
126.785 92.1527 l
128.196 91.1174 l
130.489 90.1267 l
131.195 89.4833 l
132.077 88.5877 l
132.959 88.0038 l
133.488 87.7689 l
133.841 87.6259 l
134.37 87.5607 l
135.076 87.3848 l
135.605 87.1291 l
136.31 86.7242 l
138.251 86.0676 l
139.662 85.712 l
144.425 84.0264 l
146.189 83.7379 l
148.834 82.433 l
149.54 82.2219 l
151.304 81.884 l
154.656 81.1534 l
155.89 80.9698 l
157.302 80.7473 l
167.709 80.2484 l
169.297 80.1803 l
173.883 79.8888 l
183.408 79.8051 l
184.467 79.7375 l
192.228 79.6644 l
201.048 79.4876 l
202.636 79.4871 l
218.864 79.3201 l
220.099 79.254 l
221.863 79.2372 l
224.156 79.1799 l
226.978 79.1634 l
233.681 79.1941 l
237.033 79.1682 l
238.973 79.1691 l
252.556 79.2369 l
253.791 79.1992 l
258.024 79.3039 l
264.551 79.3986 l
267.55 79.4327 l
306.18 80.3909 l
309.708 80.366 l
313.236 80.4524 l
316.235 80.3938 l
328.406 80.6927 l
354.337 81.3836 l
358.57 81.3244 l
360.334 81.3738 l
371.094 81.1962 l
379.209 81.3204 l
383.795 81.2202 l
386.265 81.3008 l
388.911 81.3118 l
393.673 81.357 l
400.905 81.5739 l
404.081 81.4806 l
408.667 81.5226 l
413.606 81.5745 l
416.781 81.6119 l
423.837 81.8816 l
425.425 81.8311 l
433.892 82.0395 l
439.007 81.4514 l
439.713 81.3371 l
443.946 81.0471 l
445.005 80.9902 l
451.179 80.6469 l
454.177 80.4628 l
454.883 80.4607 l
457 80.317 l
458.058 80.3088 l
460.351 80.3193 l
463.879 80.3162 l
465.29 80.2249 l
469.877 80.2001 l
471.817 80.2538 l
473.052 80.2155 l
474.639 80.1917 l
478.167 80.0928 l
480.813 80.129 l
482.93 80.2441 l
485.752 80.2549 l
487.34 80.3342 l
489.28 80.2964 l
501.275 80.2659 l
502.51 80.2511 l
515.74 80.3913 l
525.618 80.4571 l
526.5 80.4555 l
526.5 80.4555 l
stroke
grestore
0.133 0.267 0.867 setrgbcolor
gsave
453.4 220.1 73.12 44.01 clipbox
88.154 168.489 m
89.036 168.489 l
89.1426 294.4 l
89.3115 294.4 m
89.3888 230.105 l
89.7416 160.009 l
89.918 168.489 l
90.0944 103.2 l
90.4472 77.6132 l
90.8 70.0932 l
91.1527 66.2957 l
91.6819 63.2115 l
92.2111 62.1163 l
92.9167 61.6247 l
93.7987 60.8958 l
94.8571 60.3393 l
96.0919 59.9049 l
97.8558 59.5631 l
100.325 59.3514 l
106.676 59.22 l
136.663 59.1706 l
151.833 59.1584 l
202.636 59.0557 l
232.799 59.0717 l
248.322 59.0636 l
349.221 59.0088 l
352.926 59.0103 l
391.733 58.9892 l
439.713 59.0289 l
462.115 59.0753 l
466.172 59.0956 l
500.217 59.1994 l
526.5 59.2606 l
526.5 59.2606 l
stroke
grestore
gsave
453.4 220.1 73.12 44.01 clipbox
88.3304 168.489 m
89.036 168.489 l
89.1607 294.4 l
89.3149 294.4 m
89.5652 193.732 l
89.7416 164.851 l
89.918 168.489 l
90.0944 216.502 l
90.2708 228.06 l
90.3759 294.4 l
90.8141 294.4 m
90.9764 259.281 l
91.1527 232.41 l
91.5055 200.619 l
92.0347 168.489 l
92.2111 82.9299 l
92.5639 66.8597 l
92.9167 61.9177 l
93.4459 58.4471 l
93.9751 56.5953 l
94.5043 55.4369 l
95.2099 54.4473 l
95.9155 53.8116 l
96.9738 53.2298 l
98.2086 52.8283 l
99.9726 52.5208 l
102.619 52.3302 l
107.381 52.2493 l
177.764 52.2719 l
201.401 52.2805 l
235.445 52.3132 l
273.371 52.3582 l
311.296 52.3928 l
336.873 52.4112 l
406.727 52.4462 l
465.82 52.5013 l
507.626 52.5715 l
526.5 52.6009 l
526.5 52.6009 l
stroke
grestore
gsave
453.4 220.1 73.12 44.01 clipbox
88.6832 168.489 m
89.2124 168.489 l
89.3078 294.4 l
89.5672 294.4 m
89.7416 83.4231 l
90.0944 68.3587 l
90.4472 63.956 l
90.8 61.8698 l
91.3291 60.2212 l
91.6819 59.4679 l
92.2111 59.0864 l
92.7403 59.3819 l
93.9751 58.8759 l
95.9155 58.3875 l
98.0322 58.0753 l
101.207 57.8466 l
105.794 57.7083 l
123.081 57.6219 l
235.622 57.5464 l
275.84 57.5507 l
311.12 57.5671 l
321.351 57.5643 l
358.57 57.5774 l
421.015 57.6292 l
455.412 57.6815 l
512.917 57.876 l
526.5 57.9151 l
526.5 57.9151 l
stroke
grestore
gsave
453.4 220.1 73.12 44.01 clipbox
88.6832 168.489 m
89.036 168.489 l
89.1438 294.4 l
89.2925 294.4 m
89.3888 198.192 l
89.7416 137.37 l
89.918 168.489 l
90.2708 102.449 l
90.6236 84.6912 l
90.9764 75.9922 l
91.5055 69.7889 l
91.6819 68.4477 l
91.8583 68.435 l
92.0347 168.489 l
92.3875 120.299 l
92.9167 96.4078 l
93.2695 87.7193 l
93.7987 80.3778 l
94.3279 75.9038 l
95.0335 71.9216 l
95.7391 69.1903 l
96.4447 67.3134 l
97.3266 65.543 l
98.2086 64.1886 l
99.267 62.9346 l
100.502 61.8264 l
101.913 60.8768 l
103.677 60.0085 l
105.794 59.2877 l
108.087 58.7554 l
111.791 58.2161 l
115.848 57.8675 l
120.787 57.6515 l
128.372 57.5381 l
154.832 57.5318 l
262.258 57.6941 l
282.367 57.6644 l
303.534 57.6881 l
325.584 57.6775 l
366.332 57.6321 l
424.013 57.6338 l
526.5 57.8308 l
526.5 57.8308 l
stroke
grestore
gsave
453.4 220.1 73.12 44.01 clipbox
88.6832 168.489 m
89.2124 168.489 l
89.3888 100.995 l
89.7416 77.0575 l
90.0944 68.1255 l
90.6236 62.5717 l
91.1527 59.7691 l
91.6819 58.0738 l
91.8583 58.0638 l
92.0347 168.489 l
92.2111 91.3599 l
92.5639 74.1281 l
93.0931 64.8619 l
93.6223 60.8635 l
94.1515 58.6937 l
94.6807 57.3222 l
95.3863 56.1198 l
96.0919 55.3784 l
97.1502 54.7051 l
98.385 54.2188 l
99.9726 53.8525 l
102.266 53.5883 l
105.617 53.443 l
117.612 53.3916 l
198.226 53.6295 l
267.902 53.8455 l
341.107 53.9508 l
357.865 53.9778 l
398.26 54.0215 l
526.5 54.4376 l
526.5 54.4376 l
stroke
grestore
gsave
453.4 220.1 73.12 44.01 clipbox
88.6832 168.489 m
89.2124 168.489 l
89.3888 93.6634 l
89.7416 73.1431 l
90.0944 66.1552 l
90.2708 65.9003 l
90.4472 168.489 l
90.6236 92.9015 l
90.9764 71.7728 l
91.3291 65.5895 l
91.6819 62.4298 l
92.2111 59.7247 l
93.4459 57.1287 l
94.1515 56.1679 l
95.0335 55.3814 l
96.0919 54.7696 l
97.3266 54.3319 l
98.9142 54.0067 l
101.207 53.7814 l
105.441 53.6455 l
119.905 53.6204 l
526.5 53.9791 l
526.5 53.9791 l
stroke
grestore
gsave
453.4 220.1 73.12 44.01 clipbox
88.6832 168.489 m
89.3888 168.489 l
89.5652 225.939 l
89.7416 196.126 l
89.918 194.353 l
90.2708 154.853 l
90.4472 155.261 l
90.9764 135.652 l
91.6819 122.121 l
92.0347 120.459 l
92.2111 119.927 l
94.3279 109.1 l
95.2099 106.16 l
96.4447 102.754 l
97.8558 99.6705 l
100.325 95.262 l
102.619 91.9666 l
104.735 89.5415 l
106.499 87.7883 l
108.087 86.3661 l
109.674 85.1358 l
112.32 83.3765 l
115.848 81.5107 l
117.965 80.5823 l
121.493 79.2871 l
126.961 77.6561 l
131.371 76.628 l
135.076 75.9341 l
139.838 75.2497 l
147.776 74.3972 l
161.182 73.474 l
179.704 72.6439 l
191.699 72.1239 l
193.639 72.1006 l
204.399 71.779 l
242.854 70.0977 l
252.909 69.6174 l
272.665 68.8104 l
284.307 68.4489 l
296.126 68.1456 l
302.652 67.9959 l
356.983 67.2813 l
390.674 67.0791 l
403.904 66.9583 l
460.528 66.5906 l
492.103 66.6631 l
526.5 66.8212 l
526.5 66.8212 l
stroke
grestore
gsave
453.4 220.1 73.12 44.01 clipbox
88.6832 168.489 m
89.3888 168.489 l
89.7416 101.799 l
90.0944 84.345 l
90.6236 76.2884 l
91.1527 73.0837 l
91.6819 70.9937 l
92.2111 70.1871 l
94.1515 70.946 l
98.9142 73.2585 l
104.559 75.9003 l
110.556 78.4586 l
118.671 81.6213 l
126.256 84.3751 l
132.959 86.4573 l
141.955 89.0777 l
149.011 90.8695 l
170.884 96.4725 l
178.822 98.5231 l
183.937 99.7142 l
202.812 103.885 l
205.458 104.44 l
209.162 105.24 l
213.219 106.13 l
226.449 108.857 l
237.209 110.913 l
240.561 111.57 l
247.264 112.935 l
264.727 116.258 l
276.017 118.48 l
279.897 119.168 l
279.897 119.168 l
stroke
grestore
gsave
453.4 220.1 73.12 44.01 clipbox
88.6832 168.489 m
89.2124 168.489 l
89.5652 96.2385 l
89.918 76.8084 l
90.0944 72.4245 l
90.2708 71.9335 l
90.4472 168.489 l
90.6236 92.0699 l
90.9764 72.0702 l
91.3291 66.0719 l
91.6819 62.9918 l
92.2111 60.6511 l
93.9751 58.0156 l
94.8571 57.2758 l
95.9155 56.6802 l
97.1502 56.2563 l
98.9142 55.9282 l
101.384 55.7319 l
105.617 55.6277 l
132.077 55.6241 l
479.226 55.7399 l
526.5 55.8444 l
526.5 55.8444 l
stroke
grestore
gsave
453.4 220.1 73.12 44.01 clipbox
88.6832 168.489 m
89.2124 168.489 l
89.5652 98.1082 l
89.7416 96.4223 l
89.918 168.489 l
90.0944 110.644 l
90.4472 81.8869 l
90.8 72.7016 l
91.3291 67.0055 l
91.8583 63.9414 l
92.2111 63.1414 l
92.3875 168.489 l
92.5639 95.0491 l
92.9167 75.5184 l
93.2695 69.3465 l
93.7987 64.6572 l
94.3279 62.0177 l
94.8571 60.2936 l
95.5627 58.7694 l
96.2683 57.7719 l
97.3266 56.9024 l
98.5614 56.2257 l
99.9726 55.7213 l
101.913 55.3022 l
104.559 54.9962 l
108.616 54.7986 l
115.848 54.7073 l
202.988 54.7385 l
233.505 54.7461 l
315.529 54.7864 l
319.763 54.8208 l
324.526 54.8361 l
328.583 54.7968 l
339.343 54.8445 l
343.577 54.8108 l
349.574 54.8504 l
397.378 54.8736 l
444.652 54.8689 l
449.415 54.9097 l
453.472 54.918 l
457.352 54.8952 l
467.407 54.891 l
473.405 54.8705 l
477.462 54.9314 l
485.752 54.9296 l
526.5 54.9007 l
526.5 54.9007 l
stroke
grestore
gsave
453.4 220.1 73.12 44.01 clipbox
88.8596 168.489 m
89.036 168.489 l
89.2124 168.489 l
89.3888 172.726 l
89.5652 139.435 l
89.7416 130.03 l
89.918 168.489 l
90.0944 172.574 l
90.4472 121.959 l
90.8 104.836 l
91.3291 94.9226 l
91.8583 89.1706 l
92.2111 87.4655 l
92.3875 168.489 l
92.7403 107.938 l
93.0931 86.2932 l
93.4459 77.9748 l
93.9751 71.5908 l
94.5043 67.9509 l
95.2099 64.891 l
95.9155 62.8934 l
96.621 61.5048 l
97.503 60.2699 l
98.5614 59.2406 l
99.6198 58.5083 l
100.855 57.9096 l
102.442 57.391 l
104.559 56.9649 l
107.381 56.6565 l
111.968 56.4481 l
119.553 56.357 l
141.426 56.2741 l
393.497 56.4208 l
406.021 56.4229 l
446.592 56.5212 l
458.587 56.5391 l
505.509 56.6863 l
526.5 56.7195 l
526.5 56.7195 l
stroke
grestore
gsave
453.4 220.1 73.12 44.01 clipbox
88.8596 168.489 m
89.036 168.489 l
89.2124 182.651 l
89.5652 123.652 l
89.918 104.019 l
90.2708 94.2905 l
90.8 89.0985 l
91.3291 88.2472 l
91.6819 87.8693 l
92.0347 168.489 m
92.2111 175.543 l
92.5639 137.527 l
93.0931 111.888 l
93.6223 99.491 l
94.1515 92.2646 l
94.8571 86.0921 l
95.5627 81.9056 l
96.4447 78.1262 l
97.3266 75.3439 l
98.385 72.8758 l
99.4434 70.9752 l
100.502 69.4988 l
101.737 68.1201 l
103.148 66.8689 l
104.735 65.7656 l
106.676 64.7372 l
108.969 63.7969 l
111.438 63.0497 l
114.614 62.366 l
118.141 61.8454 l
122.375 61.4313 l
128.02 61.0901 l
137.898 60.7826 l
207.751 60.4666 l
224.332 60.3663 l
233.505 60.34 l
241.972 60.3732 l
251.674 60.4021 l
300.359 60.3954 l
309.532 60.367 l
324.878 60.358 l
389.263 60.4354 l
409.549 60.4038 l
417.31 60.4007 l
427.189 60.464 l
435.656 60.5127 l
461.233 60.5978 l
471.641 60.6895 l
526.5 60.7834 l
526.5 60.7834 l
stroke
grestore
gsave
453.4 220.1 73.12 44.01 clipbox
88.8596 168.489 m
89.036 168.489 l
89.2124 98.7464 l
89.3888 76.1546 l
89.5652 68.8961 l
89.7416 168.489 l
89.918 75.677 l
90.2708 62.2089 l
90.6236 57.9392 l
90.9764 55.8828 l
91.5055 54.2026 l
92.0347 53.345 l
92.3875 53.0582 l
93.6223 52.3291 l
94.5043 51.8588 l
95.7391 51.5125 l
97.503 51.3016 l
100.678 51.2015 l
111.262 51.2134 l
199.284 51.3574 l
227.507 51.4083 l
320.116 51.5151 l
355.042 51.5383 l
395.79 51.5637 l
512.565 51.7192 l
525.265 51.7419 l
526.5 51.7442 l
526.5 51.7442 l
stroke
grestore
gsave
453.4 220.1 73.12 44.01 clipbox
88.8596 168.489 m
89.036 168.489 l
89.2124 168.489 l
89.3888 90.8313 l
89.7416 72.0432 l
90.0944 67.0356 l
90.4472 168.489 m
90.6236 108.178 l
90.9764 79.6211 l
91.3291 71.6655 l
91.8583 65.8025 l
92.2111 63.5722 l
92.7403 63.6806 l
93.2695 61.5395 l
93.9751 59.7373 l
95.5627 56.8554 l
96.4447 56.0008 l
97.503 55.323 l
98.7378 54.8199 l
100.325 54.4292 l
102.795 54.1263 l
106.499 53.9572 l
114.614 53.8824 l
144.601 53.9048 l
172.824 53.9199 l
246.735 53.9534 l
295.244 53.9742 l
322.056 54.0092 l
377.445 54.039 l
400.376 54.0524 l
526.5 54.2375 l
526.5 54.2375 l
stroke
grestore
gsave
453.4 220.1 73.12 44.01 clipbox
88.8596 168.489 m
89.036 168.489 l
89.2124 168.489 l
89.5652 104.712 l
89.918 87.8393 l
90.2708 80.2226 l
90.8 75.8983 l
91.3291 73.9104 l
91.6819 72.9353 l
92.0347 168.489 m
92.2111 173.621 l
92.3875 174.424 l
92.9167 164.251 l
93.6223 149.753 l
94.3279 140.335 l
95.0335 134.067 l
95.7391 129.451 l
96.7974 124.679 l
98.0322 120.26 l
99.4434 116.102 l
102.442 108.985 l
103.853 106.43 l
106.499 102.094 l
108.44 99.5649 l
111.438 96.4246 l
113.026 95.0809 l
116.554 92.5718 l
121.14 89.9489 l
124.668 88.162 l
125.903 87.5743 l
128.549 86.5879 l
135.958 84.2244 l
141.955 82.6938 l
148.482 81.4246 l
158.36 80.0477 l
161.711 79.778 l
174.765 79.0384 l
187.465 78.592 l
206.34 78.2714 l
211.808 78.218 l
246.735 77.7206 l
255.378 77.6549 l
284.131 77.4716 l
339.167 77.7322 l
347.986 77.776 l
359.276 77.8542 l
411.313 78.2135 l
417.487 78.2729 l
441.3 78.6256 l
492.632 79.3525 l
510.095 79.7927 l
515.916 79.8736 l
521.737 80.0117 l
526.5 80.1168 l
526.5 80.1168 l
stroke
grestore
gsave
453.4 220.1 73.12 44.01 clipbox
88.8596 168.489 m
89.3888 168.489 l
89.918 113.742 l
90.2708 101.115 l
90.8 93.0086 l
91.3291 88.4292 l
91.6819 86.2517 l
91.8583 86.1004 l
92.0347 168.489 l
92.2111 118.176 l
92.5639 90.1783 l
92.9167 80.1977 l
93.4459 72.8004 l
93.9751 68.6251 l
94.6807 65.1719 l
95.3863 62.8985 l
96.0919 61.2908 l
96.9738 59.8359 l
98.0322 58.5353 l
99.267 57.4229 l
100.678 56.4788 l
102.266 55.6818 l
104.206 54.9734 l
106.499 54.3674 l
109.498 53.8272 l
113.026 53.4067 l
117.083 53.1196 l
122.904 52.9092 l
131.371 52.7948 l
149.54 52.7997 l
263.669 53.3053 l
526.5 54.3416 l
526.5 54.3416 l
stroke
grestore
gsave
453.4 220.1 73.12 44.01 clipbox
88.8596 168.489 m
89.036 168.489 l
89.2124 168.489 l
89.3888 259.138 l
89.5652 209.029 l
89.7416 221.874 l
90.0944 163.748 l
90.4472 168.489 m
90.6236 181.555 l
90.8 180.94 l
91.3291 145.046 l
91.6819 134.073 l
92.0347 129.038 l
92.2111 127.084 l
92.3875 168.489 l
92.7403 107.468 l
93.0931 85.9574 l
93.4459 77.7347 l
93.9751 71.4404 l
94.5043 67.8686 l
95.2099 64.8543 l
95.9155 62.8941 l
96.621 61.5878 l
97.503 60.4366 l
98.5614 59.4675 l
99.7962 58.6862 l
101.207 58.0854 l
102.971 57.6022 l
105.441 57.2154 l
109.322 56.9151 l
117.083 56.6993 l
152.01 56.4029 l
313.236 56.0041 l
526.5 56.201 l
526.5 56.201 l
stroke
grestore
gsave
453.4 220.1 73.12 44.01 clipbox
88.8596 168.489 m
89.3888 168.489 l
89.5652 254.195 l
89.7416 238.69 l
89.918 283.161 l
90.2708 216.537 l
90.4472 251.253 l
90.6236 248.696 l
90.8 237.201 l
92.0347 168.489 m
92.2111 58.9289 l
92.5639 52.9472 l
92.9167 51.0904 l
93.4459 49.6912 l
93.9751 48.9138 l
94.6807 48.2715 l
95.7391 47.6944 l
97.1502 47.2483 l
99.0906 46.8906 l
102.089 46.5971 l
106.499 46.415 l
114.966 46.3088 l
139.838 46.3222 l
205.634 46.362 l
258.377 46.3647 l
374.975 46.364 l
465.996 46.4681 l
526.5 46.5133 l
526.5 46.5133 l
stroke
grestore
gsave
453.4 220.1 73.12 44.01 clipbox
88.8596 168.489 m
89.036 168.489 l
89.2124 194.925 l
89.3888 125.673 l
89.5652 105.238 l
89.918 225.213 l
90.0944 245.715 l
90.2708 234.655 l
90.4472 168.489 l
90.9764 107.381 l
91.3291 92.2129 l
91.8583 81.7148 l
92.2111 77.8546 l
92.3875 168.489 l
92.5639 56.3813 l
92.9167 51.3281 l
93.2695 49.7859 l
93.7987 48.6759 l
94.3279 48.0693 l
95.0335 47.5731 l
96.0919 47.1323 l
97.6794 46.7646 l
99.9726 46.4924 l
103.853 46.2928 l
111.086 46.1833 l
132.782 46.1646 l
438.302 46.39 l
526.324 46.4523 l
526.5 46.4522 l
526.5 46.4522 l
stroke
grestore
gsave
453.4 220.1 73.12 44.01 clipbox
88.8596 168.489 m
89.3888 168.489 l
89.5652 123.163 l
89.7416 168.489 l
90.0944 111.431 l
90.2708 109.89 l
90.4472 168.489 l
91.1527 105.048 l
91.6819 92.5171 l
91.8583 89.9215 l
92.2111 89.8628 l
92.3875 168.489 l
92.5639 63.1271 l
92.9167 55.1432 l
93.2695 52.6994 l
93.7987 50.945 l
94.3279 49.9732 l
95.0335 49.1642 l
95.9155 48.5305 l
96.9738 48.0361 l
98.5614 47.5687 l
100.678 47.1984 l
103.853 46.8915 l
108.616 46.674 l
117.612 46.5345 l
139.838 46.5101 l
236.327 46.5926 l
431.599 46.7715 l
473.581 46.8144 l
524.207 46.851 l
526.5 46.853 l
526.5 46.853 l
stroke
grestore
gsave
453.4 220.1 73.12 44.01 clipbox
88.8596 168.489 m
89.3888 168.489 l
89.7416 168.489 m
89.918 168.489 l
90.4472 168.489 m
90.6236 54.8781 l
90.9764 49.9899 l
91.3291 48.5485 l
91.8583 47.6314 l
92.5639 47.2728 l
93.9751 46.8626 l
96.0919 46.537 l
99.4434 46.2883 l
105.088 46.1202 l
117.259 46.0165 l
123.433 46.1373 l
124.315 46.1793 l
124.315 46.1793 l
stroke
grestore
gsave
453.4 220.1 73.12 44.01 clipbox
88.8596 168.489 m
89.036 168.489 l
89.2124 95.9894 l
89.3888 168.489 l
89.7416 168.489 m
89.918 121.303 l
90.0944 99.6344 l
90.6236 73.9711 l
90.9764 68.5721 l
91.5055 64.745 l
91.8583 63.1265 l
92.5639 61.9325 l
93.6223 60.7987 l
94.6807 60.0043 l
95.9155 59.3681 l
97.503 58.8112 l
99.6198 58.3558 l
102.266 58.0302 l
105.441 57.8334 l
111.615 57.6696 l
123.61 57.6098 l
144.601 57.5525 l
271.959 57.4404 l
316.588 57.4846 l
326.466 57.4846 l
349.927 57.4967 l
364.039 57.4959 l
401.258 57.4904 l
427.189 57.4942 l
442.888 57.5154 l
450.473 57.5528 l
463.703 57.5594 l
480.46 57.6273 l
492.455 57.6804 l
510.271 57.7232 l
526.5 57.7616 l
526.5 57.7616 l
stroke
grestore
gsave
453.4 220.1 73.12 44.01 clipbox
88.8596 168.489 m
89.036 168.489 l
89.2124 168.489 l
89.3888 185.453 l
89.7416 127.01 l
90.0944 103.291 l
90.4472 94.7553 l
90.8 90.5596 l
91.5055 86.3185 l
91.8583 84.851 l
92.0347 84.5101 l
92.2111 84.4637 l
92.3875 168.489 l
92.5639 86.5601 l
92.9167 69.6645 l
93.2695 64.1984 l
93.7987 60.161 l
94.3279 57.8989 l
95.0335 56.042 l
95.7391 54.832 l
96.4447 54.0025 l
97.503 53.1494 l
98.7378 52.4644 l
100.325 51.8734 l
102.442 51.3728 l
105.088 50.9935 l
108.969 50.7 l
114.79 50.5173 l
124.668 50.4326 l
157.125 50.4582 l
484.87 50.5292 l
526.5 50.5035 l
526.5 50.5035 l
stroke
grestore
gsave
453.4 220.1 73.12 44.01 clipbox
89.036 168.489 m
89.2124 168.489 l
89.3888 168.489 l
89.7416 168.489 m
89.918 168.489 l
90.0944 211.839 l
90.2543 294.4 l
90.4321 294.4 m
90.4472 293.607 l
90.9764 213.624 l
91.3291 185.666 l
91.6819 172.705 l
92.2111 166.807 l
92.3875 168.489 l
92.5639 106.204 l
92.9167 82.4564 l
93.2695 74.1229 l
93.7987 67.9948 l
94.3279 64.5596 l
95.0335 61.6432 l
95.7391 59.6719 l
96.621 57.9896 l
97.6794 56.5728 l
98.7378 55.5185 l
100.149 54.4772 l
101.737 53.6059 l
103.677 52.8025 l
105.97 52.0926 l
108.969 51.4135 l
113.026 50.7303 l
117.612 50.1976 l
123.786 49.7061 l
134.37 49.1744 l
146.365 48.8077 l
167.356 48.4795 l
191.699 48.3094 l
246.735 48.1205 l
335.639 48.0163 l
524.736 48.352 l
526.5 48.3584 l
526.5 48.3584 l
stroke
grestore
gsave
453.4 220.1 73.12 44.01 clipbox
89.036 168.489 m
89.1669 294.4 l
89.283 294.4 m
89.3888 228.866 l
89.5652 179.048 l
89.918 135.328 l
90.2708 117.881 l
90.6236 109.685 l
91.1527 103.913 l
91.5055 101.664 l
91.6819 100.914 l
92.0347 168.489 m
92.2111 107.402 l
92.5639 82.6014 l
92.9167 74.2178 l
93.4459 68.092 l
93.9751 64.7209 l
94.5043 62.4813 l
95.2099 60.4534 l
96.0919 58.7206 l
96.9738 57.4719 l
98.0322 56.4045 l
99.267 55.5162 l
100.678 54.7921 l
102.442 54.1585 l
104.559 53.6499 l
107.381 53.2285 l
111.262 52.9024 l
117.083 52.667 l
125.903 52.5714 l
289.246 52.7728 l
312.178 52.7758 l
366.332 52.786 l
448.18 52.8674 l
501.981 52.9211 l
525.618 52.9467 l
526.5 52.9469 l
526.5 52.9469 l
stroke
grestore
0.500 setlinewidth
0 setlinecap
0.000 setgray
gsave
/o {
gsave
newpath
translate
0.5 setlinewidth
1 setlinejoin
0 setlinecap
0 0 m
0 4 l
gsave
0.000 setgray
fill
grestore
stroke
grestore
} bind def
73.125 44.01 o
grestore
gsave
/o {
gsave
newpath
translate
0.5 setlinewidth
1 setlinejoin
0 setlinecap
0 0 m
0 -4 l
gsave
0.000 setgray
fill
grestore
stroke
grestore
} bind def
73.125 264.06 o
grestore
/DejaVuSans findfont
12.000 scalefont
setfont
gsave
66.179688 30.885000 translate
0.000000 rotate
0.000000 0.000000 m /four glyphshow
7.634766 0.000000 m /zero glyphshow
grestore
gsave
/o {
gsave
newpath
translate
0.5 setlinewidth
1 setlinejoin
0 setlinecap
0 0 m
0 4 l
gsave
0.000 setgray
fill
grestore
stroke
grestore
} bind def
143.684 44.01 o
grestore
gsave
/o {
gsave
newpath
translate
0.5 setlinewidth
1 setlinejoin
0 setlinecap
0 0 m
0 -4 l
gsave
0.000 setgray
fill
grestore
stroke
grestore
} bind def
143.684 264.06 o
grestore
gsave
136.863399 30.885000 translate
0.000000 rotate
0.000000 0.000000 m /six glyphshow
7.634766 0.000000 m /zero glyphshow
grestore
gsave
/o {
gsave
newpath
translate
0.5 setlinewidth
1 setlinejoin
0 setlinecap
0 0 m
0 4 l
gsave
0.000 setgray
fill
grestore
stroke
grestore
} bind def
214.242 44.01 o
grestore
gsave
/o {
gsave
newpath
translate
0.5 setlinewidth
1 setlinejoin
0 setlinecap
0 0 m
0 -4 l
gsave
0.000 setgray
fill
grestore
stroke
grestore
} bind def
214.242 264.06 o
grestore
gsave
207.406486 30.885000 translate
0.000000 rotate
0.000000 0.000000 m /eight glyphshow
7.634766 0.000000 m /zero glyphshow
grestore
gsave
/o {
gsave
newpath
translate
0.5 setlinewidth
1 setlinejoin
0 setlinecap
0 0 m
0 4 l
gsave
0.000 setgray
fill
grestore
stroke
grestore
} bind def
284.801 44.01 o
grestore
gsave
/o {
gsave
newpath
translate
0.5 setlinewidth
1 setlinejoin
0 setlinecap
0 0 m
0 -4 l
gsave
0.000 setgray
fill
grestore
stroke
grestore
} bind def
284.801 264.06 o
grestore
gsave
274.394885 30.885000 translate
0.000000 rotate
0.000000 0.000000 m /one glyphshow
7.634766 0.000000 m /zero glyphshow
15.269531 0.000000 m /zero glyphshow
grestore
gsave
/o {
gsave
newpath
translate
0.5 setlinewidth
1 setlinejoin
0 setlinecap
0 0 m
0 4 l
gsave
0.000 setgray
fill
grestore
stroke
grestore
} bind def
355.36 44.01 o
grestore
gsave
/o {
gsave
newpath
translate
0.5 setlinewidth
1 setlinejoin
0 setlinecap
0 0 m
0 -4 l
gsave
0.000 setgray
fill
grestore
stroke
grestore
} bind def
355.36 264.06 o
grestore
gsave
344.953596 30.885000 translate
0.000000 rotate
0.000000 0.000000 m /one glyphshow
7.634766 0.000000 m /two glyphshow
15.269531 0.000000 m /zero glyphshow
grestore
gsave
/o {
gsave
newpath
translate
0.5 setlinewidth
1 setlinejoin
0 setlinecap
0 0 m
0 4 l
gsave
0.000 setgray
fill
grestore
stroke
grestore
} bind def
425.919 44.01 o
grestore
gsave
/o {
gsave
newpath
translate
0.5 setlinewidth
1 setlinejoin
0 setlinecap
0 0 m
0 -4 l
gsave
0.000 setgray
fill
grestore
stroke
grestore
} bind def
425.919 264.06 o
grestore
gsave
415.512308 30.885000 translate
0.000000 rotate
0.000000 0.000000 m /one glyphshow
7.634766 0.000000 m /four glyphshow
15.269531 0.000000 m /zero glyphshow
grestore
gsave
/o {
gsave
newpath
translate
0.5 setlinewidth
1 setlinejoin
0 setlinecap
0 0 m
0 4 l
gsave
0.000 setgray
fill
grestore
stroke
grestore
} bind def
496.477 44.01 o
grestore
gsave
/o {
gsave
newpath
translate
0.5 setlinewidth
1 setlinejoin
0 setlinecap
0 0 m
0 -4 l
gsave
0.000 setgray
fill
grestore
stroke
grestore
} bind def
496.477 264.06 o
grestore
gsave
486.071019 30.885000 translate
0.000000 rotate
0.000000 0.000000 m /one glyphshow
7.634766 0.000000 m /six glyphshow
15.269531 0.000000 m /zero glyphshow
grestore
gsave
277.820312 14.260000 translate
0.000000 rotate
0.000000 0.000000 m /T glyphshow
6.955078 0.000000 m /i glyphshow
10.289062 0.000000 m /m glyphshow
21.978516 0.000000 m /e glyphshow
29.361328 0.000000 m /bracketleft glyphshow
34.042969 0.000000 m /s glyphshow
40.294922 0.000000 m /bracketright glyphshow
grestore
gsave
/o {
gsave
newpath
translate
0.5 setlinewidth
1 setlinejoin
0 setlinecap
0 0 m
4 0 l
gsave
0.000 setgray
fill
grestore
stroke
grestore
} bind def
73.125 44.01 o
grestore
gsave
/o {
gsave
newpath
translate
0.5 setlinewidth
1 setlinejoin
0 setlinecap
0 0 m
-4 0 l
gsave
0.000 setgray
fill
grestore
stroke
grestore
} bind def
526.5 44.01 o
grestore
gsave
63.078125 40.697500 translate
0.000000 rotate
0.000000 0.000000 m /zero glyphshow
grestore
gsave
/o {
gsave
newpath
translate
0.5 setlinewidth
1 setlinejoin
0 setlinecap
0 0 m
4 0 l
gsave
0.000 setgray
fill
grestore
stroke
grestore
} bind def
73.125 88.02 o
grestore
gsave
/o {
gsave
newpath
translate
0.5 setlinewidth
1 setlinejoin
0 setlinecap
0 0 m
-4 0 l
gsave
0.000 setgray
fill
grestore
stroke
grestore
} bind def
526.5 88.02 o
grestore
gsave
63.906250 84.707500 translate
0.000000 rotate
0.000000 0.000000 m /one glyphshow
grestore
gsave
/o {
gsave
newpath
translate
0.5 setlinewidth
1 setlinejoin
0 setlinecap
0 0 m
4 0 l
gsave
0.000 setgray
fill
grestore
stroke
grestore
} bind def
73.125 132.03 o
grestore
gsave
/o {
gsave
newpath
translate
0.5 setlinewidth
1 setlinejoin
0 setlinecap
0 0 m
-4 0 l
gsave
0.000 setgray
fill
grestore
stroke
grestore
} bind def
526.5 132.03 o
grestore
gsave
63.562500 128.717500 translate
0.000000 rotate
0.000000 0.000000 m /two glyphshow
grestore
gsave
/o {
gsave
newpath
translate
0.5 setlinewidth
1 setlinejoin
0 setlinecap
0 0 m
4 0 l
gsave
0.000 setgray
fill
grestore
stroke
grestore
} bind def
73.125 176.04 o
grestore
gsave
/o {
gsave
newpath
translate
0.5 setlinewidth
1 setlinejoin
0 setlinecap
0 0 m
-4 0 l
gsave
0.000 setgray
fill
grestore
stroke
grestore
} bind def
526.5 176.04 o
grestore
gsave
63.375000 172.727500 translate
0.000000 rotate
0.000000 0.000000 m /three glyphshow
grestore
gsave
/o {
gsave
newpath
translate
0.5 setlinewidth
1 setlinejoin
0 setlinecap
0 0 m
4 0 l
gsave
0.000 setgray
fill
grestore
stroke
grestore
} bind def
73.125 220.05 o
grestore
gsave
/o {
gsave
newpath
translate
0.5 setlinewidth
1 setlinejoin
0 setlinecap
0 0 m
-4 0 l
gsave
0.000 setgray
fill
grestore
stroke
grestore
} bind def
526.5 220.05 o
grestore
gsave
62.750000 216.737500 translate
0.000000 rotate
0.000000 0.000000 m /four glyphshow
grestore
gsave
/o {
gsave
newpath
translate
0.5 setlinewidth
1 setlinejoin
0 setlinecap
0 0 m
4 0 l
gsave
0.000 setgray
fill
grestore
stroke
grestore
} bind def
73.125 264.06 o
grestore
gsave
/o {
gsave
newpath
translate
0.5 setlinewidth
1 setlinejoin
0 setlinecap
0 0 m
-4 0 l
gsave
0.000 setgray
fill
grestore
stroke
grestore
} bind def
526.5 264.06 o
grestore
gsave
63.453125 260.747500 translate
0.000000 rotate
0.000000 0.000000 m /five glyphshow
grestore
gsave
53.750000 136.535000 translate
90.000000 rotate
/Cmmi10 findfont
12.0 scalefont
setfont
0.000000 0.875000 moveto
/sigma glyphshow

/Cmmi10 findfont
8.4 scalefont
setfont
6.849609 -2.186125 moveto
/d glyphshow

/DejaVuSans findfont
12.0 scalefont
setfont
13.089844 0.875000 moveto
/bracketleft glyphshow

17.771484 0.875000 moveto
/m glyphshow

29.460938 0.875000 moveto
/bracketright glyphshow


grestore
1.000 setlinewidth
gsave
73.125 264.06 m
526.5 264.06 l
stroke
grestore
gsave
526.5 44.01 m
526.5 264.06 l
stroke
grestore
gsave
73.125 44.01 m
526.5 44.01 l
stroke
grestore
gsave
73.125 44.01 m
73.125 264.06 l
stroke
grestore
gsave
206.960938 278.407000 translate
0.000000 rotate
0.000000 0.000000 m /D glyphshow
9.240234 0.000000 m /i glyphshow
12.574219 0.000000 m /s glyphshow
18.826172 0.000000 m /t glyphshow
23.531250 0.000000 m /a glyphshow
30.884766 0.000000 m /n glyphshow
38.490234 0.000000 m /c glyphshow
45.087891 0.000000 m /e glyphshow
52.470703 0.000000 m /space glyphshow
56.285156 0.000000 m /S glyphshow
63.902344 0.000000 m /t glyphshow
68.607422 0.000000 m /a glyphshow
75.960938 0.000000 m /n glyphshow
83.566406 0.000000 m /d glyphshow
91.183594 0.000000 m /a glyphshow
98.537109 0.000000 m /r glyphshow
103.220703 0.000000 m /d glyphshow
110.837891 0.000000 m /space glyphshow
114.652344 0.000000 m /D glyphshow
123.892578 0.000000 m /e glyphshow
131.275391 0.000000 m /v glyphshow
138.376953 0.000000 m /i glyphshow
141.710938 0.000000 m /a glyphshow
149.064453 0.000000 m /t glyphshow
153.769531 0.000000 m /i glyphshow
157.103516 0.000000 m /o glyphshow
164.445312 0.000000 m /n glyphshow
grestore

end
showpage
